001:0013879037:20120430:050644:BLANK !!:11
001:0002294278:20120430:050649:BLANK !!:11
001:0010549454:20120430:050655:BLANK !!:11
001:0003103684:20120430:050658:BLANK !!:11
001:0002273537:20120430:050701:BLANK !!:11
001:0013896015:20120430:064836:BLANK !!:11
001:0009363036:20120430:064841:BLANK !!:11
001:0003116318:20120430:064910:BLANK !!:11
001:0002287554:20120430:065039:BLANK !!:11
001:0013888913:20120430:070342:BLANK !!:11
001:0009366281:20120430:070417:BLANK !!:11
001:0013896080:20120430:070531:BLANK !!:11
001:0010551140:20120430:071219:BLANK !!:11
001:0015693730:20120430:071724:BLANK !!:11
001:0002267789:20120430:072944:BLANK !!:11
001:0010536569:20120430:073018:BLANK !!:11
001:0013944638:20120430:073022:BLANK !!:11
001:0010530367:20120430:073043:BLANK !!:11
001:0010550707:20120430:073045:BLANK !!:11
001:0010539061:20120430:073046:BLANK !!:11
001:0015688795:20120430:073048:BLANK !!:11
001:0002293780:20120430:073050:BLANK !!:11
001:0009371131:20120430:073053:BLANK !!:11
001:0009363039:20120430:073055:BLANK !!:11
001:0006755519:20120430:073100:BLANK !!:11
001:0013875148:20120430:073102:BLANK !!:11
001:0009350669:20120430:073104:BLANK !!:11
001:0002274545:20120430:073105:BLANK !!:11
001:0015689937:20120430:073106:BLANK !!:11
001:0010540274:20120430:073111:BLANK !!:11
001:0013900625:20120430:073112:BLANK !!:11
001:0009365681:20120430:073114:BLANK !!:11
001:0013897124:20120430:073117:BLANK !!:11
001:0013888628:20120430:073121:BLANK !!:11
001:0013900745:20120430:073125:BLANK !!:11
001:0015694393:20120430:073128:BLANK !!:11
001:0002282162:20120430:073131:BLANK !!:11
001:0003102332:20120430:073138:BLANK !!:11
001:0003115319:20120430:073140:BLANK !!:11
001:0010550678:20120430:073144:BLANK !!:11
001:0013881586:20120430:073148:BLANK !!:11
001:0013887985:20120430:073150:BLANK !!:11
001:0013878009:20120430:073152:BLANK !!:11
001:0013885002:20120430:073156:BLANK !!:11
001:0000365093:20120430:073200:BLANK !!:11
001:0013887499:20120430:073209:BLANK !!:11
001:0013892407:20120430:073227:BLANK !!:11
001:0013900540:20120430:073234:BLANK !!:11
001:0013887688:20120430:073242:BLANK !!:11
001:0009364805:20120430:073304:BLANK !!:11
001:0013890035:20120430:073309:BLANK !!:11
001:0006751519:20120430:073316:BLANK !!:11
001:0009347994:20120430:073325:BLANK !!:11
001:0010530514:20120430:073401:BLANK !!:11
001:0002282143:20120430:073413:BLANK !!:11
001:0009361053:20120430:073419:BLANK !!:11
001:0009361700:20120430:073422:BLANK !!:11
001:0013894885:20120430:073424:BLANK !!:11
001:0013887126:20120430:073426:BLANK !!:11
001:0013883538:20120430:073428:BLANK !!:11
001:0009348592:20120430:073503:BLANK !!:11
001:0010553833:20120430:073506:BLANK !!:11
001:0002295364:20120430:073523:BLANK !!:11
001:0010544149:20120430:073526:BLANK !!:11
001:0015696269:20120430:073535:BLANK !!:11
001:0015688510:20120430:073538:BLANK !!:11
001:0013930013:20120430:073603:BLANK !!:11
001:0013885899:20120430:073614:BLANK !!:11
001:0013897942:20120430:073619:BLANK !!:11
001:0002270614:20120430:073633:BLANK !!:11
001:0010541979:20120430:073639:BLANK !!:11
001:0010543526:20120430:073646:BLANK !!:11
001:0010547974:20120430:073653:BLANK !!:11
001:0006757638:20120430:073719:BLANK !!:11
001:0010549504:20120430:073724:BLANK !!:11
001:0013878180:20120430:073728:BLANK !!:11
001:0002291755:20120430:073733:BLANK !!:11
001:0010539435:20120430:073737:BLANK !!:11
001:0010531397:20120430:073741:BLANK !!:11
001:0010547087:20120430:073745:BLANK !!:11
001:0002291294:20120430:073748:BLANK !!:11
001:0010533341:20120430:073752:BLANK !!:11
001:0006750527:20120430:073818:BLANK !!:11
001:0010551210:20120430:073900:BLANK !!:11
001:0010549955:20120430:073903:BLANK !!:11
001:0013878454:20120430:073905:BLANK !!:11
001:0009356502:20120430:073921:BLANK !!:11
001:0002273808:20120430:073924:BLANK !!:11
001:0002290081:20120430:073926:BLANK !!:11
001:0002289438:20120430:073930:BLANK !!:11
001:0009364108:20120430:073932:BLANK !!:11
001:0010549884:20120430:073935:BLANK !!:11
001:0010544167:20120430:073937:BLANK !!:11
001:0013888858:20120430:073953:BLANK !!:11
001:0002268007:20120430:073956:BLANK !!:11
001:0009360461:20120430:074003:BLANK !!:11
001:0009364804:20120430:074004:BLANK !!:11
001:0010653054:20120430:074025:BLANK !!:11
001:0010549455:20120430:074029:BLANK !!:11
001:0009350670:20120430:074032:BLANK !!:11
001:0009361701:20120430:074035:BLANK !!:11
001:0009364324:20120430:074051:BLANK !!:11
001:0013952446:20120430:074058:BLANK !!:11
001:0013881426:20120430:074103:BLANK !!:11
001:0015693718:20120430:074106:BLANK !!:11
001:0015696806:20120430:074110:BLANK !!:11
001:0006755461:20120430:074112:BLANK !!:11
001:0009366722:20120430:074118:BLANK !!:11
001:0010547437:20120430:074120:BLANK !!:11
001:0013887437:20120430:074123:BLANK !!:11
001:0010534521:20120430:074124:BLANK !!:11
001:0013874099:20120430:074126:BLANK !!:11
001:0003110988:20120430:074128:BLANK !!:11
001:0013900030:20120430:074131:BLANK !!:11
001:0006750419:20120430:074133:BLANK !!:11
001:0006753686:20120430:074139:BLANK !!:11
001:0000365380:20120430:074143:BLANK !!:11
001:0013896430:20120430:074145:BLANK !!:11
001:0013878129:20120430:074148:BLANK !!:11
001:0009360458:20120430:074150:BLANK !!:11
001:0013882456:20120430:074152:BLANK !!:11
001:0002277756:20120430:074154:BLANK !!:11
001:0009354724:20120430:074157:BLANK !!:11
001:0010549740:20120430:074204:BLANK !!:11
001:0010548307:20120430:074217:BLANK !!:11
001:0010540251:20120430:074221:BLANK !!:11
001:0013891964:20120430:074225:BLANK !!:11
001:0013894338:20120430:074227:BLANK !!:11
001:0010551115:20120430:074232:BLANK !!:11
001:0010549748:20120430:074234:BLANK !!:11
001:0010536569:20120430:074237:BLANK !!:11
001:0013874960:20120430:074239:BLANK !!:11
001:0009364806:20120430:074241:BLANK !!:11
001:0006753823:20120430:074244:BLANK !!:11
001:0010538695:20120430:074246:BLANK !!:11
001:0013875397:20120430:074252:BLANK !!:11
001:0006758789:20120430:074258:BLANK !!:11
001:0013888594:20120430:074300:BLANK !!:11
001:0010551155:20120430:074308:BLANK !!:11
001:0006754204:20120430:074310:BLANK !!:11
001:0013893682:20120430:074312:BLANK !!:11
001:0013887862:20120430:074314:BLANK !!:11
001:0009368404:20120430:074316:BLANK !!:11
001:0013894712:20120430:074318:BLANK !!:11
001:0013935114:20120430:074319:BLANK !!:11
001:0000365761:20120430:074324:BLANK !!:11
001:0010537779:20120430:074327:BLANK !!:11
001:0013940479:20120430:074330:BLANK !!:11
001:0009363041:20120430:074332:BLANK !!:11
001:0013214375:20120430:074335:BLANK !!:11
001:0002292541:20120430:074339:BLANK !!:11
001:0002268037:20120430:074340:BLANK !!:11
001:0010547320:20120430:074342:BLANK !!:11
001:0009360755:20120430:074344:BLANK !!:11
001:0009360048:20120430:074346:BLANK !!:11
001:0015684972:20120430:074351:BLANK !!:11
001:0013884590:20120430:074357:BLANK !!:11
001:0013900680:20120430:074359:BLANK !!:11
001:0010531624:20120430:074401:BLANK !!:11
001:0009363103:20120430:074406:BLANK !!:11
001:0015692449:20120430:074408:BLANK !!:11
001:0009368209:20120430:074410:BLANK !!:11
001:0013899674:20120430:074413:BLANK !!:11
001:0013884770:20120430:074415:BLANK !!:11
001:0015697397:20120430:074417:BLANK !!:11
001:0002267758:20120430:074425:BLANK !!:11
001:0013893990:20120430:074430:BLANK !!:11
001:0002270146:20120430:074433:BLANK !!:11
001:0013894940:20120430:074440:BLANK !!:11
001:0000365148:20120430:074447:BLANK !!:11
001:0010640656:20120430:074449:BLANK !!:11
001:0009357241:20120430:074501:BLANK !!:11
001:0010547091:20120430:074504:BLANK !!:11
001:0009364773:20120430:074505:BLANK !!:11
001:0010548264:20120430:074508:BLANK !!:11
001:0015697358:20120430:074510:BLANK !!:11
001:0010552986:20120430:074512:BLANK !!:11
001:0013933226:20120430:074514:BLANK !!:11
001:0010549697:20120430:074516:BLANK !!:11
001:0010549371:20120430:074520:BLANK !!:11
001:0013886114:20120430:074523:BLANK !!:11
001:0002267666:20120430:074525:BLANK !!:11
001:0009357239:20120430:074541:BLANK !!:11
001:0010651256:20120430:074555:BLANK !!:11
001:0013878044:20120430:074559:BLANK !!:11
001:0013877148:20120430:074601:BLANK !!:11
001:0006758961:20120430:074603:BLANK !!:11
001:0013952741:20120430:074606:BLANK !!:11
001:0010551168:20120430:074610:BLANK !!:11
001:0002274131:20120430:074620:BLANK !!:11
001:0002270962:20120430:074623:BLANK !!:11
001:0010549766:20120430:074625:BLANK !!:11
001:0009371413:20120430:074627:BLANK !!:11
001:0010550294:20120430:074629:BLANK !!:11
001:0015682819:20120430:074634:BLANK !!:11
001:0002294646:20120430:074636:BLANK !!:11
001:0013878382:20120430:074638:BLANK !!:11
001:0015688160:20120430:074639:BLANK !!:11
001:0013897049:20120430:074641:BLANK !!:11
001:0009347993:20120430:074643:BLANK !!:11
001:0013879728:20120430:074645:BLANK !!:11
001:0010554314:20120430:074647:BLANK !!:11
001:0009364772:20120430:074650:BLANK !!:11
001:0010548132:20120430:074655:BLANK !!:11
001:0009354725:20120430:074658:BLANK !!:11
001:0015690234:20120430:074713:BLANK !!:11
001:0015685005:20120430:074717:BLANK !!:11
001:0015693682:20120430:074722:BLANK !!:11
001:0013889730:20120430:074724:BLANK !!:11
001:0013944638:20120430:074727:BLANK !!:11
001:0002273235:20120430:074729:BLANK !!:11
001:0009364774:20120430:074731:BLANK !!:11
001:0013880536:20120430:074740:BLANK !!:11
001:0013897532:20120430:074742:BLANK !!:11
001:0006756264:20120430:074745:BLANK !!:11
001:0013886660:20120430:074747:BLANK !!:11
001:0010550306:20120430:074806:BLANK !!:11
001:0013884285:20120430:074817:BLANK !!:11
001:0010628117:20120430:074820:BLANK !!:11
001:0010549787:20120430:074822:BLANK !!:11
001:0015694629:20120430:074824:BLANK !!:11
001:0015685006:20120430:074826:BLANK !!:11
001:0010542279:20120430:074828:BLANK !!:11
001:0015698466:20120430:074829:BLANK !!:11
001:0010538666:20120430:074831:BLANK !!:11
001:0010549567:20120430:074833:BLANK !!:11
001:0009371128:20120430:074836:BLANK !!:11
001:0010539352:20120430:074838:BLANK !!:11
001:0013888865:20120430:074840:BLANK !!:11
001:0010550890:20120430:074843:BLANK !!:11
001:0000407097:20120430:074845:BLANK !!:11
001:0013886928:20120430:074848:BLANK !!:11
001:0013888305:20120430:074858:BLANK !!:11
001:0009360116:20120430:074904:BLANK !!:11
001:0003101201:20120430:074908:BLANK !!:11
001:0009369518:20120430:074912:BLANK !!:11
001:0010546752:20120430:074916:BLANK !!:11
001:0015697731:20120430:074918:BLANK !!:11
001:0009369521:20120430:074922:BLANK !!:11
001:0015688809:20120430:074925:BLANK !!:11
001:0003116472:20120430:074928:BLANK !!:11
001:0010549767:20120430:074930:BLANK !!:11
001:0010549428:20120430:074933:BLANK !!:11
001:0015689962:20120430:074944:BLANK !!:11
001:0010542101:20120430:074948:BLANK !!:11
001:0010549407:20120430:075001:BLANK !!:11
001:0010550889:20120430:075019:BLANK !!:11
001:0013892286:20120430:075021:BLANK !!:11
001:0013878708:20120430:075023:BLANK !!:11
001:0013895313:20120430:075025:BLANK !!:11
001:0002290144:20120430:075029:BLANK !!:11
001:0009359710:20120430:075033:BLANK !!:11
001:0010551185:20120430:075041:BLANK !!:11
001:0013877389:20120430:075044:BLANK !!:11
001:0010532210:20120430:075049:BLANK !!:11
001:0013883458:20120430:075053:BLANK !!:11
001:0009361055:20120430:075100:BLANK !!:11
001:0013895851:20120430:075104:BLANK !!:11
001:0009352948:20120430:075108:BLANK !!:11
001:0013891973:20120430:075112:BLANK !!:11
001:0000683571:20120430:075116:BLANK !!:11
001:0009357257:20120430:075120:BLANK !!:11
001:0006750042:20120430:075126:BLANK !!:11
001:0015689920:20120430:075135:BLANK !!:11
001:0013888430:20120430:075138:BLANK !!:11
001:0002293868:20120430:075142:BLANK !!:11
001:0010549433:20120430:075145:BLANK !!:11
001:0010549413:20120430:075201:BLANK !!:11
001:0010551136:20120430:075212:BLANK !!:11
001:0010549596:20120430:075214:BLANK !!:11
001:0006754257:20120430:075216:BLANK !!:11
001:0015698029:20120430:075219:BLANK !!:11
001:0002290826:20120430:075222:BLANK !!:11
001:0002292481:20120430:075225:BLANK !!:11
001:0015674443:20120430:075232:BLANK !!:11
001:0015691426:20120430:075236:BLANK !!:11
001:0013894407:20120430:075249:BLANK !!:11
001:0015674317:20120430:075253:BLANK !!:11
001:0002282243:20120430:075256:BLANK !!:11
001:0009364321:20120430:075312:BLANK !!:11
001:0002284706:20120430:075314:BLANK !!:11
001:0010549402:20120430:075317:BLANK !!:11
001:0013883591:20120430:075319:BLANK !!:11
001:0003150394:20120430:075322:BLANK !!:11
001:0009369519:20120430:075326:BLANK !!:11
001:0013897974:20120430:075329:BLANK !!:11
001:0002271494:20120430:075356:BLANK !!:11
001:0015696870:20120430:075359:BLANK !!:11
001:0013885080:20120430:075402:BLANK !!:11
001:0010540763:20120430:075403:BLANK !!:11
001:0009348591:20120430:075437:BLANK !!:11
001:0013875818:20120430:075452:BLANK !!:11
001:0013897138:20120430:075454:BLANK !!:11
001:0010547997:20120430:075500:BLANK !!:11
001:0010541183:20120430:075513:BLANK !!:11
001:0010549386:20120430:075520:BLANK !!:11
001:0010550709:20120430:075541:BLANK !!:11
001:0002290777:20120430:075556:BLANK !!:11
001:0009360756:20120430:075559:BLANK !!:11
001:0010544368:20120430:075601:BLANK !!:11
001:0013890852:20120430:075607:BLANK !!:11
001:0002284416:20120430:075613:BLANK !!:11
001:0003117930:20120430:075617:BLANK !!:11
001:0010634177:20120430:075644:BLANK !!:11
001:0009350673:20120430:075653:BLANK !!:11
001:0015685385:20120430:075736:BLANK !!:11
001:0015782013:20120430:075740:BLANK !!:11
001:0009358044:20120430:075743:BLANK !!:11
001:0009320970:20120430:075747:BLANK !!:11
001:0009358044:20120430:075750:BLANK !!:11
001:0002276947:20120430:075752:BLANK !!:11
001:0010547846:20120430:075756:BLANK !!:11
001:0009368226:20120430:075758:BLANK !!:11
001:0010553521:20120430:075813:BLANK !!:11
001:0010549450:20120430:075814:BLANK !!:11
001:0015690200:20120430:075855:BLANK !!:11
001:0015694386:20120430:075858:BLANK !!:11
001:0010537681:20120430:075917:BLANK !!:11
001:0015674575:20120430:075921:BLANK !!:11
001:0002288205:20120430:080111:BLANK !!:11
001:0013881131:20120430:080245:BLANK !!:11
001:0006755937:20120430:080427:BLANK !!:11
001:0010549824:20120430:080429:BLANK !!:11
001:0003117697:20120430:080432:BLANK !!:11
001:0009369516:20120430:080512:BLANK !!:11
001:0006760141:20120430:080729:BLANK !!:11
001:0013875297:20120430:080731:BLANK !!:11
001:0002285324:20120430:081242:BLANK !!:11
001:0006758431:20120430:081244:BLANK !!:11
001:0013947587:20120430:081250:BLANK !!:11
001:0013879402:20120430:082123:BLANK !!:11
001:0010549396:20120430:083202:BLANK !!:11
001:0013900664:20120430:083207:BLANK !!:11
001:0010533195:20120430:085341:BLANK !!:11
001:0013875043:20120430:085347:BLANK !!:11
001:0010644113:20120430:085854:BLANK !!:11
001:0006760116:20120430:090141:BLANK !!:11
001:0010550910:20120430:090148:BLANK !!:11
001:0013878180:20120430:090353:BLANK !!:11
001:0009348591:20120430:091800:BLANK !!:11
001:0013882945:20120430:100954:BLANK !!:11
001:0013886572:20120430:102845:BLANK !!:11
001:0013901637:20120430:102853:BLANK !!:11
001:0013888273:20120430:103624:BLANK !!:11
001:0013882358:20120430:103626:BLANK !!:11
001:0013889788:20120430:103649:BLANK !!:11
001:0013889932:20120430:105448:BLANK !!:11
001:0013894250:20120430:111213:BLANK !!:11
001:0013896595:20120430:111217:BLANK !!:11
001:0013896958:20120430:113529:BLANK !!:11
001:0013880904:20120430:113601:BLANK !!:11
001:0013896432:20120430:113704:BLANK !!:11
001:0009348591:20120430:114031:BLANK !!:11
001:0013892922:20120430:114713:BLANK !!:11
001:0013886076:20120430:114716:BLANK !!:11
001:0010550898:20120430:115333:BLANK !!:11
001:0010550889:20120430:120605:BLANK !!:11
001:0013883538:20120430:122944:BLANK !!:11
001:0002273235:20120430:122945:BLANK !!:11
001:0013887985:20120430:122947:BLANK !!:11
001:0013878009:20120430:122948:BLANK !!:11
001:0010549504:20120430:122950:BLANK !!:11
001:0013881586:20120430:122951:BLANK !!:11
001:0013900540:20120430:122953:BLANK !!:11
001:0013900680:20120430:122954:BLANK !!:11
001:0006755519:20120430:122956:BLANK !!:11
001:0013899674:20120430:122957:BLANK !!:11
001:0013894885:20120430:122959:BLANK !!:11
001:0013883458:20120430:123000:BLANK !!:11
001:0010541979:20120430:123002:BLANK !!:11
001:0013887437:20120430:123003:BLANK !!:11
001:0010530514:20120430:123005:BLANK !!:11
001:0013897974:20120430:123008:BLANK !!:11
001:0013884285:20120430:123009:BLANK !!:11
001:0006751519:20120430:123011:BLANK !!:11
001:0006756264:20120430:123013:BLANK !!:11
001:0013900625:20120430:123014:BLANK !!:11
001:0013892286:20120430:123015:BLANK !!:11
001:0013884590:20120430:123017:BLANK !!:11
001:0010549596:20120430:123018:BLANK !!:11
001:0010551136:20120430:123020:BLANK !!:11
001:0010549428:20120430:123021:BLANK !!:11
001:0002274131:20120430:123023:BLANK !!:11
001:0010537681:20120430:123024:BLANK !!:11
001:0009354724:20120430:123026:BLANK !!:11
001:0013890035:20120430:123028:BLANK !!:11
001:0009364321:20120430:123030:BLANK !!:11
001:0015690234:20120430:123032:BLANK !!:11
001:0010541183:20120430:123034:BLANK !!:11
001:0010549787:20120430:123037:BLANK !!:11
001:0013886660:20120430:123039:BLANK !!:11
001:0013887126:20120430:123042:BLANK !!:11
001:0013952741:20120430:123044:BLANK !!:11
001:0013214375:20120430:123050:BLANK !!:11
001:0010531624:20120430:123053:BLANK !!:11
001:0010546752:20120430:123056:BLANK !!:11
001:0013896430:20120430:123058:BLANK !!:11
001:0009363039:20120430:123059:BLANK !!:11
001:0002294646:20120430:123101:BLANK !!:11
001:0009369519:20120430:123103:BLANK !!:11
001:0009361055:20120430:123108:BLANK !!:11
001:0013895851:20120430:123109:BLANK !!:11
001:0010532210:20120430:123111:BLANK !!:11
001:0013882456:20120430:123113:BLANK !!:11
001:0009360458:20120430:123114:BLANK !!:11
001:0009347993:20120430:123116:BLANK !!:11
001:0015689920:20120430:123118:BLANK !!:11
001:0010550707:20120430:123124:BLANK !!:11
001:0013878129:20120430:123127:BLANK !!:11
001:0002290777:20120430:123128:BLANK !!:11
001:0009364805:20120430:123134:BLANK !!:11
001:0009364324:20120430:123136:BLANK !!:11
001:0013897138:20120430:123138:BLANK !!:11
001:0013875397:20120430:123139:BLANK !!:11
001:0010628117:20120430:123141:BLANK !!:11
001:0002270614:20120430:123143:BLANK !!:11
001:0010550709:20120430:123146:BLANK !!:11
001:0010549433:20120430:123148:BLANK !!:11
001:0003101201:20120430:123151:BLANK !!:11
001:0002289438:20120430:123154:BLANK !!:11
001:0009357241:20120430:123157:BLANK !!:11
001:0009360755:20120430:123159:BLANK !!:11
001:0010553833:20120430:123200:BLANK !!:11
001:0010551115:20120430:123202:BLANK !!:11
001:0015782013:20120430:123204:BLANK !!:11
001:0002268007:20120430:123206:BLANK !!:11
001:0000407097:20120430:123210:BLANK !!:11
001:0002271494:20120430:123211:BLANK !!:11
001:0010540274:20120430:123213:BLANK !!:11
001:0013886928:20120430:123215:BLANK !!:11
001:0002290081:20120430:123216:BLANK !!:11
001:0013893682:20120430:123218:BLANK !!:11
001:0013879402:20120430:123220:BLANK !!:11
001:0009350673:20120430:123223:BLANK !!:11
001:0013888594:20120430:123224:BLANK !!:11
001:0010549455:20120430:123226:BLANK !!:11
001:0010547846:20120430:123228:BLANK !!:11
001:0009364806:20120430:123229:BLANK !!:11
001:0006750419:20120430:123231:BLANK !!:11
001:0009350669:20120430:123232:BLANK !!:11
001:0013888628:20120430:123234:BLANK !!:11
001:0010552986:20120430:123235:BLANK !!:11
001:0013933226:20120430:123237:BLANK !!:11
001:0010548264:20120430:123239:BLANK !!:11
001:0010551168:20120430:123241:BLANK !!:11
001:0009364774:20120430:123243:BLANK !!:11
001:0009360461:20120430:123245:BLANK !!:11
001:0009364108:20120430:123246:BLANK !!:11
001:0010549386:20120430:123248:BLANK !!:11
001:0010542101:20120430:123251:BLANK !!:11
001:0002277756:20120430:123252:BLANK !!:11
001:0015689937:20120430:123254:BLANK !!:11
001:0015689962:20120430:123255:BLANK !!:11
001:0002293780:20120430:123257:BLANK !!:11
001:0002268037:20120430:123259:BLANK !!:11
001:0003117930:20120430:123302:BLANK !!:11
001:0015685006:20120430:123304:BLANK !!:11
001:0010549407:20120430:123306:BLANK !!:11
001:0009364804:20120430:123310:BLANK !!:11
001:0013880536:20120430:123313:BLANK !!:11
001:0015697397:20120430:123314:BLANK !!:11
001:0015674443:20120430:123318:BLANK !!:11
001:0010547974:20120430:123321:BLANK !!:11
001:0015696806:20120430:123324:BLANK !!:11
001:0009369521:20120430:123327:BLANK !!:11
001:0013894712:20120430:123329:BLANK !!:11
001:0009348592:20120430:123330:BLANK !!:11
001:0010542279:20120430:123332:BLANK !!:11
001:0009369518:20120430:123333:BLANK !!:11
001:0009371131:20120430:123336:BLANK !!:11
001:0002276947:20120430:123338:BLANK !!:11
001:0009365681:20120430:123340:BLANK !!:11
001:0002290144:20120430:123348:BLANK !!:11
001:0002270962:20120430:123350:BLANK !!:11
001:0010549697:20120430:123353:BLANK !!:11
001:0002282243:20120430:123404:BLANK !!:11
001:0015698466:20120430:123405:BLANK !!:11
001:0013894940:20120430:123415:BLANK !!:11
001:0009363103:20120430:123417:BLANK !!:11
001:0013897124:20120430:123430:BLANK !!:11
001:0010550890:20120430:123433:BLANK !!:11
001:0013897124:20120430:123435:BLANK !!:11
001:0000365093:20120430:123444:BLANK !!:11
001:0013888430:20120430:123455:BLANK !!:11
001:0002270146:20120430:123532:BLANK !!:11
001:0006750527:20120430:123539:BLANK !!:11
001:0003150394:20120430:123602:BLANK !!:11
001:0010539352:20120430:123713:BLANK !!:11
001:0009371131:20120430:123818:BLANK !!:11
001:0009366722:20120430:123824:BLANK !!:11
001:0006760116:20120430:124209:BLANK !!:11
001:0015698029:20120430:124254:BLANK !!:11
001:0009358044:20120430:124440:BLANK !!:11
001:0010549766:20120430:124559:BLANK !!:11
001:0009364773:20120430:124601:BLANK !!:11
001:0002284706:20120430:124602:BLANK !!:11
001:0010550890:20120430:124842:BLANK !!:11
001:0013891964:20120430:124944:BLANK !!:11
001:0010547846:20120430:124958:BLANK !!:11
001:0013888594:20120430:124959:BLANK !!:11
001:0013897942:20120430:125011:BLANK !!:11
001:0009364805:20120430:125208:BLANK !!:11
001:0013900625:20120430:125303:BLANK !!:11
001:0009364321:20120430:125306:BLANK !!:11
001:0002270614:20120430:125309:BLANK !!:11
001:0013900540:20120430:125320:BLANK !!:11
001:0013900680:20120430:125519:BLANK !!:11
001:0006751519:20120430:125616:BLANK !!:11
001:0013881586:20120430:125630:BLANK !!:11
001:0006758789:20120430:125652:BLANK !!:11
001:0009364773:20120430:125723:BLANK !!:11
001:0002284706:20120430:125724:BLANK !!:11
001:0010549766:20120430:125727:BLANK !!:11
001:0013888430:20120430:125730:BLANK !!:11
001:0002270146:20120430:125732:BLANK !!:11
001:0013900664:20120430:125744:BLANK !!:11
001:0013887437:20120430:125749:BLANK !!:11
001:0013891964:20120430:125854:BLANK !!:11
001:0013892286:20120430:130015:BLANK !!:11
001:0009360461:20120430:130106:BLANK !!:11
001:0013883538:20120430:130231:BLANK !!:11
001:0010553833:20120430:130319:BLANK !!:11
001:0000365093:20120430:130321:BLANK !!:11
001:0010550707:20120430:130348:BLANK !!:11
001:0013879402:20120430:130505:BLANK !!:11
001:0010551115:20120430:130508:BLANK !!:11
001:0015697397:20120430:130511:BLANK !!:11
001:0010530514:20120430:130517:BLANK !!:11
001:0006758789:20120430:130520:BLANK !!:11
001:0009348592:20120430:130708:BLANK !!:11
001:0009363103:20120430:130812:BLANK !!:11
001:0013890035:20120430:130821:BLANK !!:11
001:0002290144:20120430:130856:BLANK !!:11
001:0013952741:20120430:130926:BLANK !!:11
001:0002290081:20120430:130934:BLANK !!:11
001:0010628117:20120430:130941:BLANK !!:11
001:0013887985:20120430:131009:BLANK !!:11
001:0013884590:20120430:131059:BLANK !!:11
001:0002273235:20120430:131125:BLANK !!:11
001:0013883458:20120430:131139:BLANK !!:11
001:0009354724:20120430:131246:BLANK !!:11
001:0013894885:20120430:131337:BLANK !!:11
001:0009364804:20120430:131339:BLANK !!:11
001:0013880536:20120430:131341:BLANK !!:11
001:0010541979:20120430:131343:BLANK !!:11
001:0013893682:20120430:131438:BLANK !!:11
001:0013214375:20120430:131538:BLANK !!:11
001:0015689937:20120430:131541:BLANK !!:11
001:0013894940:20120430:131546:BLANK !!:11
001:0009365681:20120430:131549:BLANK !!:11
001:0009350673:20120430:131556:BLANK !!:11
001:0009360755:20120430:131600:BLANK !!:11
001:0002270962:20120430:131603:BLANK !!:11
001:0002274131:20120430:131709:BLANK !!:11
001:0015694629:20120430:131743:BLANK !!:11
001:0015685006:20120430:131747:BLANK !!:11
001:0002268037:20120430:131825:BLANK !!:11
001:0002293780:20120430:131827:BLANK !!:11
001:0010548264:20120430:131831:BLANK !!:11
001:0010549697:20120430:131833:BLANK !!:11
001:0013887126:20120430:131835:BLANK !!:11
001:0010549748:20120430:131901:BLANK !!:11
001:0010549428:20120430:131919:BLANK !!:11
001:0013899674:20120430:131934:BLANK !!:11
001:0015697358:20120430:131956:BLANK !!:11
001:0013886928:20120430:132000:BLANK !!:11
001:0000407097:20120430:132002:BLANK !!:11
001:0009363039:20120430:132004:BLANK !!:11
001:0002268007:20120430:132006:BLANK !!:11
001:0010549455:20120430:132008:BLANK !!:11
001:0013875148:20120430:132010:BLANK !!:11
001:0015689962:20120430:132032:BLANK !!:11
001:0013878009:20120430:132036:BLANK !!:11
001:0010549748:20120430:132111:BLANK !!:11
001:0010547974:20120430:132114:BLANK !!:11
001:0009357241:20120430:132117:BLANK !!:11
001:0010549787:20120430:132120:BLANK !!:11
001:0013882456:20120430:132124:BLANK !!:11
001:0009360458:20120430:132125:BLANK !!:11
001:0010552986:20120430:132130:BLANK !!:11
001:0009364324:20120430:132134:BLANK !!:11
001:0010549504:20120430:132136:BLANK !!:11
001:0013933226:20120430:132138:BLANK !!:11
001:0010549433:20120430:132141:BLANK !!:11
001:0015689920:20120430:132145:BLANK !!:11
001:0013886660:20120430:132149:BLANK !!:11
001:0006756264:20120430:132152:BLANK !!:11
001:0013897532:20120430:132156:BLANK !!:11
001:0002294646:20120430:132215:BLANK !!:11
001:0000365380:20120430:132217:BLANK !!:11
001:0013896430:20120430:132220:BLANK !!:11
001:0013878129:20120430:132224:BLANK !!:11
001:0009364806:20120430:132226:BLANK !!:11
001:0009364774:20120430:132228:BLANK !!:11
001:0006755519:20120430:132230:BLANK !!:11
001:0009350669:20120430:132232:BLANK !!:11
001:0015698466:20120430:132252:BLANK !!:11
001:0010542279:20120430:132255:BLANK !!:11
001:0009369519:20120430:132302:BLANK !!:11
001:0010542101:20120430:132304:BLANK !!:11
001:0002277756:20120430:132307:BLANK !!:11
001:0015696806:20120430:132321:BLANK !!:11
001:0002290777:20120430:132331:BLANK !!:11
001:0009369521:20120430:132334:BLANK !!:11
001:0009360756:20120430:132338:BLANK !!:11
001:0010532210:20120430:132343:BLANK !!:11
001:0003117930:20120430:132357:BLANK !!:11
001:0013897138:20120430:132407:BLANK !!:11
001:0003101201:20120430:132424:BLANK !!:11
001:0013897124:20120430:132429:BLANK !!:11
001:0013888628:20120430:132430:BLANK !!:11
001:0010549386:20120430:132434:BLANK !!:11
001:0013884285:20120430:132453:BLANK !!:11
001:0010551168:20120430:132516:BLANK !!:11
001:0013875397:20120430:132521:BLANK !!:11
001:0010551136:20120430:132533:BLANK !!:11
001:0010549596:20120430:132535:BLANK !!:11
001:0009369518:20120430:132538:BLANK !!:11
001:0015690234:20120430:132541:BLANK !!:11
001:0010546752:20120430:132548:BLANK !!:11
001:0002289438:20120430:132618:BLANK !!:11
001:0013895851:20120430:132621:BLANK !!:11
001:0009347993:20120430:132624:BLANK !!:11
001:0010541183:20120430:132639:BLANK !!:11
001:0006760116:20120430:132646:BLANK !!:11
001:0015674443:20120430:132648:BLANK !!:11
001:0010537681:20120430:132720:BLANK !!:11
001:0010550709:20120430:132727:BLANK !!:11
001:0009364108:20120430:132800:BLANK !!:11
001:0006750527:20120430:132803:BLANK !!:11
001:0010549407:20120430:132816:BLANK !!:11
001:0010531624:20120430:132859:BLANK !!:11
001:0002276947:20120430:132902:BLANK !!:11
001:0002282243:20120430:132917:BLANK !!:11
001:0010551185:20120430:133059:BLANK !!:11
001:0013877389:20120430:133102:BLANK !!:11
001:0006750419:20120430:133110:BLANK !!:11
001:0013897974:20120430:133113:BLANK !!:11
001:0015694386:20120430:133119:BLANK !!:11
001:0009361055:20120430:133210:BLANK !!:11
001:0010539352:20120430:133217:BLANK !!:11
001:0010547320:20120430:133222:BLANK !!:11
001:0010530367:20120430:133225:BLANK !!:11
001:0013893990:20120430:133228:BLANK !!:11
001:0015693682:20120430:133232:BLANK !!:11
001:0010544149:20120430:133234:BLANK !!:11
001:0002271494:20120430:133325:BLANK !!:11
001:0010540274:20120430:133330:BLANK !!:11
001:0015782013:20120430:133332:BLANK !!:11
001:0003150394:20120430:133334:BLANK !!:11
001:0009358044:20120430:133339:BLANK !!:11
001:0013952446:20120430:133343:BLANK !!:11
001:0013894712:20120430:133406:BLANK !!:11
001:0015688795:20120430:133456:BLANK !!:11
001:0013897942:20120430:133552:BLANK !!:11
001:0015698029:20120430:133559:BLANK !!:11
001:0010634177:20120430:133749:BLANK !!:11
001:0002282143:20120430:134004:BLANK !!:11
001:0013952446:20120430:134439:BLANK !!:11
001:0013900664:20120430:135255:BLANK !!:11
001:0002274545:20120430:140032:BLANK !!:11
001:0009366722:20120430:140547:BLANK !!:11
001:0010550910:20120430:140729:BLANK !!:11
001:0002274545:20120430:140952:BLANK !!:11
001:0015688795:20120430:141759:BLANK !!:11
001:0010547320:20120430:141809:BLANK !!:11
001:0013893990:20120430:142013:BLANK !!:11
001:0015693682:20120430:142455:BLANK !!:11
001:0010544149:20120430:142511:BLANK !!:11
001:0010530367:20120430:142651:BLANK !!:11
001:0010551185:20120430:142901:BLANK !!:11
001:0013877389:20120430:142906:BLANK !!:11
001:0010634177:20120430:143459:BLANK !!:11
001:0010551140:20120430:150400:BLANK !!:11
001:0013889788:20120430:151605:BLANK !!:11
001:0010644113:20120430:151702:BLANK !!:11
001:0002282143:20120430:152324:BLANK !!:11
001:0013882945:20120430:153017:BLANK !!:11
001:0013896432:20120430:155208:BLANK !!:11
001:0010547974:20120430:160103:BLANK !!:11
001:0010547974:20120430:164443:BLANK !!:11
001:0010548307:20120430:165936:BLANK !!:11
001:0010540251:20120430:165938:BLANK !!:11
001:0015696806:20120430:170229:BLANK !!:11
001:0013875818:20120430:170231:BLANK !!:11
001:0013952446:20120430:170332:BLANK !!:11
001:0013900540:20120430:170345:BLANK !!:11
001:0002267789:20120430:170356:BLANK !!:11
001:0010634177:20120430:170409:BLANK !!:11
001:0002273235:20120430:170419:BLANK !!:11
001:0013875397:20120430:170421:BLANK !!:11
001:0009364774:20120430:170423:BLANK !!:11
001:0009347993:20120430:170425:BLANK !!:11
001:0010549596:20120430:170427:BLANK !!:11
001:0013897138:20120430:170428:BLANK !!:11
001:0010537681:20120430:170432:BLANK !!:11
001:0010548264:20120430:170442:BLANK !!:11
001:0009360048:20120430:170445:BLANK !!:11
001:0006754204:20120430:170503:BLANK !!:11
001:0002270962:20120430:170508:BLANK !!:11
001:0009360461:20120430:170511:BLANK !!:11
001:0010549386:20120430:170513:BLANK !!:11
001:0009369518:20120430:170514:BLANK !!:11
001:0013881586:20120430:170516:BLANK !!:11
001:0015684972:20120430:170519:BLANK !!:11
001:0010549433:20120430:170524:BLANK !!:11
001:0003150394:20120430:170605:BLANK !!:11
001:0015694386:20120430:170611:BLANK !!:11
001:0010534521:20120430:170613:BLANK !!:11
001:0015689937:20120430:170614:BLANK !!:11
001:0013874960:20120430:170617:BLANK !!:11
001:0013888430:20120430:170646:BLANK !!:11
001:0013889932:20120430:170721:BLANK !!:11
001:0015691426:20120430:170754:BLANK !!:11
001:0006753823:20120430:170757:BLANK !!:11
001:0002274131:20120430:170758:BLANK !!:11
001:0013890852:20120430:170826:BLANK !!:11
001:0009359710:20120430:171212:BLANK !!:11
001:0009356502:20120430:171247:BLANK !!:11
001:0015674443:20120430:171318:BLANK !!:11
001:0010651256:20120430:171456:BLANK !!:11
001:0010551136:20120430:171742:BLANK !!:11
001:0013894407:20120430:171816:BLANK !!:11
001:0010540763:20120430:172719:BLANK !!:11
001:0013892407:20120430:175148:BLANK !!:11
001:0006760116:20120430:180253:BLANK !!:11
001:0013888865:20120430:180602:BLANK !!:11
001:0013882358:20120430:180807:BLANK !!:11
001:0013888273:20120430:180816:BLANK !!:11
001:0013886076:20120430:180839:BLANK !!:11
001:0013892922:20120430:180842:BLANK !!:11
001:0013896595:20120430:180858:BLANK !!:11
001:0013894250:20120430:180904:BLANK !!:11
001:0013886572:20120430:180914:BLANK !!:11
001:0013880904:20120430:180915:BLANK !!:11
001:0013896958:20120430:180921:BLANK !!:11
001:0002288205:20120430:181106:BLANK !!:11
001:0013901637:20120430:181353:BLANK !!:11
001:0013875043:20120430:183502:BLANK !!:11
001:0009366281:20120430:184934:BLANK !!:11
001:0013896080:20120430:185209:BLANK !!:11
001:0010549740:20120430:185448:BLANK !!:11
001:0010553521:20120430:185516:BLANK !!:11
001:0013888913:20120430:185537:BLANK !!:11
001:0010549450:20120430:185550:BLANK !!:11
001:0013891973:20120430:190045:BLANK !!:11
001:0003116318:20120430:190422:BLANK !!:11
001:0009363036:20120430:190527:BLANK !!:11
001:0013896015:20120430:190552:BLANK !!:11
001:0002287554:20120430:190554:BLANK !!:11
001:0006758961:20120430:190626:BLANK !!:11
001:0013879037:20120430:192420:BLANK !!:11
001:0013947587:20120430:192500:BLANK !!:11
001:0002295364:20120430:193022:BLANK !!:11
001:0006760141:20120430:193056:BLANK !!:11
001:0003117697:20120430:193058:BLANK !!:11
001:0010549824:20120430:193102:BLANK !!:11
001:0003103684:20120430:193105:BLANK !!:11
001:0013901179:20120430:193110:BLANK !!:11
001:0006753686:20120430:193529:BLANK !!:11
001:0002273537:20120430:194103:BLANK !!:11
001:0009369516:20120430:194440:BLANK !!:11
001:0006755937:20120430:194442:BLANK !!:11
001:0010549396:20120430:194513:BLANK !!:11
001:0010549454:20120430:194745:BLANK !!:11
001:0015691390:20120430:195028:BLANK !!:11
001:0002294278:20120430:195031:BLANK !!:11
001:0002285324:20120430:195111:BLANK !!:11
001:0013875297:20120430:195317:BLANK !!:11
001:0009357257:20120430:200117:BLANK !!:11
001:0010551210:20120430:200526:BLANK !!:11
001:0010644113:20120430:202050:BLANK !!:11
001:0013900664:20120430:202539:BLANK !!:11
001:0009364772:20120430:203039:BLANK !!:11
001:0013900680:20120430:203042:BLANK !!:11
001:0013884590:20120430:203045:BLANK !!:11
001:0010541979:20120430:203050:BLANK !!:11
001:0015693682:20120430:203051:BLANK !!:11
001:0010544149:20120430:203054:BLANK !!:11
001:0013894885:20120430:203056:BLANK !!:11
001:0000683571:20120430:203100:BLANK !!:11
001:0010530367:20120430:203102:BLANK !!:11
001:0009364321:20120430:203104:BLANK !!:11
001:0013883458:20120430:203105:BLANK !!:11
001:0013887985:20120430:203108:BLANK !!:11
001:0013900625:20120430:203110:BLANK !!:11
001:0010551115:20120430:203111:BLANK !!:11
001:0013883538:20120430:203113:BLANK !!:11
001:0003101201:20120430:203114:BLANK !!:11
001:0013944638:20120430:203116:BLANK !!:11
001:0013894940:20120430:203118:BLANK !!:11
001:0009369519:20120430:203119:BLANK !!:11
001:0009364108:20120430:203121:BLANK !!:11
001:0015698466:20120430:203123:BLANK !!:11
001:0009348591:20120430:203124:BLANK !!:11
001:0013884285:20120430:203126:BLANK !!:11
001:0010539061:20120430:203130:BLANK !!:11
001:0006751519:20120430:203131:BLANK !!:11
001:0013887126:20120430:203135:BLANK !!:11
001:0006754257:20120430:203138:BLANK !!:11
001:0002270146:20120430:203142:BLANK !!:11
001:0015689962:20120430:203143:BLANK !!:11
001:0013891964:20120430:203146:BLANK !!:11
001:0006755519:20120430:203152:BLANK !!:11
001:0013893990:20120430:203154:BLANK !!:11
001:0003116472:20120430:203203:BLANK !!:11
001:0010530514:20120430:203206:BLANK !!:11
001:0009350669:20120430:203210:BLANK !!:11
001:0010546752:20120430:203221:BLANK !!:11
001:0015674317:20120430:203223:BLANK !!:11
001:0015689920:20120430:203228:BLANK !!:11
001:0010532210:20120430:203234:BLANK !!:11
001:0009364805:20120430:203237:BLANK !!:11
001:0013882456:20120430:203240:BLANK !!:11
001:0002290081:20120430:203241:BLANK !!:11
001:0013884770:20120430:203243:BLANK !!:11
001:0010543526:20120430:203246:BLANK !!:11
001:0009363039:20120430:203253:BLANK !!:11
001:0015685385:20120430:203257:BLANK !!:11
001:0013897942:20120430:203300:BLANK !!:11
001:0013887437:20120430:203308:BLANK !!:11
001:0009352948:20120430:203310:BLANK !!:11
001:0010554314:20120430:203313:BLANK !!:11
001:0009364804:20120430:203315:BLANK !!:11
001:0009360458:20120430:203316:BLANK !!:11
001:0000365093:20120430:203318:BLANK !!:11
001:0010549407:20120430:203319:BLANK !!:11
001:0010533341:20120430:203321:BLANK !!:11
001:0015697358:20120430:203323:BLANK !!:11
001:0010547087:20120430:203325:BLANK !!:11
001:0010549455:20120430:203328:BLANK !!:11
001:0000407097:20120430:203329:BLANK !!:11
001:0009348592:20120430:203337:BLANK !!:11
001:0010547997:20120430:203340:BLANK !!:11
001:0009369521:20120430:203342:BLANK !!:11
001:0010536569:20120430:203344:BLANK !!:11
001:0015694629:20120430:203348:BLANK !!:11
001:0009368209:20120430:203349:BLANK !!:11
001:0015697397:20120430:203351:BLANK !!:11
001:0013892286:20120430:203352:BLANK !!:11
001:0015697731:20120430:203354:BLANK !!:11
001:0013885080:20120430:203355:BLANK !!:11
001:0010542101:20120430:203357:BLANK !!:11
001:0013880536:20120430:203358:BLANK !!:11
001:0013887688:20120430:203400:BLANK !!:11
001:0015693718:20120430:203402:BLANK !!:11
001:0009364773:20120430:203404:BLANK !!:11
001:0003117930:20120430:203405:BLANK !!:11
001:0010549766:20120430:203407:BLANK !!:11
001:0009363103:20120430:203408:BLANK !!:11
001:0013881426:20120430:203410:BLANK !!:11
001:0002277756:20120430:203411:BLANK !!:11
001:0010549697:20120430:203413:BLANK !!:11
001:0010551168:20120430:203415:BLANK !!:11
001:0002290144:20120430:203417:BLANK !!:11
001:0010540274:20120430:203420:BLANK !!:11
001:0010542279:20120430:203421:BLANK !!:11
001:0013888858:20120430:203422:BLANK !!:11
001:0003102332:20120430:203424:BLANK !!:11
001:0003115319:20120430:203426:BLANK !!:11
001:0013900745:20120430:203428:BLANK !!:11
001:0010544167:20120430:203429:BLANK !!:11
001:0010544368:20120430:203433:BLANK !!:11
001:0010537779:20120430:203435:BLANK !!:11
001:0002291294:20120430:203436:BLANK !!:11
001:0006755461:20120430:203438:BLANK !!:11
001:0002282243:20120430:203440:BLANK !!:11
001:0015692449:20120430:203442:BLANK !!:11
001:0013896430:20120430:203444:BLANK !!:11
001:0003110988:20120430:203447:BLANK !!:11
001:0010549767:20120430:203450:BLANK !!:11
001:0010640656:20120430:203455:BLANK !!:11
001:0002290826:20120430:203456:BLANK !!:11
001:0010539435:20120430:203458:BLANK !!:11
001:0002267666:20120430:203500:BLANK !!:11
001:0002273808:20120430:203503:BLANK !!:11
001:0009360755:20120430:203505:BLANK !!:11
001:0010541183:20120430:203507:BLANK !!:11
001:0009365681:20120430:203510:BLANK !!:11
001:0010549371:20120430:203512:BLANK !!:11
001:0013935114:20120430:203515:BLANK !!:11
001:0010549428:20120430:203519:BLANK !!:11
001:0013940479:20120430:203521:BLANK !!:11
001:0010549955:20120430:203525:BLANK !!:11
001:0009363041:20120430:203526:BLANK !!:11
001:0009368226:20120430:203528:BLANK !!:11
001:0010550890:20120430:203529:BLANK !!:11
001:0010550709:20120430:203531:BLANK !!:11
001:0010549402:20120430:203537:BLANK !!:11
001:0013883591:20120430:203538:BLANK !!:11
001:0000365380:20120430:203540:BLANK !!:11
001:0002293868:20120430:203542:BLANK !!:11
001:0015696269:20120430:203544:BLANK !!:11
001:0013877389:20120430:203546:BLANK !!:11
001:0010551185:20120430:203548:BLANK !!:11
001:0010547320:20120430:203549:BLANK !!:11
001:0002268037:20120430:203551:BLANK !!:11
001:0002293780:20120430:203552:BLANK !!:11
001:0002292481:20120430:203554:BLANK !!:11
001:0010531397:20120430:203556:BLANK !!:11
001:0002271494:20120430:203558:BLANK !!:11
001:0010550294:20120430:203600:BLANK !!:11
001:0015696870:20120430:203603:BLANK !!:11
001:0010538666:20120430:203605:BLANK !!:11
001:0009360116:20120430:203607:BLANK !!:11
001:0002291755:20120430:203608:BLANK !!:11
001:0015688510:20120430:203609:BLANK !!:11
001:0002274545:20120430:203611:BLANK !!:11
001:0002276947:20120430:203613:BLANK !!:11
001:0015674575:20120430:203614:BLANK !!:11
001:0013885899:20120430:203616:BLANK !!:11
001:0010531624:20120430:203618:BLANK !!:11
001:0010547437:20120430:203619:BLANK !!:11
001:0013874099:20120430:203621:BLANK !!:11
001:0002294646:20120430:203624:BLANK !!:11
001:0010549787:20120430:203626:BLANK !!:11
001:0013894712:20120430:203627:BLANK !!:11
001:0013879728:20120430:203629:BLANK !!:11
001:0013878708:20120430:203630:BLANK !!:11
001:0013895313:20120430:203632:BLANK !!:11
001:0010550306:20120430:203634:BLANK !!:11
001:0013878009:20120430:203637:BLANK !!:11
001:0009366722:20120430:203646:BLANK !!:11
001:0010549567:20120430:203657:BLANK !!:11
001:0002282162:20120430:203806:BLANK !!:11
001:0015690234:20120430:203810:BLANK !!:11
001:0015688795:20120430:203820:BLANK !!:11
001:0009371128:20120430:203942:BLANK !!:11
001:0010539352:20120430:203957:BLANK !!:11
001:0010549884:20120430:204034:BLANK !!:11
001:0006750419:20120430:204112:BLANK !!:11
001:0009358044:20120430:204116:BLANK !!:11
001:0006757638:20120430:204152:BLANK !!:11
001:0006750527:20120430:204216:BLANK !!:11
001:0015698029:20120430:204328:BLANK !!:11
001:0002284416:20120430:204335:BLANK !!:11
001:0006750042:20120430:204756:BLANK !!:11
001:0015694393:20120430:204814:BLANK !!:11
001:0010550898:20120430:204913:BLANK !!:11
001:0013897974:20120430:205147:BLANK !!:11
001:0015685005:20120430:210029:BLANK !!:11
001:0000365761:20120430:211500:BLANK !!:11
001:0015693730:20120430:211719:BLANK !!:11
001:0013893682:20120430:211722:BLANK !!:11
001:0015688809:20120430:211727:BLANK !!:11
001:0010628117:20120430:211730:BLANK !!:11
001:0013881131:20120430:211731:BLANK !!:11
001:0013930013:20120430:212044:BLANK !!:11
001:0009361700:20120430:212400:BLANK !!:11
001:0013895851:20120430:213239:BLANK !!:11
001:0013878382:20120430:213243:BLANK !!:11
001:0013886928:20120430:213251:BLANK !!:11
001:0009361055:20120430:213302:BLANK !!:11
001:0013888628:20120430:213331:BLANK !!:11
001:0010550678:20120430:213333:BLANK !!:11
001:0013952741:20120430:213336:BLANK !!:11
001:0009368404:20120430:213340:BLANK !!:11
001:0009364324:20120430:213344:BLANK !!:11
001:0010547846:20120430:213347:BLANK !!:11
001:0013888594:20120430:213422:BLANK !!:11
001:0009347994:20120430:213425:BLANK !!:11
001:0013897049:20120430:213427:BLANK !!:11
001:0013877148:20120430:213429:BLANK !!:11
001:0013875148:20120430:213430:BLANK !!:11
001:0006758789:20120430:213432:BLANK !!:11
001:0013878129:20120430:213434:BLANK !!:11
001:0009364806:20120430:213435:BLANK !!:11
001:0002290777:20120430:213437:BLANK !!:11
001:0013878454:20120430:213438:BLANK !!:11
001:0009360756:20120430:213442:BLANK !!:11
001:0015682819:20120430:213444:BLANK !!:11
001:0015688160:20120430:213445:BLANK !!:11
001:0009350673:20120430:213448:BLANK !!:11
001:0013887862:20120430:213450:BLANK !!:11
001:0009320970:20120430:213453:BLANK !!:11
001:0009350670:20120430:213454:BLANK !!:11
001:0015685006:20120430:213456:BLANK !!:11
001:0013887499:20120430:213458:BLANK !!:11
001:0010538695:20120430:213500:BLANK !!:11
001:0013900030:20120430:213502:BLANK !!:11
001:0000365148:20120430:213517:BLANK !!:11
001:0010552986:20120430:213519:BLANK !!:11
001:0013933226:20120430:213522:BLANK !!:11
001:0002268007:20120430:213524:BLANK !!:11
001:0013214375:20120430:213526:BLANK !!:11
001:0013878044:20120430:213529:BLANK !!:11
001:0002289438:20120430:213550:BLANK !!:11
001:0015782013:20120430:213553:BLANK !!:11
001:0009357241:20120430:213557:BLANK !!:11
001:0013879402:20120430:213617:BLANK !!:11
001:0009371131:20120430:213626:BLANK !!:11
001:0009361053:20120430:213628:BLANK !!:11
001:0009371413:20120430:213631:BLANK !!:11
001:0013885002:20120430:213633:BLANK !!:11
001:0010550707:20120430:213635:BLANK !!:11
001:0010548132:20120430:213645:BLANK !!:11
001:0010551155:20120430:213653:BLANK !!:11
001:0009354725:20120430:213711:BLANK !!:11
001:0009357239:20120430:213728:BLANK !!:11
001:0010553833:20120430:213731:BLANK !!:11
001:0010547974:20120430:220109:BLANK !!:11
001:0010549504:20120430:220111:BLANK !!:11
001:0013894338:20120430:220113:BLANK !!:11
001:0009371127:20120430:220116:BLANK !!:11
001:0002282143:20120430:220121:BLANK !!:11
001:0002270614:20120430:220128:BLANK !!:11
001:0002284706:20120430:220134:BLANK !!:11
001:0010549413:20120430:220216:BLANK !!:11
001:0013947587:20120430:220219:BLANK !!:11
001:0002273537:20120430:220222:BLANK !!:11
001:0013901179:20120430:220224:BLANK !!:11
001:0013886114:20120430:220226:BLANK !!:11
001:0013890035:20120430:220230:BLANK !!:11
001:0006760141:20120430:220234:BLANK !!:11
001:0010549824:20120430:220236:BLANK !!:11
001:0002294278:20120430:220238:BLANK !!:11
001:0010549454:20120430:220240:BLANK !!:11
001:0013875297:20120430:220245:BLANK !!:11
001:0006755937:20120430:220249:BLANK !!:11
001:0013879037:20120430:220251:BLANK !!:11
001:0003103684:20120430:220303:BLANK !!:11
001:0003117697:20120430:220306:BLANK !!:11
001:0015691390:20120430:220308:BLANK !!:11
001:0013897124:20120430:220435:BLANK !!:11
001:0010547091:20120430:220436:BLANK !!:11
001:0013899674:20120430:220438:BLANK !!:11
001:0010549748:20120430:221528:BLANK !!:11
001:0013901179:20120430:222313:BLANK !!:11
001:0002267758:20120430:223531:BLANK !!:11
001:0013888305:20120430:223533:BLANK !!:11
001:0015690200:20120430:223537:BLANK !!:11
001:0010549824:20120430:223919:BLANK !!:11
001:0010549454:20120430:224247:BLANK !!:11
001:0002273537:20120430:224334:BLANK !!:11
001:0006760141:20120430:224654:BLANK !!:11
001:0002294278:20120430:224659:BLANK !!:11
001:0006755937:20120430:224738:BLANK !!:11
001:0013875297:20120430:225150:BLANK !!:11
001:0003103684:20120430:225632:BLANK !!:11
001:0015691390:20120430:225634:BLANK !!:11
001:0003117697:20120430:225637:BLANK !!:11
001:0013879037:20120430:225641:BLANK !!:11
001:0010549454:20120501:050335:BLANK !!:11
001:0003103684:20120501:050755:BLANK !!:11
001:0015691390:20120501:050933:BLANK !!:11
001:0002294278:20120501:051349:BLANK !!:11
001:0003117697:20120501:051352:BLANK !!:11
001:0013879037:20120501:051356:BLANK !!:11
001:0002287554:20120501:065029:BLANK !!:11
001:0013896015:20120501:065035:BLANK !!:11
001:0009363036:20120501:065157:BLANK !!:11
001:0003116318:20120501:065453:BLANK !!:11
001:0013888913:20120501:070537:BLANK !!:11
001:0009366281:20120501:070845:BLANK !!:11
001:0013896080:20120501:071200:BLANK !!:11
001:0013886114:20120501:074502:BLANK !!:11
001:0010536569:20120501:074505:BLANK !!:11
001:0013944638:20120501:074517:BLANK !!:11
001:0002267758:20120501:074556:BLANK !!:11
001:0013874960:20120501:074839:BLANK !!:11
001:0010551115:20120501:075256:BLANK !!:11
001:0015694393:20120501:075333:BLANK !!:11
001:0013888305:20120501:075750:BLANK !!:11
001:0006755937:20120501:080108:BLANK !!:11
001:0013875297:20120501:080112:BLANK !!:11
001:0006760141:20120501:080114:BLANK !!:11
001:0010549824:20120501:080116:BLANK !!:11
001:0009361701:20120501:080118:BLANK !!:11
001:0009369516:20120501:080121:BLANK !!:11
001:0009364772:20120501:080128:BLANK !!:11
001:0002273537:20120501:080850:BLANK !!:11
001:0013901179:20120501:082021:BLANK !!:11
001:0002285324:20120501:083211:BLANK !!:11
001:0013894407:20120501:083540:BLANK !!:11
001:0010549396:20120501:093427:BLANK !!:11
001:0010551115:20120501:123553:BLANK !!:11
001:0013886114:20120501:130948:BLANK !!:11
001:0010536569:20120501:130950:BLANK !!:11
001:0013886114:20120501:134624:BLANK !!:11
001:0010536569:20120501:135030:BLANK !!:11
001:0013944638:20120501:140143:BLANK !!:11
001:0013874960:20120501:140148:BLANK !!:11
001:0002267758:20120501:141054:BLANK !!:11
001:0013894407:20120501:143306:BLANK !!:11
001:0013888305:20120501:183104:BLANK !!:11
001:0009364772:20120501:183108:BLANK !!:11
001:0015694393:20120501:183110:BLANK !!:11
001:0013886114:20120501:183112:BLANK !!:11
001:0010536569:20120501:183115:BLANK !!:11
001:0013896080:20120501:184806:BLANK !!:11
001:0009366281:20120501:184900:BLANK !!:11
001:0013888913:20120501:185721:BLANK !!:11
001:0009363036:20120501:190505:BLANK !!:11
001:0003116318:20120501:190516:BLANK !!:11
001:0013896015:20120501:190526:BLANK !!:11
001:0002287554:20120501:190540:BLANK !!:11
001:0010551140:20120502:064451:BLANK !!:11
001:0010634177:20120502:064705:BLANK !!:11
001:0003116318:20120502:064821:BLANK !!:11
001:0002287554:20120502:064844:BLANK !!:11
001:0009363036:20120502:064853:BLANK !!:11
001:0013896015:20120502:065048:BLANK !!:11
001:0013888913:20120502:070454:BLANK !!:11
001:0009366281:20120502:070507:BLANK !!:11
001:0013896080:20120502:070543:BLANK !!:11
001:0013898707:20120502:072142:BLANK !!:11
001:0015694393:20120502:072343:BLANK !!:11
001:0006753686:20120502:072349:BLANK !!:11
001:0010549884:20120502:072511:BLANK !!:11
001:0015693730:20120502:073015:BLANK !!:11
001:0013900540:20120502:073018:BLANK !!:11
001:0015696806:20120502:073020:BLANK !!:11
001:0013887688:20120502:073023:BLANK !!:11
001:0010541979:20120502:073025:BLANK !!:11
001:0009361053:20120502:073027:BLANK !!:11
001:0015689937:20120502:073028:BLANK !!:11
001:0003115319:20120502:073035:BLANK !!:11
001:0015688510:20120502:073037:BLANK !!:11
001:0013894885:20120502:073039:BLANK !!:11
001:0015693718:20120502:073047:BLANK !!:11
001:0006754204:20120502:073051:BLANK !!:11
001:0013887499:20120502:073053:BLANK !!:11
001:0013896494:20120502:073056:BLANK !!:11
001:0010547087:20120502:073059:BLANK !!:11
001:0002291294:20120502:073102:BLANK !!:11
001:0002293780:20120502:073105:BLANK !!:11
001:0002270614:20120502:073112:BLANK !!:11
001:0013887126:20120502:073124:BLANK !!:11
001:0013883538:20120502:073126:BLANK !!:11
001:0013887985:20120502:073129:BLANK !!:11
001:0002291755:20120502:073139:BLANK !!:11
001:0006755461:20120502:073154:BLANK !!:11
001:0010539435:20120502:073158:BLANK !!:11
001:0010531397:20120502:073200:BLANK !!:11
001:0009361700:20120502:073205:BLANK !!:11
001:0013878009:20120502:073209:BLANK !!:11
001:0010539061:20120502:073210:BLANK !!:11
001:0013930013:20120502:073227:BLANK !!:11
001:0013891973:20120502:073236:BLANK !!:11
001:0013897124:20120502:073323:BLANK !!:11
001:0013878180:20120502:073338:BLANK !!:11
001:0009365681:20120502:073350:BLANK !!:11
001:0013944638:20120502:073500:BLANK !!:11
001:0002273235:20120502:073509:BLANK !!:11
001:0013892286:20120502:073521:BLANK !!:11
001:0013897942:20120502:073523:BLANK !!:11
001:0009350670:20120502:073601:BLANK !!:11
001:0010549455:20120502:073604:BLANK !!:11
001:0010530367:20120502:073616:BLANK !!:11
001:0015688795:20120502:073624:BLANK !!:11
001:0013891964:20120502:073630:BLANK !!:11
001:0000365093:20120502:073634:BLANK !!:11
001:0003102332:20120502:073642:BLANK !!:11
001:0010548264:20120502:073656:BLANK !!:11
001:0010550340:20120502:073703:BLANK !!:11
001:0010553833:20120502:073705:BLANK !!:11
001:0013890035:20120502:073706:BLANK !!:11
001:0013900680:20120502:073725:BLANK !!:11
001:0013884285:20120502:073728:BLANK !!:11
001:0009364774:20120502:073733:BLANK !!:11
001:0013893763:20120502:073734:BLANK !!:11
001:0009347994:20120502:073741:BLANK !!:11
001:0013885002:20120502:073750:BLANK !!:11
001:0009364775:20120502:073752:BLANK !!:11
001:0009371413:20120502:073755:BLANK !!:11
001:0013887437:20120502:073800:BLANK !!:11
001:0009363103:20120502:073815:BLANK !!:11
001:0009364805:20120502:073818:BLANK !!:11
001:0013900745:20120502:073912:BLANK !!:11
001:0013878129:20120502:073914:BLANK !!:11
001:0010530514:20120502:073921:BLANK !!:11
001:0013884770:20120502:073923:BLANK !!:11
001:0006750419:20120502:073933:BLANK !!:11
001:0009357257:20120502:073949:BLANK !!:11
001:0013878382:20120502:073952:BLANK !!:11
001:0015688160:20120502:073954:BLANK !!:11
001:0009348592:20120502:073956:BLANK !!:11
001:0013897049:20120502:073958:BLANK !!:11
001:0015682819:20120502:074000:BLANK !!:11
001:0010549504:20120502:074004:BLANK !!:11
001:0013892138:20120502:074006:BLANK !!:11
001:0002282143:20120502:074009:BLANK !!:11
001:0013888594:20120502:074010:BLANK !!:11
001:0002268037:20120502:074012:BLANK !!:11
001:0009360755:20120502:074016:BLANK !!:11
001:0010550678:20120502:074028:BLANK !!:11
001:0002267758:20120502:074032:BLANK !!:11
001:0002282162:20120502:074039:BLANK !!:11
001:0013893682:20120502:074055:BLANK !!:11
001:0013879728:20120502:074103:BLANK !!:11
001:0010554314:20120502:074108:BLANK !!:11
001:0013933226:20120502:074127:BLANK !!:11
001:0013878044:20120502:074133:BLANK !!:11
001:0002290081:20120502:074149:BLANK !!:11
001:0015684972:20120502:074155:BLANK !!:11
001:0009357241:20120502:074207:BLANK !!:11
001:0002295364:20120502:074215:BLANK !!:11
001:0013894338:20120502:074218:BLANK !!:11
001:0013878454:20120502:074221:BLANK !!:11
001:0013900680:20120502:074223:BLANK !!:11
001:0010551115:20120502:074225:BLANK !!:11
001:0010544167:20120502:074227:BLANK !!:11
001:0010547974:20120502:074229:BLANK !!:11
001:0010549955:20120502:074231:BLANK !!:11
001:0010536569:20120502:074233:BLANK !!:11
001:0009364324:20120502:074236:BLANK !!:11
001:0013882456:20120502:074238:BLANK !!:11
001:0009360458:20120502:074240:BLANK !!:11
001:0009364806:20120502:074241:BLANK !!:11
001:0013888628:20120502:074243:BLANK !!:11
001:0010537779:20120502:074247:BLANK !!:11
001:0013888865:20120502:074251:BLANK !!:11
001:0013894712:20120502:074253:BLANK !!:11
001:0010549748:20120502:074256:BLANK !!:11
001:0002282243:20120502:074305:BLANK !!:11
001:0013877112:20120502:074310:BLANK !!:11
001:0009371127:20120502:074313:BLANK !!:11
001:0010549644:20120502:074316:BLANK !!:11
001:0015693682:20120502:074324:BLANK !!:11
001:0009368209:20120502:074335:BLANK !!:11
001:0013874960:20120502:074337:BLANK !!:11
001:0010547091:20120502:074344:BLANK !!:11
001:0009364773:20120502:074346:BLANK !!:11
001:0013885899:20120502:074355:BLANK !!:11
001:0013889930:20120502:074357:BLANK !!:11
001:0013214375:20120502:074400:BLANK !!:11
001:0013894940:20120502:074405:BLANK !!:11
001:0009354725:20120502:074407:BLANK !!:11
001:0002267666:20120502:074411:BLANK !!:11
001:0009360461:20120502:074415:BLANK !!:11
001:0009364804:20120502:074417:BLANK !!:11
001:0015694629:20120502:074421:BLANK !!:11
001:0015685006:20120502:074423:BLANK !!:11
001:0010533341:20120502:074425:BLANK !!:11
001:0013888305:20120502:074428:BLANK !!:11
001:0002284706:20120502:074441:BLANK !!:11
001:0009356502:20120502:074445:BLANK !!:11
001:0015697358:20120502:074447:BLANK !!:11
001:0010549413:20120502:074450:BLANK !!:11
001:0010548132:20120502:074456:BLANK !!:11
001:0010551155:20120502:074458:BLANK !!:11
001:0010531624:20120502:074505:BLANK !!:11
001:0015696269:20120502:074516:BLANK !!:11
001:0009366722:20120502:074519:BLANK !!:11
001:0013935114:20120502:074521:BLANK !!:11
001:0009368404:20120502:074524:BLANK !!:11
001:0006755519:20120502:074528:BLANK !!:11
001:0010538695:20120502:074542:BLANK !!:11
001:0006753823:20120502:074545:BLANK !!:11
001:0010550707:20120502:074549:BLANK !!:11
001:0013883458:20120502:074554:BLANK !!:11
001:0006758961:20120502:074558:BLANK !!:11
001:0010651256:20120502:074601:BLANK !!:11
001:0006750527:20120502:074605:BLANK !!:11
001:0015674443:20120502:074612:BLANK !!:11
001:0002292541:20120502:074614:BLANK !!:11
001:0010547320:20120502:074616:BLANK !!:11
001:0010550306:20120502:074617:BLANK !!:11
001:0009354724:20120502:074620:BLANK !!:11
001:0009363041:20120502:074622:BLANK !!:11
001:0013940479:20120502:074624:BLANK !!:11
001:0006758789:20120502:074626:BLANK !!:11
001:0013887862:20120502:074628:BLANK !!:11
001:0006757638:20120502:074631:BLANK !!:11
001:0002289438:20120502:074634:BLANK !!:11
001:0010549740:20120502:074637:BLANK !!:11
001:0013880536:20120502:074640:BLANK !!:11
001:0009350673:20120502:074642:BLANK !!:11
001:0009371131:20120502:074644:BLANK !!:11
001:0006751519:20120502:074647:BLANK !!:11
001:0002268007:20120502:074650:BLANK !!:11
001:0013875148:20120502:074652:BLANK !!:11
001:0003101201:20120502:074658:BLANK !!:11
001:0009363039:20120502:074701:BLANK !!:11
001:0010532210:20120502:074703:BLANK !!:11
001:0015696870:20120502:074706:BLANK !!:11
001:0002274131:20120502:074709:BLANK !!:11
001:0015690234:20120502:074713:BLANK !!:11
001:0013886114:20120502:074729:BLANK !!:11
001:0010628117:20120502:074747:BLANK !!:11
001:0010538666:20120502:074750:BLANK !!:11
001:0010549596:20120502:074752:BLANK !!:11
001:0002270146:20120502:074755:BLANK !!:11
001:0010551210:20120502:074801:BLANK !!:11
001:0010550890:20120502:074804:BLANK !!:11
001:0009357239:20120502:074808:BLANK !!:11
001:0006754257:20120502:074812:BLANK !!:11
001:0013893990:20120502:074818:BLANK !!:11
001:0010552986:20120502:074820:BLANK !!:11
001:0013877148:20120502:074824:BLANK !!:11
001:0000365148:20120502:074828:BLANK !!:11
001:0010640656:20120502:074831:BLANK !!:11
001:0009369518:20120502:074833:BLANK !!:11
001:0006750042:20120502:074835:BLANK !!:11
001:0015688809:20120502:074837:BLANK !!:11
001:0010543526:20120502:074839:BLANK !!:11
001:0010544368:20120502:074841:BLANK !!:11
001:0002277756:20120502:074844:BLANK !!:11
001:0015698466:20120502:074904:BLANK !!:11
001:0010549787:20120502:074906:BLANK !!:11
001:0010542279:20120502:074910:BLANK !!:11
001:0000407097:20120502:074911:BLANK !!:11
001:0010540274:20120502:074913:BLANK !!:11
001:0010540251:20120502:074917:BLANK !!:11
001:0010548307:20120502:074919:BLANK !!:11
001:0006757851:20120502:074922:BLANK !!:11
001:0010546752:20120502:074924:BLANK !!:11
001:0015689920:20120502:074926:BLANK !!:11
001:0010549767:20120502:074928:BLANK !!:11
001:0002293868:20120502:074930:BLANK !!:11
001:0010549433:20120502:074932:BLANK !!:11
001:0013895851:20120502:074935:BLANK !!:11
001:0013899674:20120502:074937:BLANK !!:11
001:0013875397:20120502:074940:BLANK !!:11
001:0002270962:20120502:075003:BLANK !!:11
001:0013929932:20120502:075021:BLANK !!:11
001:0009360756:20120502:075024:BLANK !!:11
001:0002290777:20120502:075027:BLANK !!:11
001:0010549407:20120502:075030:BLANK !!:11
001:0010547997:20120502:075038:BLANK !!:11
001:0015697731:20120502:075041:BLANK !!:11
001:0010549428:20120502:075043:BLANK !!:11
001:0010549371:20120502:075045:BLANK !!:11
001:0009364108:20120502:075059:BLANK !!:11
001:0013875818:20120502:075100:BLANK !!:11
001:0013889730:20120502:075103:BLANK !!:11
001:0013879402:20120502:075106:BLANK !!:11
001:0010550889:20120502:075109:BLANK !!:11
001:0010551168:20120502:075118:BLANK !!:11
001:0010653054:20120502:075126:BLANK !!:11
001:0013897974:20120502:075140:BLANK !!:11
001:0009320970:20120502:075144:BLANK !!:11
001:0000365380:20120502:075148:BLANK !!:11
001:0013896430:20120502:075150:BLANK !!:11
001:0013886928:20120502:075155:BLANK !!:11
001:0015685005:20120502:075157:BLANK !!:11
001:0010544149:20120502:075202:BLANK !!:11
001:0010540763:20120502:075204:BLANK !!:11
001:0013877389:20120502:075208:BLANK !!:11
001:0010551185:20120502:075210:BLANK !!:11
001:0013894407:20120502:075214:BLANK !!:11
001:0015674317:20120502:075218:BLANK !!:11
001:0009369519:20120502:075224:BLANK !!:11
001:0002273808:20120502:075227:BLANK !!:11
001:0002271494:20120502:075231:BLANK !!:11
001:0015782013:20120502:075236:BLANK !!:11
001:0002273808:20120502:075239:BLANK !!:11
001:0009361701:20120502:075242:BLANK !!:11
001:0010549386:20120502:075244:BLANK !!:11
001:0013881426:20120502:075248:BLANK !!:11
001:0000683571:20120502:075251:BLANK !!:11
001:0015698029:20120502:075254:BLANK !!:11
001:0009359710:20120502:075303:BLANK !!:11
001:0015689962:20120502:075314:BLANK !!:11
001:0003116472:20120502:075316:BLANK !!:11
001:0003117930:20120502:075321:BLANK !!:11
001:0010537681:20120502:075324:BLANK !!:11
001:0010549450:20120502:075356:BLANK !!:11
001:0013952446:20120502:075406:BLANK !!:11
001:0010550294:20120502:075411:BLANK !!:11
001:0010549766:20120502:075416:BLANK !!:11
001:0010541183:20120502:075419:BLANK !!:11
001:0009347993:20120502:075445:BLANK !!:11
001:0009352948:20120502:075453:BLANK !!:11
001:0009361055:20120502:075506:BLANK !!:11
001:0010549697:20120502:075518:BLANK !!:11
001:0010549402:20120502:075522:BLANK !!:11
001:0013883591:20120502:075525:BLANK !!:11
001:0010539352:20120502:075539:BLANK !!:11
001:0003110988:20120502:075542:BLANK !!:11
001:0009364321:20120502:075546:BLANK !!:11
001:0010550709:20120502:075548:BLANK !!:11
001:0015690200:20120502:075552:BLANK !!:11
001:0013900030:20120502:075556:BLANK !!:11
001:0009350669:20120502:075602:BLANK !!:11
001:0009369521:20120502:075605:BLANK !!:11
001:0002274545:20120502:075608:BLANK !!:11
001:0013885080:20120502:075609:BLANK !!:11
001:0009371128:20120502:075625:BLANK !!:11
001:0013878708:20120502:075642:BLANK !!:11
001:0013895313:20120502:075645:BLANK !!:11
001:0002292481:20120502:075652:BLANK !!:11
001:0002290826:20120502:075654:BLANK !!:11
001:0009360116:20120502:075658:BLANK !!:11
001:0002284416:20120502:075701:BLANK !!:11
001:0010549567:20120502:075711:BLANK !!:11
001:0010551136:20120502:075719:BLANK !!:11
001:0003150394:20120502:075740:BLANK !!:11
001:0013897138:20120502:075746:BLANK !!:11
001:0002276947:20120502:075801:BLANK !!:11
001:0002290144:20120502:075813:BLANK !!:11
001:0010534521:20120502:075826:BLANK !!:11
001:0009364772:20120502:075902:BLANK !!:11
001:0010547437:20120502:075905:BLANK !!:11
001:0013874099:20120502:075908:BLANK !!:11
001:0010553521:20120502:075912:BLANK !!:11
001:0013888430:20120502:075915:BLANK !!:11
001:0009348591:20120502:075930:BLANK !!:11
001:0013890852:20120502:075935:BLANK !!:11
001:0009358044:20120502:075959:BLANK !!:11
001:0010547846:20120502:080057:BLANK !!:11
001:0009368226:20120502:080059:BLANK !!:11
001:0015694386:20120502:080206:BLANK !!:11
001:0015685385:20120502:080237:BLANK !!:11
001:0013888858:20120502:080239:BLANK !!:11
001:0015692449:20120502:080324:BLANK !!:11
001:0013881131:20120502:080328:BLANK !!:11
001:0015691426:20120502:080343:BLANK !!:11
001:0015674575:20120502:080350:BLANK !!:11
001:0013952741:20120502:080441:BLANK !!:11
001:0013900664:20120502:081054:BLANK !!:11
001:0000365761:20120502:083542:BLANK !!:11
001:0013882945:20120502:084825:BLANK !!:11
001:0013896752:20120502:084832:BLANK !!:11
001:0013880904:20120502:084834:BLANK !!:11
001:0013894250:20120502:084836:BLANK !!:11
001:0013896595:20120502:084838:BLANK !!:11
001:0013882358:20120502:084841:BLANK !!:11
001:0013900100:20120502:084844:BLANK !!:11
001:0006756113:20120502:084849:BLANK !!:11
001:0013885371:20120502:084856:BLANK !!:11
001:0013889788:20120502:084904:BLANK !!:11
001:0013888273:20120502:084907:BLANK !!:11
001:0013896958:20120502:085158:BLANK !!:11
001:0013901637:20120502:085206:BLANK !!:11
001:0013892922:20120502:085209:BLANK !!:11
001:0013889932:20120502:085213:BLANK !!:11
001:0013886076:20120502:085214:BLANK !!:11
001:0013896823:20120502:085222:BLANK !!:11
001:0010644113:20120502:085351:BLANK !!:11
001:0006760116:20120502:085810:BLANK !!:11
001:0013896432:20120502:090023:BLANK !!:11
001:0013875043:20120502:090315:BLANK !!:11
001:0010533195:20120502:090322:BLANK !!:11
001:0010550910:20120502:091225:BLANK !!:11
001:0002288205:20120502:092125:BLANK !!:11
001:0013885371:20120502:093419:BLANK !!:11
001:0013897974:20120502:093639:BLANK !!:11
