001:0013896080:20120505:064702:BLANK !!:11
001:0009366281:20120505:064855:BLANK !!:11
001:0010549396:20120505:064859:BLANK !!:11
001:0013888913:20120505:065146:BLANK !!:11
001:0010550898:20120505:065401:BLANK !!:11
001:0015693730:20120505:065852:BLANK !!:11
001:0003116318:20120505:070451:BLANK !!:11
001:0009363036:20120505:070504:BLANK !!:11
001:0002287554:20120505:070536:BLANK !!:11
001:0013896015:20120505:070614:BLANK !!:11
001:0002295364:20120505:072854:BLANK !!:11
001:0003102332:20120505:073007:BLANK !!:11
001:0004624478:20120505:073008:BLANK !!:11
001:0002292541:20120505:073010:BLANK !!:11
001:0006755461:20120505:073015:BLANK !!:11
001:0003115319:20120505:073019:BLANK !!:11
001:0015693718:20120505:073021:BLANK !!:11
001:0013887688:20120505:073024:BLANK !!:11
001:0013888594:20120505:073026:BLANK !!:11
001:0013887499:20120505:073027:BLANK !!:11
001:0009361053:20120505:073031:BLANK !!:11
001:0013892138:20120505:073033:BLANK !!:11
001:0009371131:20120505:073035:BLANK !!:11
001:0013887437:20120505:073037:BLANK !!:11
001:0013900625:20120505:073040:BLANK !!:11
001:0009371128:20120505:073041:BLANK !!:11
001:0013900540:20120505:073043:BLANK !!:11
001:0013885002:20120505:073044:BLANK !!:11
001:0010549504:20120505:073046:BLANK !!:11
001:0006757082:20120505:073048:BLANK !!:11
001:0013878180:20120505:073051:BLANK !!:11
001:0009361701:20120505:073055:BLANK !!:11
001:0009364805:20120505:073057:BLANK !!:11
001:0009361700:20120505:073059:BLANK !!:11
001:0002282143:20120505:073102:BLANK !!:11
001:0010534521:20120505:073104:BLANK !!:11
001:0009360116:20120505:073111:BLANK !!:11
001:0015688795:20120505:073113:BLANK !!:11
001:0010530367:20120505:073117:BLANK !!:11
001:0013883538:20120505:073119:BLANK !!:11
001:0013901179:20120505:073131:BLANK !!:11
001:0013891973:20120505:073140:BLANK !!:11
001:0002282162:20120505:073143:BLANK !!:11
001:0013887985:20120505:073145:BLANK !!:11
001:0013897942:20120505:073149:BLANK !!:11
001:0002273537:20120505:073154:BLANK !!:11
001:0013214375:20120505:073157:BLANK !!:11
001:0009348592:20120505:073236:BLANK !!:11
001:0013879037:20120505:073241:BLANK !!:11
001:0010553833:20120505:073244:BLANK !!:11
001:0010539061:20120505:073304:BLANK !!:11
001:0013892286:20120505:073310:BLANK !!:11
001:0006758431:20120505:073333:BLANK !!:11
001:0004634649:20120505:073339:BLANK !!:11
001:0002270962:20120505:073345:BLANK !!:11
001:0009371127:20120505:073358:BLANK !!:11
001:0010549454:20120505:073412:BLANK !!:11
001:0002270614:20120505:073429:BLANK !!:11
001:0003116472:20120505:073452:BLANK !!:11
001:0009347994:20120505:073456:BLANK !!:11
001:0009371413:20120505:073505:BLANK !!:11
001:0013885899:20120505:073509:BLANK !!:11
001:0015688510:20120505:073513:BLANK !!:11
001:0013897124:20120505:073514:BLANK !!:11
001:0013893990:20120505:073518:BLANK !!:11
001:0015694393:20120505:073519:BLANK !!:11
001:0009365681:20120505:073524:BLANK !!:11
001:0006754282:20120505:073527:BLANK !!:11
001:0010653054:20120505:073534:BLANK !!:11
001:0010532545:20120505:073538:BLANK !!:11
001:0013884285:20120505:073544:BLANK !!:11
001:0013884590:20120505:073554:BLANK !!:11
001:0009360755:20120505:073556:BLANK !!:11
001:0013888865:20120505:073600:BLANK !!:11
001:0010544167:20120505:073605:BLANK !!:11
001:0013889730:20120505:073607:BLANK !!:11
001:0013875818:20120505:073609:BLANK !!:11
001:0013874099:20120505:073611:BLANK !!:11
001:0010547437:20120505:073612:BLANK !!:11
001:0003110988:20120505:073614:BLANK !!:11
001:0013900030:20120505:073616:BLANK !!:11
001:0002270146:20120505:073618:BLANK !!:11
001:0010541979:20120505:073620:BLANK !!:11
001:0006759096:20120505:073622:BLANK !!:11
001:0000407097:20120505:073623:BLANK !!:11
001:0013952446:20120505:073626:BLANK !!:11
001:0013878009:20120505:073629:BLANK !!:11
001:0013929932:20120505:073637:BLANK !!:11
001:0010530514:20120505:073655:BLANK !!:11
001:0004631020:20120505:073700:BLANK !!:11
001:0009368404:20120505:073717:BLANK !!:11
001:0010544149:20120505:073728:BLANK !!:11
001:0010549787:20120505:073740:BLANK !!:11
001:0013894712:20120505:073746:BLANK !!:11
001:0004619983:20120505:073751:BLANK !!:11
001:0002267758:20120505:073758:BLANK !!:11
001:0015692449:20120505:073808:BLANK !!:11
001:0015696806:20120505:073810:BLANK !!:11
001:0002290826:20120505:073841:BLANK !!:11
001:0002292481:20120505:073843:BLANK !!:11
001:0013886928:20120505:073845:BLANK !!:11
001:0010549824:20120505:073852:BLANK !!:11
001:0013890035:20120505:073854:BLANK !!:11
001:0002274131:20120505:073904:BLANK !!:11
001:0013878454:20120505:073909:BLANK !!:11
001:0010549955:20120505:073912:BLANK !!:11
001:0002290081:20120505:073913:BLANK !!:11
001:0009364775:20120505:073916:BLANK !!:11
001:0013896494:20120505:073919:BLANK !!:11
001:0015691426:20120505:073926:BLANK !!:11
001:0013894338:20120505:073929:BLANK !!:11
001:0002274545:20120505:073932:BLANK !!:11
001:0002268007:20120505:073934:BLANK !!:11
001:0013875148:20120505:073936:BLANK !!:11
001:0009369518:20120505:073938:BLANK !!:11
001:0010549455:20120505:073941:BLANK !!:11
001:0009350670:20120505:073943:BLANK !!:11
001:0006755519:20120505:074006:BLANK !!:11
001:0013883458:20120505:074007:BLANK !!:11
001:0013878382:20120505:074010:BLANK !!:11
001:0015682819:20120505:074011:BLANK !!:11
001:0013897049:20120505:074014:BLANK !!:11
001:0002285324:20120505:074016:BLANK !!:11
001:0003117697:20120505:074023:BLANK !!:11
001:0006753686:20120505:074029:BLANK !!:11
001:0006758961:20120505:074032:BLANK !!:11
001:0006750042:20120505:074041:BLANK !!:11
001:0009356502:20120505:074047:BLANK !!:11
001:0013944638:20120505:074051:BLANK !!:11
001:0013886114:20120505:074053:BLANK !!:11
001:0015697397:20120505:074055:BLANK !!:11
001:0006751519:20120505:074058:BLANK !!:11
001:0010543526:20120505:074103:BLANK !!:11
001:0000365093:20120505:074125:BLANK !!:11
001:0013882456:20120505:074134:BLANK !!:11
001:0013878129:20120505:074136:BLANK !!:11
001:0002284706:20120505:074139:BLANK !!:11
001:0002291294:20120505:074141:BLANK !!:11
001:0010547087:20120505:074144:BLANK !!:11
001:0006757851:20120505:074146:BLANK !!:11
001:0006757638:20120505:074148:BLANK !!:11
001:0010549766:20120505:074150:BLANK !!:11
001:0010550294:20120505:074152:BLANK !!:11
001:0010547320:20120505:074158:BLANK !!:11
001:0002291755:20120505:074200:BLANK !!:11
001:0009354724:20120505:074201:BLANK !!:11
001:0002277756:20120505:074204:BLANK !!:11
001:0009364773:20120505:074206:BLANK !!:11
001:0010547091:20120505:074209:BLANK !!:11
001:0010550707:20120505:074214:BLANK !!:11
001:0010549428:20120505:074217:BLANK !!:11
001:0010551210:20120505:074223:BLANK !!:11
001:0010539435:20120505:074226:BLANK !!:11
001:0002273808:20120505:074228:BLANK !!:11
001:0010551115:20120505:074232:BLANK !!:11
001:0010531397:20120505:074235:BLANK !!:11
001:0009363039:20120505:074239:BLANK !!:11
001:0010549884:20120505:074250:BLANK !!:11
001:0010550306:20120505:074253:BLANK !!:11
001:0003103684:20120505:074256:BLANK !!:11
001:0013891964:20120505:074307:BLANK !!:11
001:0013880789:20120505:074312:BLANK !!:11
001:0002267666:20120505:074315:BLANK !!:11
001:0006756914:20120505:074318:BLANK !!:11
001:0009368209:20120505:074325:BLANK !!:11
001:0013874960:20120505:074333:BLANK !!:11
001:0010536569:20120505:074335:BLANK !!:11
001:0010549596:20120505:074337:BLANK !!:11
001:0013935114:20120505:074352:BLANK !!:11
001:0013894940:20120505:074359:BLANK !!:11
001:0002294646:20120505:074402:BLANK !!:11
001:0010550678:20120505:074412:BLANK !!:11
001:0010640656:20120505:074419:BLANK !!:11
001:0000365148:20120505:074422:BLANK !!:11
001:0010552986:20120505:074424:BLANK !!:11
001:0013933226:20120505:074426:BLANK !!:11
001:0006758789:20120505:074428:BLANK !!:11
001:0009363041:20120505:074431:BLANK !!:11
001:0009364321:20120505:074433:BLANK !!:11
001:0013887862:20120505:074435:BLANK !!:11
001:0013940479:20120505:074444:BLANK !!:11
001:0010538666:20120505:074446:BLANK !!:11
001:0010537779:20120505:074448:BLANK !!:11
001:0010634177:20120505:074451:BLANK !!:11
001:0013893682:20120505:074453:BLANK !!:11
001:0009360461:20120505:074456:BLANK !!:11
001:0009350673:20120505:074459:BLANK !!:11
001:0010532210:20120505:074524:BLANK !!:11
001:0006754257:20120505:074527:BLANK !!:11
001:0006753823:20120505:074538:BLANK !!:11
001:0010538695:20120505:074539:BLANK !!:11
001:0002268037:20120505:074546:BLANK !!:11
001:0004631014:20120505:074548:BLANK !!:11
001:0006759131:20120505:074609:BLANK !!:11
001:0004631652:20120505:074612:BLANK !!:11
001:0013930013:20120505:074618:BLANK !!:11
001:0010549740:20120505:074622:BLANK !!:11
001:0010651256:20120505:074623:BLANK !!:11
001:0009357241:20120505:074626:BLANK !!:11
001:0009363103:20120505:074635:BLANK !!:11
001:0000365380:20120505:074637:BLANK !!:11
001:0013896430:20120505:074639:BLANK !!:11
001:0002282243:20120505:074641:BLANK !!:11
001:0010549644:20120505:074658:BLANK !!:11
001:0010540763:20120505:074701:BLANK !!:11
001:0013885080:20120505:074703:BLANK !!:11
001:0013879728:20120505:074705:BLANK !!:11
001:0010554314:20120505:074706:BLANK !!:11
001:0000683571:20120505:074709:BLANK !!:11
001:0015674575:20120505:074711:BLANK !!:11
001:0010549450:20120505:074728:BLANK !!:11
001:0010533341:20120505:074736:BLANK !!:11
001:0010542279:20120505:074745:BLANK !!:11
001:0015698466:20120505:074747:BLANK !!:11
001:0015697358:20120505:074748:BLANK !!:11
001:0015696870:20120505:074751:BLANK !!:11
001:0006755937:20120505:074759:BLANK !!:11
001:0010539352:20120505:074802:BLANK !!:11
001:0009369516:20120505:074805:BLANK !!:11
001:0013874564:20120505:074808:BLANK !!:11
001:0010548132:20120505:074811:BLANK !!:11
001:0013888858:20120505:074813:BLANK !!:11
001:0013877112:20120505:074815:BLANK !!:11
001:0013897974:20120505:074817:BLANK !!:11
001:0010551155:20120505:074819:BLANK !!:11
001:0015690234:20120505:074823:BLANK !!:11
001:0002289438:20120505:074831:BLANK !!:11
001:0009354725:20120505:074835:BLANK !!:11
001:0013889930:20120505:074842:BLANK !!:11
001:0010540274:20120505:074844:BLANK !!:11
001:0010628117:20120505:074850:BLANK !!:11
001:0013879402:20120505:074853:BLANK !!:11
001:0015691390:20120505:074857:BLANK !!:11
001:0015688809:20120505:074900:BLANK !!:11
001:0002294278:20120505:074901:BLANK !!:11
001:0003117930:20120505:074904:BLANK !!:11
001:0015693682:20120505:074906:BLANK !!:11
001:0013884770:20120505:074907:BLANK !!:11
001:0015689962:20120505:074909:BLANK !!:11
001:0009352948:20120505:074912:BLANK !!:11
001:0010550889:20120505:074917:BLANK !!:11
001:0010544368:20120505:074919:BLANK !!:11
001:0015674317:20120505:074924:BLANK !!:11
001:0013890852:20120505:074927:BLANK !!:11
001:0015694629:20120505:074929:BLANK !!:11
001:0015685006:20120505:074932:BLANK !!:11
001:0013881131:20120505:074933:BLANK !!:11
001:0010549567:20120505:074937:BLANK !!:11
001:0010551136:20120505:074938:BLANK !!:11
001:0009368226:20120505:074943:BLANK !!:11
001:0010547846:20120505:074944:BLANK !!:11
001:0013877148:20120505:074957:BLANK !!:11
001:0010546752:20120505:075005:BLANK !!:11
001:0015674443:20120505:075022:BLANK !!:11
001:0010548307:20120505:075027:BLANK !!:11
001:0010540251:20120505:075029:BLANK !!:11
001:0013877389:20120505:075034:BLANK !!:11
001:0003101201:20120505:075047:BLANK !!:11
001:0009364324:20120505:075049:BLANK !!:11
001:0013888628:20120505:075112:BLANK !!:11
001:0009350669:20120505:075115:BLANK !!:11
001:0002271494:20120505:075118:BLANK !!:11
001:0015698029:20120505:075121:BLANK !!:11
001:0010541183:20120505:075123:BLANK !!:11
001:0002290777:20120505:075125:BLANK !!:11
001:0009360756:20120505:075130:BLANK !!:11
001:0010547997:20120505:075137:BLANK !!:11
001:0010547974:20120505:075139:BLANK !!:11
001:0015697731:20120505:075140:BLANK !!:11
001:0010531624:20120505:075143:BLANK !!:11
001:0015689920:20120505:075145:BLANK !!:11
001:0002293868:20120505:075148:BLANK !!:11
001:0004627383:20120505:075149:BLANK !!:11
001:0013875297:20120505:075152:BLANK !!:11
001:0004620445:20120505:075154:BLANK !!:11
001:0009347993:20120505:075214:BLANK !!:11
001:0010549371:20120505:075217:BLANK !!:11
001:0013895313:20120505:075220:BLANK !!:11
001:0013878708:20120505:075222:BLANK !!:11
001:0013894407:20120505:075225:BLANK !!:11
001:0009357239:20120505:075230:BLANK !!:11
001:0013894407:20120505:075240:BLANK !!:11
001:0009364108:20120505:075244:BLANK !!:11
001:0009364806:20120505:075245:BLANK !!:11
001:0009360458:20120505:075247:BLANK !!:11
001:0010549767:20120505:075309:BLANK !!:11
001:0010550890:20120505:075312:BLANK !!:11
001:0013899674:20120505:075317:BLANK !!:11
001:0009358044:20120505:075320:BLANK !!:11
001:0010634177:20120505:075335:BLANK !!:11
001:0009348591:20120505:075339:BLANK !!:11
001:0010549748:20120505:075348:BLANK !!:11
001:0010550709:20120505:075402:BLANK !!:11
001:0010549407:20120505:075406:BLANK !!:11
001:0013881426:20120505:075408:BLANK !!:11
001:0009361055:20120505:075411:BLANK !!:11
001:0009364772:20120505:075417:BLANK !!:11
001:0015685005:20120505:075422:BLANK !!:11
001:0002267789:20120505:075432:BLANK !!:11
001:0003150394:20120505:075434:BLANK !!:11
001:0015782013:20120505:075449:BLANK !!:11
001:0013883591:20120505:075456:BLANK !!:11
001:0010549402:20120505:075457:BLANK !!:11
001:0009357257:20120505:075500:BLANK !!:11
001:0013895851:20120505:075521:BLANK !!:11
001:0013897138:20120505:075523:BLANK !!:11
001:0013880536:20120505:075533:BLANK !!:11
001:0010537681:20120505:075643:BLANK !!:11
001:0015685385:20120505:075648:BLANK !!:11
001:0015690200:20120505:075658:BLANK !!:11
001:0013952741:20120505:075729:BLANK !!:11
001:0002276947:20120505:075743:BLANK !!:11
001:0002284416:20120505:075759:BLANK !!:11
001:0000365761:20120505:075806:BLANK !!:11
001:0013878044:20120505:075810:BLANK !!:11
001:0009366722:20120505:080243:BLANK !!:11
001:0010553521:20120505:081019:BLANK !!:11
001:0013900664:20120505:081119:BLANK !!:11
001:0002288205:20120505:082002:BLANK !!:11
001:0013875043:20120505:082755:BLANK !!:11
001:0003113526:20120505:084011:BLANK !!:11
001:0013896958:20120505:084729:BLANK !!:11
001:0013901637:20120505:084739:BLANK !!:11
001:0013886572:20120505:084746:BLANK !!:11
001:0013892922:20120505:084749:BLANK !!:11
001:0013886076:20120505:084752:BLANK !!:11
001:0013896823:20120505:084829:BLANK !!:11
001:0010644113:20120505:085352:BLANK !!:11
001:0013896432:20120505:085429:BLANK !!:11
001:0013882945:20120505:085537:BLANK !!:11
001:0013896752:20120505:085541:BLANK !!:11
001:0013881218:20120505:085542:BLANK !!:11
001:0013894250:20120505:085545:BLANK !!:11
001:0013880904:20120505:085551:BLANK !!:11
001:0013889788:20120505:085553:BLANK !!:11
001:0006756113:20120505:085556:BLANK !!:11
001:0013882358:20120505:085600:BLANK !!:11
001:0013888273:20120505:085603:BLANK !!:11
001:0013900100:20120505:085647:BLANK !!:11
001:0010550910:20120505:085743:BLANK !!:11
001:0015689962:20120505:092706:BLANK !!:11
001:0013889730:20120505:100336:BLANK !!:11
001:0015688795:20120505:104818:BLANK !!:11
001:0013889730:20120505:105657:BLANK !!:11
001:0006753686:20120505:112410:BLANK !!:11
001:0006756113:20120505:112413:BLANK !!:11
001:0010551140:20120505:113949:BLANK !!:11
001:0010550910:20120505:115224:BLANK !!:11
001:0013884590:20120505:123022:BLANK !!:11
001:0010544149:20120505:123024:BLANK !!:11
001:0003101201:20120505:123026:BLANK !!:11
001:0013878009:20120505:123027:BLANK !!:11
001:0013887985:20120505:123030:BLANK !!:11
001:0013929932:20120505:123033:BLANK !!:11
001:0015693682:20120505:123034:BLANK !!:11
001:0013874960:20120505:123036:BLANK !!:11
001:0015696806:20120505:123038:BLANK !!:11
001:0013893682:20120505:123041:BLANK !!:11
001:0010537681:20120505:123042:BLANK !!:11
001:0010549596:20120505:123044:BLANK !!:11
001:0013897138:20120505:123045:BLANK !!:11
001:0010541979:20120505:123047:BLANK !!:11
001:0010532545:20120505:123048:BLANK !!:11
001:0006751519:20120505:123050:BLANK !!:11
001:0010551136:20120505:123051:BLANK !!:11
001:0004619983:20120505:123053:BLANK !!:11
001:0013900625:20120505:123055:BLANK !!:11
001:0013883538:20120505:123056:BLANK !!:11
001:0013883458:20120505:123058:BLANK !!:11
001:0013884285:20120505:123059:BLANK !!:11
001:0004631014:20120505:123101:BLANK !!:11
001:0010628117:20120505:123103:BLANK !!:11
001:0013894940:20120505:123104:BLANK !!:11
001:0009354724:20120505:123106:BLANK !!:11
001:0009364108:20120505:123108:BLANK !!:11
001:0010549567:20120505:123109:BLANK !!:11
001:0013890035:20120505:123111:BLANK !!:11
001:0010547974:20120505:123112:BLANK !!:11
001:0010530514:20120505:123114:BLANK !!:11
001:0010640656:20120505:123115:BLANK !!:11
001:0002290826:20120505:123117:BLANK !!:11
001:0015698466:20120505:123118:BLANK !!:11
001:0010549644:20120505:123120:BLANK !!:11
001:0006756914:20120505:123121:BLANK !!:11
001:0013892286:20120505:123123:BLANK !!:11
001:0010549504:20120505:123124:BLANK !!:11
001:0002267789:20120505:123126:BLANK !!:11
001:0010549454:20120505:123128:BLANK !!:11
001:0010549787:20120505:123129:BLANK !!:11
001:0010549428:20120505:123131:BLANK !!:11
001:0010546752:20120505:123133:BLANK !!:11
001:0013893990:20120505:123134:BLANK !!:11
001:0009364321:20120505:123136:BLANK !!:11
001:0013899674:20120505:123138:BLANK !!:11
001:0002274131:20120505:123139:BLANK !!:11
001:0002293868:20120505:123141:BLANK !!:11
001:0010541183:20120505:123145:BLANK !!:11
001:0004634649:20120505:123148:BLANK !!:11
001:0010531624:20120505:123151:BLANK !!:11
001:0006750042:20120505:123153:BLANK !!:11
001:0013896494:20120505:123201:BLANK !!:11
001:0013894712:20120505:123203:BLANK !!:11
001:0013896432:20120505:123219:BLANK !!:11
001:0009348592:20120505:123223:BLANK !!:11
001:0009369521:20120505:123225:BLANK !!:11
001:0015674317:20120505:123229:BLANK !!:11
001:0013896430:20120505:123232:BLANK !!:11
001:0013879037:20120505:123234:BLANK !!:11
001:0015691390:20120505:123237:BLANK !!:11
001:0006755937:20120505:123239:BLANK !!:11
001:0002294278:20120505:123241:BLANK !!:11
001:0013888858:20120505:123242:BLANK !!:11
001:0013880789:20120505:123244:BLANK !!:11
001:0003117697:20120505:123245:BLANK !!:11
001:0013877112:20120505:123257:BLANK !!:11
001:0009360461:20120505:123258:BLANK !!:11
001:0015697731:20120505:123304:BLANK !!:11
001:0013887437:20120505:123307:BLANK !!:11
001:0010550890:20120505:123309:BLANK !!:11
001:0003103684:20120505:123325:BLANK !!:11
001:0002270962:20120505:123326:BLANK !!:11
001:0010549824:20120505:123328:BLANK !!:11
001:0015697397:20120505:123329:BLANK !!:11
001:0013880536:20120505:123332:BLANK !!:11
001:0002277756:20120505:123333:BLANK !!:11
001:0009369516:20120505:123335:BLANK !!:11
001:0002270146:20120505:123338:BLANK !!:11
001:0013214375:20120505:123339:BLANK !!:11
001:0006759096:20120505:123341:BLANK !!:11
001:0003117930:20120505:123342:BLANK !!:11
001:0013875297:20120505:123344:BLANK !!:11
001:0010542279:20120505:123345:BLANK !!:11
001:0010547997:20120505:123347:BLANK !!:11
001:0002282243:20120505:123349:BLANK !!:11
001:0013897124:20120505:123350:BLANK !!:11
001:0006754282:20120505:123353:BLANK !!:11
001:0013952741:20120505:123355:BLANK !!:11
001:0006759131:20120505:123356:BLANK !!:11
001:0010543526:20120505:123358:BLANK !!:11
001:0009363039:20120505:123406:BLANK !!:11
001:0004631652:20120505:123410:BLANK !!:11
001:0013901179:20120505:123413:BLANK !!:11
001:0015674443:20120505:123415:BLANK !!:11
001:0009356502:20120505:123417:BLANK !!:11
001:0009360755:20120505:123418:BLANK !!:11
001:0010532210:20120505:123420:BLANK !!:11
001:0013882456:20120505:123423:BLANK !!:11
001:0000365380:20120505:123425:BLANK !!:11
001:0009360458:20120505:123426:BLANK !!:11
001:0000365093:20120505:123428:BLANK !!:11
001:0003150394:20120505:123431:BLANK !!:11
001:0009364324:20120505:123432:BLANK !!:11
001:0015689920:20120505:123434:BLANK !!:11
001:0002271494:20120505:123436:BLANK !!:11
001:0010644113:20120505:123438:BLANK !!:11
001:0002268037:20120505:123442:BLANK !!:11
001:0010549455:20120505:123443:BLANK !!:11
001:0015688809:20120505:123445:BLANK !!:11
001:0002290777:20120505:123447:BLANK !!:11
001:0015694629:20120505:123449:BLANK !!:11
001:0009357241:20120505:123450:BLANK !!:11
001:0009352948:20120505:123452:BLANK !!:11
001:0010553833:20120505:123456:BLANK !!:11
001:0015697358:20120505:123458:BLANK !!:11
001:0009361055:20120505:123500:BLANK !!:11
001:0013895851:20120505:123502:BLANK !!:11
001:0013933226:20120505:123503:BLANK !!:11
001:0010552986:20120505:123505:BLANK !!:11
001:0015782013:20120505:123508:BLANK !!:11
001:0004620445:20120505:123509:BLANK !!:11
001:0015696870:20120505:123511:BLANK !!:11
001:0010549407:20120505:123512:BLANK !!:11
001:0009364806:20120505:123514:BLANK !!:11
001:0009365681:20120505:123518:BLANK !!:11
001:0009350673:20120505:123520:BLANK !!:11
001:0009364775:20120505:123521:BLANK !!:11
001:0000407097:20120505:123523:BLANK !!:11
001:0013897942:20120505:123525:BLANK !!:11
001:0009360756:20120505:123528:BLANK !!:11
001:0010537779:20120505:123530:BLANK !!:11
001:0002268007:20120505:123531:BLANK !!:11
001:0013888628:20120505:123532:BLANK !!:11
001:0009350670:20120505:123534:BLANK !!:11
001:0002276947:20120505:123536:BLANK !!:11
001:0010547846:20120505:123538:BLANK !!:11
001:0013878129:20120505:123540:BLANK !!:11
001:0010540274:20120505:123542:BLANK !!:11
001:0009364773:20120505:123543:BLANK !!:11
001:0010533341:20120505:123545:BLANK !!:11
001:0015689937:20120505:123546:BLANK !!:11
001:0013875148:20120505:123548:BLANK !!:11
001:0013886928:20120505:123550:BLANK !!:11
001:0004627383:20120505:123553:BLANK !!:11
001:0006760214:20120505:123600:BLANK !!:11
001:0000365148:20120505:123604:BLANK !!:11
001:0013879402:20120505:123606:BLANK !!:11
001:0003113526:20120505:123611:BLANK !!:11
001:0010539352:20120505:123613:BLANK !!:11
001:0006755519:20120505:123620:BLANK !!:11
001:0013878454:20120505:123626:BLANK !!:11
001:0010549955:20120505:123628:BLANK !!:11
001:0015685006:20120505:123639:BLANK !!:11
001:0009371127:20120505:123646:BLANK !!:11
001:0009368226:20120505:123714:BLANK !!:11
001:0009350669:20120505:123723:BLANK !!:11
001:0010549748:20120505:123753:BLANK !!:11
001:0010550707:20120505:123810:BLANK !!:11
001:0003116472:20120505:123821:BLANK !!:11
001:0009366722:20120505:123922:BLANK !!:11
001:0015698029:20120505:123934:BLANK !!:11
001:0013874564:20120505:123949:BLANK !!:11
001:0010533341:20120505:124618:BLANK !!:11
001:0010537779:20120505:124620:BLANK !!:11
001:0010549396:20120505:124700:BLANK !!:11
001:0010533195:20120505:124720:BLANK !!:11
001:0010533195:20120505:124956:BLANK !!:11
001:0013884770:20120505:125226:BLANK !!:11
001:0013875818:20120505:125403:BLANK !!:11
001:0013891964:20120505:125405:BLANK !!:11
001:0013900540:20120505:125621:BLANK !!:11
001:0009352948:20120505:125912:BLANK !!:11
001:0009364775:20120505:130017:BLANK !!:11
001:0009368226:20120505:130433:BLANK !!:11
001:0013874564:20120505:130446:BLANK !!:11
001:0009360461:20120505:130452:BLANK !!:11
001:0010530514:20120505:130506:BLANK !!:11
001:0013884770:20120505:130542:BLANK !!:11
001:0004634649:20120505:130600:BLANK !!:11
001:0006758789:20120505:130601:BLANK !!:11
001:0013887862:20120505:130604:BLANK !!:11
001:0002267789:20120505:130610:BLANK !!:11
001:0013887437:20120505:130629:BLANK !!:11
001:0013900664:20120505:130632:BLANK !!:11
001:0013879402:20120505:130643:BLANK !!:11
001:0013891964:20120505:130644:BLANK !!:11
001:0013887985:20120505:130648:BLANK !!:11
001:0010553833:20120505:130657:BLANK !!:11
001:0013901179:20120505:130659:BLANK !!:11
001:0010644113:20120505:130701:BLANK !!:11
001:0013888858:20120505:130704:BLANK !!:11
001:0010549504:20120505:130706:BLANK !!:11
001:0010549644:20120505:130723:BLANK !!:11
001:0009364321:20120505:130843:BLANK !!:11
001:0013890035:20120505:130923:BLANK !!:11
001:0013877112:20120505:130926:BLANK !!:11
001:0010550707:20120505:130931:BLANK !!:11
001:0013880789:20120505:131057:BLANK !!:11
001:0006755937:20120505:131105:BLANK !!:11
001:0013952741:20120505:131106:BLANK !!:11
001:0009369516:20120505:131124:BLANK !!:11
001:0002273537:20120505:131143:BLANK !!:11
001:0003103684:20120505:131210:BLANK !!:11
001:0013899674:20120505:131218:BLANK !!:11
001:0009348592:20120505:131224:BLANK !!:11
001:0010549454:20120505:131231:BLANK !!:11
001:0013892286:20120505:131346:BLANK !!:11
001:0013893682:20120505:131349:BLANK !!:11
001:0003116472:20120505:131419:BLANK !!:11
001:0002294278:20120505:131445:BLANK !!:11
001:0000365093:20120505:131446:BLANK !!:11
001:0010547846:20120505:131448:BLANK !!:11
001:0002270962:20120505:131503:BLANK !!:11
001:0013214375:20120505:131535:BLANK !!:11
001:0002270146:20120505:131538:BLANK !!:11
001:0010541979:20120505:131541:BLANK !!:11
001:0013893990:20120505:131647:BLANK !!:11
001:0004619983:20120505:131657:BLANK !!:11
001:0013878454:20120505:131716:BLANK !!:11
001:0010549955:20120505:131720:BLANK !!:11
001:0004627383:20120505:131722:BLANK !!:11
001:0009356502:20120505:131725:BLANK !!:11
001:0002274131:20120505:131729:BLANK !!:11
001:0006759131:20120505:131732:BLANK !!:11
001:0009360755:20120505:131738:BLANK !!:11
001:0013875818:20120505:131742:BLANK !!:11
001:0013879037:20120505:131751:BLANK !!:11
001:0009350673:20120505:131827:BLANK !!:11
001:0009371127:20120505:131829:BLANK !!:11
001:0004631020:20120505:131834:BLANK !!:11
001:0003117697:20120505:131844:BLANK !!:11
001:0010543526:20120505:131846:BLANK !!:11
001:0003101201:20120505:131856:BLANK !!:11
001:0015689920:20120505:131902:BLANK !!:11
001:0013892138:20120505:131905:BLANK !!:11
001:0013887862:20120505:131907:BLANK !!:11
001:0006758789:20120505:131909:BLANK !!:11
001:0013896494:20120505:131913:BLANK !!:11
001:0013883538:20120505:131914:BLANK !!:11
001:0015697397:20120505:131916:BLANK !!:11
001:0010547974:20120505:131917:BLANK !!:11
001:0013884590:20120505:131920:BLANK !!:11
001:0009369521:20120505:131921:BLANK !!:11
001:0004631020:20120505:131923:BLANK !!:11
001:0013883458:20120505:131931:BLANK !!:11
001:0015694629:20120505:131935:BLANK !!:11
001:0015685006:20120505:131937:BLANK !!:11
001:0010549455:20120505:131941:BLANK !!:11
001:0009350670:20120505:131945:BLANK !!:11
001:0010628117:20120505:131946:BLANK !!:11
001:0004631020:20120505:131950:BLANK !!:11
001:0013878009:20120505:132015:BLANK !!:11
001:0015697358:20120505:132026:BLANK !!:11
001:0006750042:20120505:132029:BLANK !!:11
001:0006759096:20120505:132034:BLANK !!:11
001:0006751519:20120505:132041:BLANK !!:11
001:0013900625:20120505:132043:BLANK !!:11
001:0013894940:20120505:132046:BLANK !!:11
001:0002277756:20120505:132048:BLANK !!:11
001:0010544368:20120505:132050:BLANK !!:11
001:0004631652:20120505:132052:BLANK !!:11
001:0002268037:20120505:132054:BLANK !!:11
001:0009365681:20120505:132056:BLANK !!:11
001:0009364324:20120505:132057:BLANK !!:11
001:0010552986:20120505:132108:BLANK !!:11
001:0006760214:20120505:132113:BLANK !!:11
001:0013933226:20120505:132115:BLANK !!:11
001:0009354724:20120505:132117:BLANK !!:11
001:0010640656:20120505:132120:BLANK !!:11
001:0000365148:20120505:132121:BLANK !!:11
001:0009371127:20120505:132126:BLANK !!:11
001:0003117930:20120505:132153:BLANK !!:11
001:0013895851:20120505:132214:BLANK !!:11
001:0010532210:20120505:132217:BLANK !!:11
001:0013897124:20120505:132220:BLANK !!:11
001:0000365380:20120505:132233:BLANK !!:11
001:0013896430:20120505:132236:BLANK !!:11
001:0009357241:20120505:132244:BLANK !!:11
001:0010541183:20120505:132246:BLANK !!:11
001:0010531624:20120505:132250:BLANK !!:11
001:0010549748:20120505:132252:BLANK !!:11
001:0009364773:20120505:132308:BLANK !!:11
001:0010547091:20120505:132309:BLANK !!:11
001:0013874960:20120505:132311:BLANK !!:11
001:0010537681:20120505:132313:BLANK !!:11
001:0013882456:20120505:132315:BLANK !!:11
001:0009360458:20120505:132316:BLANK !!:11
001:0002294646:20120505:132318:BLANK !!:11
001:0009364806:20120505:132321:BLANK !!:11
001:0013875148:20120505:132322:BLANK !!:11
001:0009369518:20120505:132325:BLANK !!:11
001:0015688809:20120505:132327:BLANK !!:11
001:0010542279:20120505:132329:BLANK !!:11
001:0006754282:20120505:132331:BLANK !!:11
001:0004631014:20120505:132333:BLANK !!:11
001:0015689937:20120505:132335:BLANK !!:11
001:0015698466:20120505:132337:BLANK !!:11
001:0009361055:20120505:132339:BLANK !!:11
001:0010549787:20120505:132346:BLANK !!:11
001:0013878129:20120505:132353:BLANK !!:11
001:0015696806:20120505:132355:BLANK !!:11
001:0006755519:20120505:132357:BLANK !!:11
001:0013884285:20120505:132400:BLANK !!:11
001:0002271494:20120505:132404:BLANK !!:11
001:0010540274:20120505:132406:BLANK !!:11
001:0013897138:20120505:132409:BLANK !!:11
001:0015691390:20120505:132411:BLANK !!:11
001:0013875297:20120505:132424:BLANK !!:11
001:0013897942:20120505:132427:BLANK !!:11
001:0010546752:20120505:132433:BLANK !!:11
001:0015674317:20120505:132437:BLANK !!:11
001:0006760116:20120505:132440:BLANK !!:11
001:0015674443:20120505:132443:BLANK !!:11
001:0002268007:20120505:132449:BLANK !!:11
001:0009363039:20120505:132451:BLANK !!:11
001:0010549824:20120505:132453:BLANK !!:11
001:0010551136:20120505:132502:BLANK !!:11
001:0010550890:20120505:132507:BLANK !!:11
001:0013897974:20120505:132525:BLANK !!:11
001:0002290777:20120505:132528:BLANK !!:11
001:0009360756:20120505:132530:BLANK !!:11
001:0009364108:20120505:132532:BLANK !!:11
001:0015693682:20120505:132534:BLANK !!:11
001:0010532545:20120505:132536:BLANK !!:11
001:0010544149:20120505:132538:BLANK !!:11
001:0002289438:20120505:132555:BLANK !!:11
001:0010539352:20120505:132557:BLANK !!:11
001:0013888628:20120505:132601:BLANK !!:11
001:0009350669:20120505:132603:BLANK !!:11
001:0010549567:20120505:132627:BLANK !!:11
001:0010549596:20120505:132629:BLANK !!:11
001:0015782013:20120505:132632:BLANK !!:11
001:0006756914:20120505:132635:BLANK !!:11
001:0015696870:20120505:132646:BLANK !!:11
001:0002290826:20120505:132710:BLANK !!:11
001:0015697731:20120505:132716:BLANK !!:11
001:0010547997:20120505:132718:BLANK !!:11
001:0002282243:20120505:132722:BLANK !!:11
001:0013880536:20120505:132803:BLANK !!:11
001:0002276947:20120505:132808:BLANK !!:11
001:0013894712:20120505:132815:BLANK !!:11
001:0000407097:20120505:132819:BLANK !!:11
001:0013929932:20120505:132833:BLANK !!:11
001:0013886928:20120505:132838:BLANK !!:11
001:0010549428:20120505:132842:BLANK !!:11
001:0004620445:20120505:132849:BLANK !!:11
001:0010550709:20120505:132920:BLANK !!:11
001:0002293868:20120505:132922:BLANK !!:11
001:0010549407:20120505:132931:BLANK !!:11
001:0010551185:20120505:133047:BLANK !!:11
001:0010547320:20120505:133048:BLANK !!:11
001:0013877389:20120505:133050:BLANK !!:11
001:0006757851:20120505:133213:BLANK !!:11
001:0010530367:20120505:133215:BLANK !!:11
001:0002285324:20120505:133440:BLANK !!:11
001:0003150394:20120505:133800:BLANK !!:11
001:0015698029:20120505:133843:BLANK !!:11
001:0015690234:20120505:134010:BLANK !!:11
001:0010550889:20120505:134141:BLANK !!:11
001:0010549396:20120505:134344:BLANK !!:11
001:0009366722:20120505:134747:BLANK !!:11
001:0003113526:20120505:134939:BLANK !!:11
001:0006753686:20120505:140041:BLANK !!:11
001:0013900664:20120505:140126:BLANK !!:11
001:0010547320:20120505:141744:BLANK !!:11
001:0010551185:20120505:142101:BLANK !!:11
001:0013877389:20120505:142104:BLANK !!:11
001:0006760116:20120505:142150:BLANK !!:11
001:0006757851:20120505:142309:BLANK !!:11
001:0010530367:20120505:142311:BLANK !!:11
001:0002285324:20120505:142334:BLANK !!:11
001:0015690234:20120505:142722:BLANK !!:11
001:0010550889:20120505:144057:BLANK !!:11
001:0013889788:20120505:160218:BLANK !!:11
001:0010550898:20120505:160510:BLANK !!:11
001:0013900625:20120505:170059:BLANK !!:11
001:0002267789:20120505:170252:BLANK !!:11
001:0010532545:20120505:170257:BLANK !!:11
001:0013890035:20120505:170320:BLANK !!:11
001:0010551136:20120505:170325:BLANK !!:11
001:0004634649:20120505:170327:BLANK !!:11
001:0010549596:20120505:170421:BLANK !!:11
001:0013897138:20120505:170423:BLANK !!:11
001:0010539435:20120505:170446:BLANK !!:11
001:0002292481:20120505:170448:BLANK !!:11
001:0015691390:20120505:170454:BLANK !!:11
001:0003117697:20120505:170506:BLANK !!:11
001:0002294278:20120505:170508:BLANK !!:11
001:0009360461:20120505:170513:BLANK !!:11
001:0002274131:20120505:170516:BLANK !!:11
001:0010549824:20120505:170518:BLANK !!:11
001:0003103684:20120505:170558:BLANK !!:11
001:0002270962:20120505:170600:BLANK !!:11
001:0013879037:20120505:170602:BLANK !!:11
001:0009369518:20120505:170603:BLANK !!:11
001:0010550709:20120505:170605:BLANK !!:11
001:0006753823:20120505:170631:BLANK !!:11
001:0015697397:20120505:170659:BLANK !!:11
001:0010551185:20120505:170742:BLANK !!:11
001:0003115319:20120505:170745:BLANK !!:11
001:0010549567:20120505:170747:BLANK !!:11
001:0013930013:20120505:170828:BLANK !!:11
001:0002273537:20120505:170945:BLANK !!:11
001:0015674443:20120505:171315:BLANK !!:11
001:0013874564:20120505:172134:BLANK !!:11
001:0010540251:20120505:174216:BLANK !!:11
001:0010548307:20120505:174226:BLANK !!:11
001:0000683571:20120505:175454:BLANK !!:11
001:0010549450:20120505:180322:BLANK !!:11
001:0013888865:20120505:180713:BLANK !!:11
001:0010651256:20120505:180718:BLANK !!:11
001:0002288205:20120505:180752:BLANK !!:11
001:0013886572:20120505:180912:BLANK !!:11
001:0013894250:20120505:180915:BLANK !!:11
001:0013888273:20120505:180917:BLANK !!:11
001:0013882358:20120505:180920:BLANK !!:11
001:0013886076:20120505:181023:BLANK !!:11
001:0013881218:20120505:181028:BLANK !!:11
001:0013892922:20120505:181031:BLANK !!:11
001:0013896752:20120505:181240:BLANK !!:11
001:0013900100:20120505:181243:BLANK !!:11
001:0013896958:20120505:181309:BLANK !!:11
001:0013882945:20120505:181335:BLANK !!:11
001:0013901637:20120505:181455:BLANK !!:11
001:0010533195:20120505:181658:BLANK !!:11
001:0010549740:20120505:181741:BLANK !!:11
001:0013894407:20120505:184332:BLANK !!:11
001:0009363036:20120505:184844:BLANK !!:11
001:0013896015:20120505:184848:BLANK !!:11
001:0002287554:20120505:185017:BLANK !!:11
001:0003116318:20120505:185031:BLANK !!:11
001:0003113526:20120505:190020:BLANK !!:11
001:0013888913:20120505:190432:BLANK !!:11
001:0009366281:20120505:190501:BLANK !!:11
001:0013896080:20120505:190653:BLANK !!:11
001:0002290144:20120505:192545:BLANK !!:11
001:0006750527:20120505:192730:BLANK !!:11
001:0003150394:20120505:193052:BLANK !!:11
001:0006760141:20120505:193057:BLANK !!:11
001:0006754204:20120505:193142:BLANK !!:11
001:0009364774:20120505:193327:BLANK !!:11
001:0002273235:20120505:193657:BLANK !!:11
001:0009363103:20120505:193725:BLANK !!:11
001:0010548264:20120505:194648:BLANK !!:11
001:0010634177:20120505:195006:BLANK !!:11
001:0013880904:20120505:195009:BLANK !!:11
001:0013875043:20120505:195013:BLANK !!:11
001:0006750419:20120505:195049:BLANK !!:11
001:0010550340:20120505:195117:BLANK !!:11
001:0010549697:20120505:195119:BLANK !!:11
001:0013875397:20120505:195141:BLANK !!:11
001:0010542101:20120505:195323:BLANK !!:11
001:0010644113:20120505:195448:BLANK !!:11
001:0009369519:20120505:195451:BLANK !!:11
001:0009359710:20120505:195624:BLANK !!:11
001:0015684972:20120505:195637:BLANK !!:11
001:0010549386:20120505:195744:BLANK !!:11
001:0015685005:20120505:200101:BLANK !!:11
001:0010644113:20120505:200124:BLANK !!:11
001:0006753686:20120505:203043:BLANK !!:11
001:0002292541:20120505:203052:BLANK !!:11
001:0013884590:20120505:203057:BLANK !!:11
001:0013877389:20120505:203100:BLANK !!:11
001:0009354724:20120505:203101:BLANK !!:11
001:0010547320:20120505:203104:BLANK !!:11
001:0010551115:20120505:203106:BLANK !!:11
001:0015693682:20120505:203108:BLANK !!:11
001:0013874960:20120505:203109:BLANK !!:11
001:0010530367:20120505:203111:BLANK !!:11
001:0010549396:20120505:203113:BLANK !!:11
001:0006754257:20120505:203115:BLANK !!:11
001:0013897974:20120505:203119:BLANK !!:11
001:0013887437:20120505:203121:BLANK !!:11
001:0006758431:20120505:203123:BLANK !!:11
001:0006757082:20120505:203125:BLANK !!:11
001:0010537681:20120505:203129:BLANK !!:11
001:0009361700:20120505:203131:BLANK !!:11
001:0003116472:20120505:203134:BLANK !!:11
001:0010539061:20120505:203135:BLANK !!:11
001:0009364108:20120505:203137:BLANK !!:11
001:0002267666:20120505:203138:BLANK !!:11
001:0013894940:20120505:203140:BLANK !!:11
001:0013944638:20120505:203142:BLANK !!:11
001:0013893990:20120505:203146:BLANK !!:11
001:0010551210:20120505:203147:BLANK !!:11
001:0004631020:20120505:203149:BLANK !!:11
001:0006757638:20120505:203152:BLANK !!:11
001:0009348591:20120505:203156:BLANK !!:11
001:0003102332:20120505:203157:BLANK !!:11
001:0003110988:20120505:203159:BLANK !!:11
001:0013900540:20120505:203201:BLANK !!:11
001:0006755461:20120505:203203:BLANK !!:11
001:0015696806:20120505:203205:BLANK !!:11
001:0010549454:20120505:203207:BLANK !!:11
001:0010549787:20120505:203209:BLANK !!:11
001:0009364805:20120505:203210:BLANK !!:11
001:0006756914:20120505:203212:BLANK !!:11
001:0013878180:20120505:203214:BLANK !!:11
001:0002274545:20120505:203216:BLANK !!:11
001:0010541979:20120505:203218:BLANK !!:11
001:0006755519:20120505:203219:BLANK !!:11
001:0006759096:20120505:203221:BLANK !!:11
001:0009352948:20120505:203222:BLANK !!:11
001:0010541183:20120505:203224:BLANK !!:11
001:0013897942:20120505:203227:BLANK !!:11
001:0013881131:20120505:203228:BLANK !!:11
001:0013887985:20120505:203230:BLANK !!:11
001:0002270146:20120505:203232:BLANK !!:11
001:0010531624:20120505:203234:BLANK !!:11
001:0013893682:20120505:203235:BLANK !!:11
001:0015674317:20120505:203239:BLANK !!:11
001:0010546752:20120505:203240:BLANK !!:11
001:0013885080:20120505:203242:BLANK !!:11
001:0010553833:20120505:203243:BLANK !!:11
001:0015689920:20120505:203246:BLANK !!:11
001:0013899674:20120505:203249:BLANK !!:11
001:0004620445:20120505:203251:BLANK !!:11
001:0010628117:20120505:203253:BLANK !!:11
001:0013896430:20120505:203254:BLANK !!:11
001:0010540763:20120505:203256:BLANK !!:11
001:0002290081:20120505:203258:BLANK !!:11
001:0000407097:20120505:203300:BLANK !!:11
001:0009360116:20120505:203301:BLANK !!:11
001:0009364324:20120505:203303:BLANK !!:11
001:0013895851:20120505:203305:BLANK !!:11
001:0015697731:20120505:203306:BLANK !!:11
001:0009348592:20120505:203308:BLANK !!:11
001:0004627383:20120505:203309:BLANK !!:11
001:0010544368:20120505:203311:BLANK !!:11
001:0013887499:20120505:203314:BLANK !!:11
001:0015693718:20120505:203317:BLANK !!:11
001:0002268037:20120505:203318:BLANK !!:11
001:0013882456:20120505:203320:BLANK !!:11
001:0015685385:20120505:203322:BLANK !!:11
001:0010547087:20120505:203326:BLANK !!:11
001:0010554314:20120505:203328:BLANK !!:11
001:0015685006:20120505:203330:BLANK !!:11
001:0009365681:20120505:203331:BLANK !!:11
001:0009361055:20120505:203333:BLANK !!:11
001:0004619983:20120505:203334:BLANK !!:11
001:0006759131:20120505:203336:BLANK !!:11
001:0002268007:20120505:203337:BLANK !!:11
001:0010532210:20120505:203339:BLANK !!:11
001:0013879728:20120505:203341:BLANK !!:11
001:0013878382:20120505:203343:BLANK !!:11
001:0013895313:20120505:203344:BLANK !!:11
001:0013878708:20120505:203346:BLANK !!:11
001:0010549428:20120505:203347:BLANK !!:11
001:0010549767:20120505:203349:BLANK !!:11
001:0010640656:20120505:203352:BLANK !!:11
001:0002290826:20120505:203354:BLANK !!:11
001:0013880536:20120505:203356:BLANK !!:11
001:0009368209:20120505:203357:BLANK !!:11
001:0009350673:20120505:203359:BLANK !!:11
001:0010549455:20120505:203400:BLANK !!:11
001:0004631652:20120505:203402:BLANK !!:11
001:0015694629:20120505:203403:BLANK !!:11
001:0009360458:20120505:203405:BLANK !!:11
001:0015674575:20120505:203406:BLANK !!:11
001:0000365093:20120505:203408:BLANK !!:11
001:0010549766:20120505:203409:BLANK !!:11
001:0010550890:20120505:203411:BLANK !!:11
001:0002273808:20120505:203413:BLANK !!:11
001:0000365380:20120505:203415:BLANK !!:11
001:0010549371:20120505:203418:BLANK !!:11
001:0010550306:20120505:203422:BLANK !!:11
001:0002293868:20120505:203425:BLANK !!:11
001:0010547997:20120505:203429:BLANK !!:11
001:0002282243:20120505:203431:BLANK !!:11
001:0009369521:20120505:203432:BLANK !!:11
001:0002282243:20120505:203434:BLANK !!:11
001:0015698466:20120505:203437:BLANK !!:11
001:0010550889:20120505:203439:BLANK !!:11
001:0009356502:20120505:203442:BLANK !!:11
001:0010549407:20120505:203444:BLANK !!:11
001:0010550678:20120505:203447:BLANK !!:11
001:0015688510:20120505:203449:BLANK !!:11
001:0002291755:20120505:203450:BLANK !!:11
001:0009360755:20120505:203452:BLANK !!:11
001:0010540274:20120505:203453:BLANK !!:11
001:0002277756:20120505:203455:BLANK !!:11
001:0003117930:20120505:203457:BLANK !!:11
001:0002284706:20120505:203458:BLANK !!:11
001:0002291294:20120505:203500:BLANK !!:11
001:0010531397:20120505:203501:BLANK !!:11
001:0010653054:20120505:203504:BLANK !!:11
001:0015689937:20120505:203506:BLANK !!:11
001:0015692449:20120505:203508:BLANK !!:11
001:0009350669:20120505:203510:BLANK !!:11
001:0013888628:20120505:203511:BLANK !!:11
001:0010542279:20120505:203513:BLANK !!:11
001:0002271494:20120505:203515:BLANK !!:11
001:0002289438:20120505:203517:BLANK !!:11
001:0009357241:20120505:203519:BLANK !!:11
001:0015696870:20120505:203521:BLANK !!:11
001:0010550294:20120505:203522:BLANK !!:11
001:0013892138:20120505:203524:BLANK !!:11
001:0013885899:20120505:203526:BLANK !!:11
001:0010538666:20120505:203527:BLANK !!:11
001:0010547437:20120505:203529:BLANK !!:11
001:0013874099:20120505:203531:BLANK !!:11
001:0013889930:20120505:203533:BLANK !!:11
001:0002276947:20120505:203534:BLANK !!:11
001:0013878129:20120505:203536:BLANK !!:11
001:0015697358:20120505:203537:BLANK !!:11
001:0009360756:20120505:203541:BLANK !!:11
001:0013888594:20120505:203542:BLANK !!:11
001:0002290777:20120505:203544:BLANK !!:11
001:0010549955:20120505:203547:BLANK !!:11
001:0013878454:20120505:203549:BLANK !!:11
001:0009368226:20120505:203552:BLANK !!:11
001:0010533341:20120505:203553:BLANK !!:11
001:0010534521:20120505:203555:BLANK !!:11
001:0010537779:20120505:203557:BLANK !!:11
001:0010538695:20120505:203559:BLANK !!:11
001:0009368404:20120505:203600:BLANK !!:11
001:0009363041:20120505:203602:BLANK !!:11
001:0013897124:20120505:203603:BLANK !!:11
001:0009350670:20120505:203605:BLANK !!:11
001:0013935114:20120505:203607:BLANK !!:11
001:0004624478:20120505:203608:BLANK !!:11
001:0013940479:20120505:203611:BLANK !!:11
001:0013885002:20120505:203613:BLANK !!:11
001:0010549402:20120505:203614:BLANK !!:11
001:0013883591:20120505:203616:BLANK !!:11
001:0013897049:20120505:203618:BLANK !!:11
001:0009347994:20120505:203620:BLANK !!:11
001:0009361053:20120505:203623:BLANK !!:11
001:0009371131:20120505:203624:BLANK !!:11
001:0010552986:20120505:203626:BLANK !!:11
001:0000365148:20120505:203628:BLANK !!:11
001:0013933226:20120505:203630:BLANK !!:11
001:0013887862:20120505:203632:BLANK !!:11
001:0006758789:20120505:203633:BLANK !!:11
001:0006760214:20120505:203635:BLANK !!:11
001:0009371413:20120505:203636:BLANK !!:11
001:0013900030:20120505:203638:BLANK !!:11
001:0013878044:20120505:203639:BLANK !!:11
001:0002294646:20120505:203641:BLANK !!:11
001:0010548132:20120505:203643:BLANK !!:11
001:0009354725:20120505:203645:BLANK !!:11
001:0010551155:20120505:203646:BLANK !!:11
001:0013877148:20120505:203648:BLANK !!:11
001:0015682819:20120505:203649:BLANK !!:11
001:0009347993:20120505:203651:BLANK !!:11
001:0013886114:20120505:203652:BLANK !!:11
001:0004631014:20120505:203654:BLANK !!:11
001:0009364775:20120505:203656:BLANK !!:11
001:0010543526:20120505:203657:BLANK !!:11
001:0013896494:20120505:203701:BLANK !!:11
001:0009361701:20120505:203702:BLANK !!:11
001:0009364321:20120505:203704:BLANK !!:11
001:0013884770:20120505:203705:BLANK !!:11
001:0013879402:20120505:203707:BLANK !!:11
001:0013901179:20120505:203708:BLANK !!:11
001:0010544167:20120505:203710:BLANK !!:11
001:0013875818:20120505:203712:BLANK !!:11
001:0010530514:20120505:203715:BLANK !!:11
001:0013929932:20120505:203717:BLANK !!:11
001:0009357239:20120505:203719:BLANK !!:11
001:0013887688:20120505:203721:BLANK !!:11
001:0013875297:20120505:203722:BLANK !!:11
001:0013891964:20120505:203724:BLANK !!:11
001:0013890852:20120505:203725:BLANK !!:11
001:0013894712:20120505:203727:BLANK !!:11
001:0015782013:20120505:203729:BLANK !!:11
001:0013880789:20120505:203731:BLANK !!:11
001:0015694393:20120505:203732:BLANK !!:11
001:0010549644:20120505:203735:BLANK !!:11
001:0013900664:20120505:203736:BLANK !!:11
001:0010549884:20120505:203739:BLANK !!:11
001:0015693730:20120505:203741:BLANK !!:11
001:0010549748:20120505:203744:BLANK !!:11
001:0015688809:20120505:203746:BLANK !!:11
001:0002284416:20120505:203749:BLANK !!:11
001:0009371128:20120505:203756:BLANK !!:11
001:0006755937:20120505:203759:BLANK !!:11
001:0002270614:20120505:203802:BLANK !!:11
001:0013892286:20120505:203812:BLANK !!:11
001:0010539352:20120505:203821:BLANK !!:11
001:0013888858:20120505:203827:BLANK !!:11
001:0003101201:20120505:203840:BLANK !!:11
001:0006755185:20120505:203843:BLANK !!:11
001:0009357257:20120505:203858:BLANK !!:11
001:0015691426:20120505:203902:BLANK !!:11
001:0013894338:20120505:203907:BLANK !!:11
001:0009369516:20120505:203914:BLANK !!:11
001:0013878009:20120505:203917:BLANK !!:11
001:0009364773:20120505:204006:BLANK !!:11
001:0010547091:20120505:204008:BLANK !!:11
001:0009366722:20120505:204025:BLANK !!:11
001:0010553521:20120505:204036:BLANK !!:11
001:0015690234:20120505:204238:BLANK !!:11
001:0010551140:20120505:204313:BLANK !!:11
001:0002282162:20120505:204519:BLANK !!:11
001:0013891973:20120505:204553:BLANK !!:11
001:0006760116:20120505:210129:BLANK !!:11
001:0009364772:20120505:210647:BLANK !!:11
001:0006760116:20120505:212412:BLANK !!:11
001:0006750042:20120505:213309:BLANK !!:11
001:0013952446:20120505:213313:BLANK !!:11
001:0013884285:20120505:213319:BLANK !!:11
001:0006757851:20120505:213329:BLANK !!:11
001:0013883538:20120505:213350:BLANK !!:11
001:0010544149:20120505:213355:BLANK !!:11
001:0013883458:20120505:213411:BLANK !!:11
001:0013877112:20120505:213531:BLANK !!:11
001:0006751519:20120505:213534:BLANK !!:11
001:0010549504:20120505:220029:BLANK !!:11
001:0010547974:20120505:220031:BLANK !!:11
001:0002282143:20120505:220040:BLANK !!:11
001:0009371127:20120505:220043:BLANK !!:11
001:0006750527:20120505:220048:BLANK !!:11
001:0013889730:20120505:220051:BLANK !!:11
001:0006760141:20120505:220301:BLANK !!:11
001:0010542101:20120505:220304:BLANK !!:11
001:0002290144:20120505:220351:BLANK !!:11
001:0010548264:20120505:220422:BLANK !!:11
001:0006754204:20120505:220426:BLANK !!:11
001:0010549697:20120505:220428:BLANK !!:11
001:0010550340:20120505:220508:BLANK !!:11
001:0010634177:20120505:221402:BLANK !!:11
001:0010634177:20120505:221803:BLANK !!:11
001:0006750527:20120505:222346:BLANK !!:11
001:0000365761:20120505:222722:BLANK !!:11
001:0006760141:20120505:223922:BLANK !!:11
001:0006754204:20120505:224453:BLANK !!:11
001:0010550340:20120505:224702:BLANK !!:11
001:0010548264:20120505:224703:BLANK !!:11
001:0010549697:20120505:224706:BLANK !!:11
001:0010542101:20120505:225549:BLANK !!:11
001:0002290144:20120505:225653:BLANK !!:11
001:0013214375:20120505:230127:BLANK !!:11
001:0006754282:20120505:230130:BLANK !!:11
001:0013952741:20120505:230206:BLANK !!:11
001:0010550707:20120505:230212:BLANK !!:11
001:0015690200:20120505:230220:BLANK !!:11
001:0013888305:20120505:230309:BLANK !!:11
001:0002267758:20120505:230312:BLANK !!:11
001:0010536569:20120505:230316:BLANK !!:11
001:0002273235:20120506:050042:BLANK !!:11
001:0006754204:20120506:050044:BLANK !!:11
001:0013875397:20120506:050122:BLANK !!:11
001:0009364774:20120506:050126:BLANK !!:11
001:0009359710:20120506:061310:BLANK !!:11
001:0013896080:20120506:064610:BLANK !!:11
001:0013888913:20120506:064947:BLANK !!:11
001:0009366281:20120506:064952:BLANK !!:11
001:0009363036:20120506:070503:BLANK !!:11
001:0003116318:20120506:070536:BLANK !!:11
001:0002287554:20120506:070540:BLANK !!:11
001:0013896015:20120506:070825:BLANK !!:11
001:0004619983:20120506:072423:BLANK !!:11
001:0015693730:20120506:072500:BLANK !!:11
001:0013888305:20120506:073022:BLANK !!:11
001:0009364805:20120506:073025:BLANK !!:11
001:0013890035:20120506:073027:BLANK !!:11
001:0006757082:20120506:073029:BLANK !!:11
001:0010530367:20120506:073033:BLANK !!:11
001:0013900540:20120506:073035:BLANK !!:11
001:0013887126:20120506:073038:BLANK !!:11
001:0013888865:20120506:073041:BLANK !!:11
001:0010541979:20120506:073043:BLANK !!:11
001:0013900680:20120506:073045:BLANK !!:11
001:0013878009:20120506:073046:BLANK !!:11
001:0013883538:20120506:073049:BLANK !!:11
001:0013887985:20120506:073054:BLANK !!:11
001:0010530514:20120506:073056:BLANK !!:11
001:0002270614:20120506:073059:BLANK !!:11
001:0010530514:20120506:073101:BLANK !!:11
001:0013883458:20120506:073104:BLANK !!:11
001:0013878180:20120506:073108:BLANK !!:11
001:0010553833:20120506:073111:BLANK !!:11
001:0006758261:20120506:073113:BLANK !!:11
001:0010543526:20120506:073119:BLANK !!:11
001:0002270146:20120506:073122:BLANK !!:11
001:0004627383:20120506:073151:BLANK !!:11
001:0004631020:20120506:073210:BLANK !!:11
001:0010536569:20120506:073213:BLANK !!:11
001:0013897124:20120506:073226:BLANK !!:11
001:0002270962:20120506:073327:BLANK !!:11
001:0013897942:20120506:073332:BLANK !!:11
001:0009350673:20120506:073335:BLANK !!:11
001:0010539061:20120506:073427:BLANK !!:11
001:0000365093:20120506:073430:BLANK !!:11
001:0010550678:20120506:073438:BLANK !!:11
001:0010549396:20120506:073442:BLANK !!:11
001:0009361701:20120506:073445:BLANK !!:11
001:0010549504:20120506:073448:BLANK !!:11
001:0004634649:20120506:073502:BLANK !!:11
001:0010549748:20120506:073528:BLANK !!:11
001:0006755461:20120506:073612:BLANK !!:11
001:0009364775:20120506:073621:BLANK !!:11
001:0010549644:20120506:073624:BLANK !!:11
001:0002282162:20120506:073633:BLANK !!:11
001:0015693718:20120506:073647:BLANK !!:11
001:0015689937:20120506:073651:BLANK !!:11
001:0015696806:20120506:073708:BLANK !!:11
001:0010549884:20120506:073710:BLANK !!:11
001:0006755449:20120506:073717:BLANK !!:11
001:0004624478:20120506:073732:BLANK !!:11
001:0009361053:20120506:073735:BLANK !!:11
001:0009371131:20120506:073737:BLANK !!:11
001:0002295364:20120506:073740:BLANK !!:11
001:0002290081:20120506:073742:BLANK !!:11
001:0013896430:20120506:073745:BLANK !!:11
001:0009348592:20120506:073756:BLANK !!:11
001:0013893682:20120506:073816:BLANK !!:11
001:0009347994:20120506:073900:BLANK !!:11
001:0013885002:20120506:073903:BLANK !!:11
001:0013887437:20120506:073928:BLANK !!:11
001:0006757638:20120506:073933:BLANK !!:11
001:0013892286:20120506:073938:BLANK !!:11
001:0006755185:20120506:073940:BLANK !!:11
001:0006758431:20120506:073941:BLANK !!:11
001:0013889730:20120506:073943:BLANK !!:11
001:0013875818:20120506:073945:BLANK !!:11
001:0009371413:20120506:073949:BLANK !!:11
001:0009350670:20120506:074006:BLANK !!:11
001:0010549455:20120506:074008:BLANK !!:11
001:0006759096:20120506:074012:BLANK !!:11
001:0009360755:20120506:074016:BLANK !!:11
001:0009371127:20120506:074025:BLANK !!:11
001:0015691426:20120506:074027:BLANK !!:11
001:0006753686:20120506:074030:BLANK !!:11
001:0013887499:20120506:074033:BLANK !!:11
001:0013895313:20120506:074036:BLANK !!:11
001:0009361700:20120506:074039:BLANK !!:11
001:0013878708:20120506:074041:BLANK !!:11
001:0002282143:20120506:074043:BLANK !!:11
001:0013884590:20120506:074045:BLANK !!:11
001:0013874564:20120506:074057:BLANK !!:11
001:0010549955:20120506:074102:BLANK !!:11
001:0013878454:20120506:074105:BLANK !!:11
001:0009363103:20120506:074115:BLANK !!:11
001:0002282243:20120506:074117:BLANK !!:11
001:0013896494:20120506:074121:BLANK !!:11
001:0010544149:20120506:074124:BLANK !!:11
001:0002292541:20120506:074135:BLANK !!:11
001:0009354724:20120506:074136:BLANK !!:11
001:0013894338:20120506:074139:BLANK !!:11
001:0010547320:20120506:074143:BLANK !!:11
001:0002293780:20120506:074157:BLANK !!:11
001:0013889930:20120506:074200:BLANK !!:11
001:0010540274:20120506:074203:BLANK !!:11
001:0013891964:20120506:074206:BLANK !!:11
001:0002267666:20120506:074210:BLANK !!:11
001:0009368209:20120506:074213:BLANK !!:11
001:0002285324:20120506:074222:BLANK !!:11
001:0013878129:20120506:074233:BLANK !!:11
001:0006753823:20120506:074302:BLANK !!:11
001:0010538695:20120506:074304:BLANK !!:11
001:0000683571:20120506:074307:BLANK !!:11
001:0009365681:20120506:074311:BLANK !!:11
001:0006754282:20120506:074312:BLANK !!:11
001:0013886928:20120506:074325:BLANK !!:11
001:0000407097:20120506:074329:BLANK !!:11
001:0003102332:20120506:074331:BLANK !!:11
001:0003115319:20120506:074334:BLANK !!:11
001:0013874099:20120506:074341:BLANK !!:11
001:0010547437:20120506:074342:BLANK !!:11
001:0010551115:20120506:074346:BLANK !!:11
001:0010548132:20120506:074348:BLANK !!:11
001:0010549740:20120506:074350:BLANK !!:11
001:0009357241:20120506:074352:BLANK !!:11
001:0010550306:20120506:074354:BLANK !!:11
001:0003116472:20120506:074358:BLANK !!:11
001:0013952446:20120506:074402:BLANK !!:11
001:0013874960:20120506:074405:BLANK !!:11
001:0015697397:20120506:074407:BLANK !!:11
001:0006756914:20120506:074408:BLANK !!:11
001:0002267758:20120506:074412:BLANK !!:11
001:0006750042:20120506:074414:BLANK !!:11
001:0015682819:20120506:074416:BLANK !!:11
001:0013952741:20120506:074420:BLANK !!:11
001:0015688160:20120506:074421:BLANK !!:11
001:0013878382:20120506:074423:BLANK !!:11
001:0013897049:20120506:074425:BLANK !!:11
001:0010551168:20120506:074427:BLANK !!:11
001:0002291294:20120506:074429:BLANK !!:11
001:0010547087:20120506:074432:BLANK !!:11
001:0013944638:20120506:074435:BLANK !!:11
001:0013930013:20120506:074436:BLANK !!:11
001:0013888430:20120506:074439:BLANK !!:11
001:0002273808:20120506:074442:BLANK !!:11
001:0010554314:20120506:074447:BLANK !!:11
001:0010549596:20120506:074449:BLANK !!:11
001:0010538666:20120506:074451:BLANK !!:11
001:0015697358:20120506:074455:BLANK !!:11
001:0010537779:20120506:074459:BLANK !!:11
001:0013893990:20120506:074502:BLANK !!:11
001:0013882456:20120506:074504:BLANK !!:11
001:0009360458:20120506:074506:BLANK !!:11
001:0010534521:20120506:074527:BLANK !!:11
001:0013886114:20120506:074528:BLANK !!:11
001:0010544167:20120506:074530:BLANK !!:11
001:0009364806:20120506:074547:BLANK !!:11
001:0010549766:20120506:074550:BLANK !!:11
001:0009368404:20120506:074552:BLANK !!:11
001:0013935114:20120506:074555:BLANK !!:11
001:0000365148:20120506:074558:BLANK !!:11
001:0010640656:20120506:074601:BLANK !!:11
001:0000365380:20120506:074602:BLANK !!:11
001:0009369516:20120506:074606:BLANK !!:11
001:0013940479:20120506:074608:BLANK !!:11
001:0013887862:20120506:074610:BLANK !!:11
001:0004620445:20120506:074612:BLANK !!:11
001:0006758789:20120506:074614:BLANK !!:11
001:0013878044:20120506:074616:BLANK !!:11
001:0010550294:20120506:074618:BLANK !!:11
001:0009363041:20120506:074622:BLANK !!:11
001:0002274131:20120506:074624:BLANK !!:11
001:0015694393:20120506:074627:BLANK !!:11
001:0010551210:20120506:074634:BLANK !!:11
001:0013879728:20120506:074636:BLANK !!:11
001:0010552986:20120506:074638:BLANK !!:11
001:0013933226:20120506:074640:BLANK !!:11
001:0010546752:20120506:074643:BLANK !!:11
001:0015698466:20120506:074645:BLANK !!:11
001:0015694629:20120506:074646:BLANK !!:11
001:0015685006:20120506:074648:BLANK !!:11
001:0015688510:20120506:074652:BLANK !!:11
001:0009356502:20120506:074656:BLANK !!:11
001:0009357239:20120506:074704:BLANK !!:11
001:0013877148:20120506:074713:BLANK !!:11
001:0009364324:20120506:074734:BLANK !!:11
001:0013888628:20120506:074743:BLANK !!:11
001:0009350669:20120506:074748:BLANK !!:11
001:0009354725:20120506:074750:BLANK !!:11
001:0010551155:20120506:074754:BLANK !!:11
001:0015690234:20120506:074816:BLANK !!:11
001:0010547091:20120506:074824:BLANK !!:11
001:0010550889:20120506:074834:BLANK !!:11
001:0013894712:20120506:074838:BLANK !!:11
001:0010653054:20120506:074841:BLANK !!:11
001:0015693682:20120506:074843:BLANK !!:11
001:0013885080:20120506:074845:BLANK !!:11
001:0002294646:20120506:074851:BLANK !!:11
001:0010540763:20120506:074853:BLANK !!:11
001:0009361055:20120506:074856:BLANK !!:11
001:0002268007:20120506:074857:BLANK !!:11
001:0010532210:20120506:074900:BLANK !!:11
001:0002284706:20120506:074902:BLANK !!:11
001:0009363039:20120506:074904:BLANK !!:11
001:0009368226:20120506:074906:BLANK !!:11
001:0013895851:20120506:074908:BLANK !!:11
001:0015692449:20120506:074909:BLANK !!:11
001:0015688809:20120506:074912:BLANK !!:11
001:0010550707:20120506:074914:BLANK !!:11
001:0010532545:20120506:074916:BLANK !!:11
001:0013880536:20120506:074918:BLANK !!:11
001:0006754257:20120506:074919:BLANK !!:11
001:0015696269:20120506:074927:BLANK !!:11
001:0013892138:20120506:074929:BLANK !!:11
001:0013881426:20120506:074931:BLANK !!:11
001:0013894940:20120506:074933:BLANK !!:11
001:0013885899:20120506:074935:BLANK !!:11
001:0013214375:20120506:074941:BLANK !!:11
001:0010547974:20120506:074943:BLANK !!:11
001:0013929932:20120506:074955:BLANK !!:11
001:0006751519:20120506:074958:BLANK !!:11
001:0004631014:20120506:075000:BLANK !!:11
001:0015674575:20120506:075002:BLANK !!:11
001:0003101201:20120506:075004:BLANK !!:11
001:0013894407:20120506:075009:BLANK !!:11
001:0006760214:20120506:075011:BLANK !!:11
001:0002290826:20120506:075015:BLANK !!:11
001:0002290777:20120506:075017:BLANK !!:11
001:0009348591:20120506:075025:BLANK !!:11
001:0013877112:20120506:075028:BLANK !!:11
001:0013875148:20120506:075030:BLANK !!:11
001:0006759131:20120506:075032:BLANK !!:11
001:0015697731:20120506:075035:BLANK !!:11
001:0010547997:20120506:075041:BLANK !!:11
001:0009360756:20120506:075044:BLANK !!:11
001:0009347993:20120506:075046:BLANK !!:11
001:0015674317:20120506:075048:BLANK !!:11
001:0009360116:20120506:075050:BLANK !!:11
001:0004631652:20120506:075054:BLANK !!:11
001:0009357257:20120506:075105:BLANK !!:11
001:0013891973:20120506:075108:BLANK !!:11
001:0013879402:20120506:075111:BLANK !!:11
001:0009366722:20120506:075113:BLANK !!:11
001:0002289438:20120506:075116:BLANK !!:11
001:0013888858:20120506:075136:BLANK !!:11
001:0015685005:20120506:075146:BLANK !!:11
001:0010549407:20120506:075148:BLANK !!:11
001:0009369521:20120506:075150:BLANK !!:11
001:0009364108:20120506:075219:BLANK !!:11
001:0002274545:20120506:075221:BLANK !!:11
001:0010541183:20120506:075223:BLANK !!:11
001:0015689920:20120506:075226:BLANK !!:11
001:0002293868:20120506:075229:BLANK !!:11
001:0006757851:20120506:075234:BLANK !!:11
001:0009364321:20120506:075248:BLANK !!:11
001:0002291755:20120506:075250:BLANK !!:11
001:0010531397:20120506:075252:BLANK !!:11
001:0010550890:20120506:075256:BLANK !!:11
001:0010539435:20120506:075300:BLANK !!:11
001:0013897138:20120506:075303:BLANK !!:11
001:0010628117:20120506:075310:BLANK !!:11
001:0002267789:20120506:075312:BLANK !!:11
001:0013901179:20120506:075326:BLANK !!:11
001:0013899674:20120506:075345:BLANK !!:11
001:0010549402:20120506:075349:BLANK !!:11
001:0013883591:20120506:075352:BLANK !!:11
001:0015696870:20120506:075355:BLANK !!:11
001:0015698029:20120506:075416:BLANK !!:11
001:0009352948:20120506:075433:BLANK !!:11
001:0013897974:20120506:075521:BLANK !!:11
001:0013881131:20120506:075523:BLANK !!:11
001:0010549428:20120506:075537:BLANK !!:11
001:0010549767:20120506:075542:BLANK !!:11
001:0010551185:20120506:075546:BLANK !!:11
001:0013877389:20120506:075548:BLANK !!:11
001:0010549371:20120506:075550:BLANK !!:11
001:0015685385:20120506:075621:BLANK !!:11
001:0002271494:20120506:075624:BLANK !!:11
001:0015782013:20120506:075629:BLANK !!:11
001:0013890852:20120506:075633:BLANK !!:11
001:0010544368:20120506:075637:BLANK !!:11
001:0010550709:20120506:075640:BLANK !!:11
001:0010537681:20120506:075658:BLANK !!:11
001:0009364772:20120506:075702:BLANK !!:11
001:0002284416:20120506:075738:BLANK !!:11
001:0015689962:20120506:075746:BLANK !!:11
001:0002284416:20120506:075751:BLANK !!:11
001:0002276947:20120506:075800:BLANK !!:11
001:0003150394:20120506:075836:BLANK !!:11
001:0010542101:20120506:080255:BLANK !!:11
001:0006760141:20120506:080259:BLANK !!:11
001:0002290144:20120506:080335:BLANK !!:11
001:0015684972:20120506:080415:BLANK !!:11
001:0010548264:20120506:080548:BLANK !!:11
001:0010549697:20120506:080551:BLANK !!:11
001:0010550340:20120506:080555:BLANK !!:11
001:0010549386:20120506:080648:BLANK !!:11
001:0003150394:20120506:081048:BLANK !!:11
001:0010553521:20120506:081408:BLANK !!:11
001:0009369519:20120506:081637:BLANK !!:11
001:0010634177:20120506:082010:BLANK !!:11
001:0006750419:20120506:082012:BLANK !!:11
001:0006750527:20120506:082438:BLANK !!:11
001:0000365761:20120506:083932:BLANK !!:11
001:0006760116:20120506:094442:BLANK !!:11
