001:0010549396:20120507:064243:BLANK !!:11
001:0010549396:20120507:064245:BLANK !!:11
001:0013896080:20120507:064904:BLANK !!:11
001:0013888913:20120507:064933:BLANK !!:11
001:0009366281:20120507:064945:BLANK !!:11
001:0010550898:20120507:065351:BLANK !!:11
001:0009363036:20120507:070434:BLANK !!:11
001:0013896015:20120507:070452:BLANK !!:11
001:0003116318:20120507:070533:BLANK !!:11
001:0002287554:20120507:070540:BLANK !!:11
001:0015693730:20120507:072908:BLANK !!:11
001:0009364805:20120507:073027:BLANK !!:11
001:0006757082:20120507:073029:BLANK !!:11
001:0013887499:20120507:073036:BLANK !!:11
001:0013900540:20120507:073040:BLANK !!:11
001:0013885899:20120507:073042:BLANK !!:11
001:0015689937:20120507:073044:BLANK !!:11
001:0010541979:20120507:073049:BLANK !!:11
001:0013887126:20120507:073051:BLANK !!:11
001:0013883538:20120507:073053:BLANK !!:11
001:0013894885:20120507:073054:BLANK !!:11
001:0003117697:20120507:073056:BLANK !!:11
001:0013883458:20120507:073102:BLANK !!:11
001:0006758261:20120507:073106:BLANK !!:11
001:0013878009:20120507:073108:BLANK !!:11
001:0013900680:20120507:073117:BLANK !!:11
001:0010539061:20120507:073134:BLANK !!:11
001:0010544167:20120507:073153:BLANK !!:11
001:0009361701:20120507:073210:BLANK !!:11
001:0013887688:20120507:073223:BLANK !!:11
001:0004619983:20120507:073226:BLANK !!:11
001:0013878180:20120507:073228:BLANK !!:11
001:0009371128:20120507:073237:BLANK !!:11
001:0010530514:20120507:073257:BLANK !!:11
001:0003103684:20120507:073300:BLANK !!:11
001:0010549824:20120507:073302:BLANK !!:11
001:0013887985:20120507:073312:BLANK !!:11
001:0013930013:20120507:073339:BLANK !!:11
001:0009347994:20120507:073404:BLANK !!:11
001:0002274545:20120507:073428:BLANK !!:11
001:0013879037:20120507:073436:BLANK !!:11
001:0006758431:20120507:073449:BLANK !!:11
001:0002270614:20120507:073510:BLANK !!:11
001:0006757638:20120507:073516:BLANK !!:11
001:0013952446:20120507:073518:BLANK !!:11
001:0002282162:20120507:073533:BLANK !!:11
001:0013889730:20120507:073547:BLANK !!:11
001:0013901179:20120507:073602:BLANK !!:11
001:0013885002:20120507:073609:BLANK !!:11
001:0010540274:20120507:073624:BLANK !!:11
001:0010549455:20120507:073701:BLANK !!:11
001:0003102332:20120507:073706:BLANK !!:11
001:0003115319:20120507:073708:BLANK !!:11
001:0006754282:20120507:073718:BLANK !!:11
001:0010548307:20120507:073727:BLANK !!:11
001:0010540251:20120507:073731:BLANK !!:11
001:0010553833:20120507:073755:BLANK !!:11
001:0009357257:20120507:073800:BLANK !!:11
001:0013891964:20120507:073803:BLANK !!:11
001:0013891973:20120507:073805:BLANK !!:11
001:0010530367:20120507:073809:BLANK !!:11
001:0004624478:20120507:073831:BLANK !!:11
001:0010549504:20120507:073842:BLANK !!:11
001:0009350673:20120507:073844:BLANK !!:11
001:0009360461:20120507:073847:BLANK !!:11
001:0010549740:20120507:073848:BLANK !!:11
001:0009371127:20120507:073851:BLANK !!:11
001:0002290081:20120507:073853:BLANK !!:11
001:0002273808:20120507:073859:BLANK !!:11
001:0010549884:20120507:073903:BLANK !!:11
001:0010543526:20120507:073910:BLANK !!:11
001:0009371413:20120507:073914:BLANK !!:11
001:0013894712:20120507:073917:BLANK !!:11
001:0006753823:20120507:073918:BLANK !!:11
001:0009371413:20120507:073921:BLANK !!:11
001:0013887437:20120507:073923:BLANK !!:11
001:0003110988:20120507:073925:BLANK !!:11
001:0013900030:20120507:073927:BLANK !!:11
001:0009356502:20120507:073930:BLANK !!:11
001:0009361053:20120507:073932:BLANK !!:11
001:0013897942:20120507:073935:BLANK !!:11
001:0002292541:20120507:073955:BLANK !!:11
001:0009354724:20120507:073957:BLANK !!:11
001:0010547320:20120507:074000:BLANK !!:11
001:0002285324:20120507:074004:BLANK !!:11
001:0010531624:20120507:074006:BLANK !!:11
001:0002270146:20120507:074020:BLANK !!:11
001:0006759096:20120507:074024:BLANK !!:11
001:0006757851:20120507:074031:BLANK !!:11
001:0013886114:20120507:074034:BLANK !!:11
001:0010536569:20120507:074036:BLANK !!:11
001:0013944638:20120507:074038:BLANK !!:11
001:0013896430:20120507:074040:BLANK !!:11
001:0002268037:20120507:074043:BLANK !!:11
001:0013897124:20120507:074044:BLANK !!:11
001:0013894338:20120507:074108:BLANK !!:11
001:0010549748:20120507:074114:BLANK !!:11
001:0013895851:20120507:074117:BLANK !!:11
001:0013896494:20120507:074141:BLANK !!:11
001:0013900745:20120507:074144:BLANK !!:11
001:0013884285:20120507:074147:BLANK !!:11
001:0010532545:20120507:074149:BLANK !!:11
001:0010549955:20120507:074151:BLANK !!:11
001:0013878454:20120507:074154:BLANK !!:11
001:0009364773:20120507:074208:BLANK !!:11
001:0004631020:20120507:074214:BLANK !!:11
001:0004620445:20120507:074219:BLANK !!:11
001:0010533341:20120507:074221:BLANK !!:11
001:0009361700:20120507:074225:BLANK !!:11
001:0010549644:20120507:074227:BLANK !!:11
001:0009360755:20120507:074231:BLANK !!:11
001:0013874564:20120507:074234:BLANK !!:11
001:0013892138:20120507:074236:BLANK !!:11
001:0015691390:20120507:074240:BLANK !!:11
001:0010551155:20120507:074243:BLANK !!:11
001:0002290826:20120507:074244:BLANK !!:11
001:0002292481:20120507:074247:BLANK !!:11
001:0009357241:20120507:074249:BLANK !!:11
001:0010547087:20120507:074251:BLANK !!:11
001:0002291294:20120507:074253:BLANK !!:11
001:0013888865:20120507:074256:BLANK !!:11
001:0006755461:20120507:074309:BLANK !!:11
001:0015696806:20120507:074313:BLANK !!:11
001:0013878044:20120507:074318:BLANK !!:11
001:0002291755:20120507:074320:BLANK !!:11
001:0010554314:20120507:074322:BLANK !!:11
001:0000683571:20120507:074326:BLANK !!:11
001:0009347993:20120507:074329:BLANK !!:11
001:0010547997:20120507:074345:BLANK !!:11
001:0015685006:20120507:074351:BLANK !!:11
001:0002274131:20120507:074356:BLANK !!:11
001:0015693718:20120507:074417:BLANK !!:11
001:0006760214:20120507:074421:BLANK !!:11
001:0013882456:20120507:074424:BLANK !!:11
001:0002293780:20120507:074429:BLANK !!:11
001:0010552986:20120507:074432:BLANK !!:11
001:0013933226:20120507:074434:BLANK !!:11
001:0000365148:20120507:074436:BLANK !!:11
001:0010640656:20120507:074439:BLANK !!:11
001:0006755519:20120507:074441:BLANK !!:11
001:0013874960:20120507:074443:BLANK !!:11
001:0010551115:20120507:074446:BLANK !!:11
001:0006758789:20120507:074450:BLANK !!:11
001:0009368404:20120507:074454:BLANK !!:11
001:0013935114:20120507:074456:BLANK !!:11
001:0013952741:20120507:074459:BLANK !!:11
001:0010551210:20120507:074511:BLANK !!:11
001:0013874099:20120507:074514:BLANK !!:11
001:0010547437:20120507:074515:BLANK !!:11
001:0010537779:20120507:074527:BLANK !!:11
001:0010549596:20120507:074530:BLANK !!:11
001:0003116472:20120507:074533:BLANK !!:11
001:0010538666:20120507:074535:BLANK !!:11
001:0010550306:20120507:074537:BLANK !!:11
001:0009368209:20120507:074539:BLANK !!:11
001:0015688510:20120507:074541:BLANK !!:11
001:0010549787:20120507:074543:BLANK !!:11
001:0009364775:20120507:074546:BLANK !!:11
001:0013878382:20120507:074548:BLANK !!:11
001:0013897049:20120507:074550:BLANK !!:11
001:0006756914:20120507:074552:BLANK !!:11
001:0015688160:20120507:074554:BLANK !!:11
001:0015682819:20120507:074556:BLANK !!:11
001:0013898707:20120507:074558:BLANK !!:11
001:0013884770:20120507:074559:BLANK !!:11
001:0010548132:20120507:074601:BLANK !!:11
001:0013881131:20120507:074605:BLANK !!:11
001:0010542279:20120507:074607:BLANK !!:11
001:0015698466:20120507:074608:BLANK !!:11
001:0010653054:20120507:074611:BLANK !!:11
001:0009365681:20120507:074614:BLANK !!:11
001:0002289438:20120507:074620:BLANK !!:11
001:0006755937:20120507:074630:BLANK !!:11
001:0009369516:20120507:074633:BLANK !!:11
001:0013940479:20120507:074647:BLANK !!:11
001:0009363041:20120507:074649:BLANK !!:11
001:0013887862:20120507:074650:BLANK !!:11
001:0010550678:20120507:074654:BLANK !!:11
001:0010534521:20120507:074657:BLANK !!:11
001:0013890035:20120507:074708:BLANK !!:11
001:0009360458:20120507:074717:BLANK !!:11
001:0009364806:20120507:074718:BLANK !!:11
001:0013879728:20120507:074720:BLANK !!:11
001:0010551168:20120507:074723:BLANK !!:11
001:0015694393:20120507:074737:BLANK !!:11
001:0010549766:20120507:074754:BLANK !!:11
001:0010550294:20120507:074756:BLANK !!:11
001:0009364108:20120507:074800:BLANK !!:11
001:0002284706:20120507:074801:BLANK !!:11
001:0010531397:20120507:074803:BLANK !!:11
001:0015692449:20120507:074806:BLANK !!:11
001:0013893682:20120507:074809:BLANK !!:11
001:0015697397:20120507:074811:BLANK !!:11
001:0002282143:20120507:074813:BLANK !!:11
001:0013884590:20120507:074815:BLANK !!:11
001:0002294278:20120507:074817:BLANK !!:11
001:0009369521:20120507:074818:BLANK !!:11
001:0009363039:20120507:074821:BLANK !!:11
001:0010539435:20120507:074823:BLANK !!:11
001:0013875148:20120507:074827:BLANK !!:11
001:0013214375:20120507:074830:BLANK !!:11
001:0010547974:20120507:074834:BLANK !!:11
001:0010549407:20120507:074836:BLANK !!:11
001:0015697731:20120507:074838:BLANK !!:11
001:0002277756:20120507:074840:BLANK !!:11
001:0013875297:20120507:074842:BLANK !!:11
001:0013893990:20120507:074844:BLANK !!:11
001:0002270962:20120507:074900:BLANK !!:11
001:0003150394:20120507:074917:BLANK !!:11
001:0015690234:20120507:074921:BLANK !!:11
001:0000365380:20120507:074923:BLANK !!:11
001:0010549450:20120507:074928:BLANK !!:11
001:0003101201:20120507:074932:BLANK !!:11
001:0015688809:20120507:074936:BLANK !!:11
001:0010628117:20120507:074937:BLANK !!:11
001:0009361055:20120507:074939:BLANK !!:11
001:0006759131:20120507:074943:BLANK !!:11
001:0013883591:20120507:074945:BLANK !!:11
001:0010549402:20120507:074947:BLANK !!:11
001:0006751519:20120507:074950:BLANK !!:11
001:0010532210:20120507:074951:BLANK !!:11
001:0010546752:20120507:074953:BLANK !!:11
001:0002267666:20120507:075017:BLANK !!:11
001:0013890852:20120507:075020:BLANK !!:11
001:0015674443:20120507:075023:BLANK !!:11
001:0013888628:20120507:075024:BLANK !!:11
001:0013889930:20120507:075026:BLANK !!:11
001:0002294646:20120507:075029:BLANK !!:11
001:0010544149:20120507:075033:BLANK !!:11
001:0002282243:20120507:075034:BLANK !!:11
001:0009369518:20120507:075036:BLANK !!:11
001:0010551185:20120507:075039:BLANK !!:11
001:0013877389:20120507:075041:BLANK !!:11
001:0009360756:20120507:075043:BLANK !!:11
001:0002290777:20120507:075046:BLANK !!:11
001:0009357239:20120507:075048:BLANK !!:11
001:0013877148:20120507:075050:BLANK !!:11
001:0010550889:20120507:075054:BLANK !!:11
001:0004631652:20120507:075059:BLANK !!:11
001:0015693682:20120507:075100:BLANK !!:11
001:0013881426:20120507:075103:BLANK !!:11
001:0013880536:20120507:075105:BLANK !!:11
001:0015691426:20120507:075110:BLANK !!:11
001:0013894940:20120507:075112:BLANK !!:11
001:0015696870:20120507:075115:BLANK !!:11
001:0010651256:20120507:075125:BLANK !!:11
001:0013875818:20120507:075202:BLANK !!:11
001:0006753686:20120507:075208:BLANK !!:11
001:0009350669:20120507:075223:BLANK !!:11
001:0013885080:20120507:075226:BLANK !!:11
001:0006754257:20120507:075247:BLANK !!:11
001:0013878708:20120507:075251:BLANK !!:11
001:0013895313:20120507:075255:BLANK !!:11
001:0010541183:20120507:075258:BLANK !!:11
001:0010544368:20120507:075300:BLANK !!:11
001:0002267758:20120507:075303:BLANK !!:11
001:0015674317:20120507:075307:BLANK !!:11
001:0002293868:20120507:075312:BLANK !!:11
001:0000407097:20120507:075328:BLANK !!:11
001:0015698029:20120507:075330:BLANK !!:11
001:0009364772:20120507:075333:BLANK !!:11
001:0002276947:20120507:075338:BLANK !!:11
001:0010549454:20120507:075340:BLANK !!:11
001:0010549433:20120507:075351:BLANK !!:11
001:0010549371:20120507:075354:BLANK !!:11
001:0006750042:20120507:075357:BLANK !!:11
001:0013879402:20120507:075400:BLANK !!:11
001:0015674575:20120507:075402:BLANK !!:11
001:0013897138:20120507:075405:BLANK !!:11
001:0013880789:20120507:075408:BLANK !!:11
001:0013886928:20120507:075417:BLANK !!:11
001:0015689920:20120507:075420:BLANK !!:11
001:0000365093:20120507:075424:BLANK !!:11
001:0013877112:20120507:075437:BLANK !!:11
001:0006755449:20120507:075441:BLANK !!:11
001:0003117930:20120507:075443:BLANK !!:11
001:0013897974:20120507:075445:BLANK !!:11
001:0013894407:20120507:075449:BLANK !!:11
001:0013899674:20120507:075455:BLANK !!:11
001:0010549428:20120507:075500:BLANK !!:11
001:0010550890:20120507:075510:BLANK !!:11
001:0010537681:20120507:075513:BLANK !!:11
001:0015685005:20120507:075525:BLANK !!:11
001:0010539352:20120507:075530:BLANK !!:11
001:0004631014:20120507:075544:BLANK !!:11
001:0010550709:20120507:075547:BLANK !!:11
001:0002273537:20120507:075551:BLANK !!:11
001:0015782013:20120507:075610:BLANK !!:11
001:0015685385:20120507:075623:BLANK !!:11
001:0009352948:20120507:075631:BLANK !!:11
001:0002271494:20120507:075638:BLANK !!:11
001:0002295364:20120507:075641:BLANK !!:11
001:0010549767:20120507:075649:BLANK !!:11
001:0013888858:20120507:075701:BLANK !!:11
001:0015696269:20120507:075710:BLANK !!:11
001:0002284416:20120507:075736:BLANK !!:11
001:0015689962:20120507:075805:BLANK !!:11
001:0013888430:20120507:075831:BLANK !!:11
001:0002288205:20120507:075905:BLANK !!:11
001:0003113526:20120507:075928:BLANK !!:11
001:0010550707:20120507:075929:BLANK !!:11
001:0010547846:20120507:080003:BLANK !!:11
001:0009368226:20120507:080005:BLANK !!:11
001:0009366722:20120507:080707:BLANK !!:11
001:0010553521:20120507:080834:BLANK !!:11
001:0002267789:20120507:081252:BLANK !!:11
001:0013889932:20120507:081337:BLANK !!:11
001:0013900664:20120507:081431:BLANK !!:11
001:0000365761:20120507:081644:BLANK !!:11
001:0013875043:20120507:083621:BLANK !!:11
001:0010533195:20120507:083642:BLANK !!:11
001:0013896958:20120507:084833:BLANK !!:11
001:0013901637:20120507:084841:BLANK !!:11
001:0013886572:20120507:084845:BLANK !!:11
001:0013886076:20120507:084848:BLANK !!:11
001:0013892922:20120507:084850:BLANK !!:11
001:0013896823:20120507:084920:BLANK !!:11
001:0013896432:20120507:085206:BLANK !!:11
001:0010644113:20120507:085245:BLANK !!:11
001:0013882945:20120507:085640:BLANK !!:11
001:0013896752:20120507:085645:BLANK !!:11
001:0006756113:20120507:085651:BLANK !!:11
001:0013881218:20120507:085655:BLANK !!:11
001:0013889788:20120507:085658:BLANK !!:11
001:0013880904:20120507:085701:BLANK !!:11
001:0013894250:20120507:085703:BLANK !!:11
001:0013888273:20120507:085705:BLANK !!:11
001:0013882358:20120507:085707:BLANK !!:11
001:0013900100:20120507:085737:BLANK !!:11
001:0006760116:20120507:090029:BLANK !!:11
001:0010550910:20120507:090030:BLANK !!:11
001:0013889730:20120507:093556:BLANK !!:11
001:0006756113:20120507:100232:BLANK !!:11
001:0010547997:20120507:102128:BLANK !!:11
001:0013889730:20120507:104530:BLANK !!:11
001:0013891973:20120507:104751:BLANK !!:11
001:0010644113:20120507:105803:BLANK !!:11
001:0006760116:20120507:111529:BLANK !!:11
001:0010551140:20120507:115258:BLANK !!:11
001:0010550910:20120507:115917:BLANK !!:11
001:0003101201:20120507:123032:BLANK !!:11
001:0015696806:20120507:123034:BLANK !!:11
001:0013900540:20120507:123035:BLANK !!:11
001:0013878009:20120507:123036:BLANK !!:11
001:0010549454:20120507:123038:BLANK !!:11
001:0013887985:20120507:123040:BLANK !!:11
001:0013879037:20120507:123041:BLANK !!:11
001:0009371127:20120507:123043:BLANK !!:11
001:0006755185:20120507:123044:BLANK !!:11
001:0013897138:20120507:123046:BLANK !!:11
001:0010537681:20120507:123047:BLANK !!:11
001:0010547974:20120507:123049:BLANK !!:11
001:0010549596:20120507:123050:BLANK !!:11
001:0013890035:20120507:123051:BLANK !!:11
001:0006754282:20120507:123053:BLANK !!:11
001:0006756914:20120507:123054:BLANK !!:11
001:0013877112:20120507:123057:BLANK !!:11
001:0013897942:20120507:123100:BLANK !!:11
001:0010640656:20120507:123107:BLANK !!:11
001:0009354724:20120507:123108:BLANK !!:11
001:0015688809:20120507:123111:BLANK !!:11
001:0013214375:20120507:123114:BLANK !!:11
001:0010541979:20120507:123116:BLANK !!:11
001:0013883538:20120507:123117:BLANK !!:11
001:0006755519:20120507:123119:BLANK !!:11
001:0010549396:20120507:123121:BLANK !!:11
001:0010551168:20120507:123123:BLANK !!:11
001:0006759131:20120507:123124:BLANK !!:11
001:0013884590:20120507:123126:BLANK !!:11
001:0013899674:20120507:123127:BLANK !!:11
001:0013952741:20120507:123129:BLANK !!:11
001:0013894940:20120507:123130:BLANK !!:11
001:0006757851:20120507:123132:BLANK !!:11
001:0009364108:20120507:123133:BLANK !!:11
001:0004631014:20120507:123135:BLANK !!:11
001:0010544149:20120507:123136:BLANK !!:11
001:0010532545:20120507:123138:BLANK !!:11
001:0013887126:20120507:123139:BLANK !!:11
001:0006751519:20120507:123141:BLANK !!:11
001:0010549644:20120507:123142:BLANK !!:11
001:0013884285:20120507:123144:BLANK !!:11
001:0010530514:20120507:123147:BLANK !!:11
001:0013879402:20120507:123148:BLANK !!:11
001:0004631020:20120507:123150:BLANK !!:11
001:0003117697:20120507:123151:BLANK !!:11
001:0015691390:20120507:123153:BLANK !!:11
001:0013880789:20120507:123155:BLANK !!:11
001:0002270146:20120507:123157:BLANK !!:11
001:0015689962:20120507:123159:BLANK !!:11
001:0002274131:20120507:123200:BLANK !!:11
001:0015674317:20120507:123202:BLANK !!:11
001:0015697731:20120507:123203:BLANK !!:11
001:0009369521:20120507:123205:BLANK !!:11
001:0002273537:20120507:123208:BLANK !!:11
001:0010549428:20120507:123210:BLANK !!:11
001:0003117930:20120507:123211:BLANK !!:11
001:0002277756:20120507:123213:BLANK !!:11
001:0002290081:20120507:123215:BLANK !!:11
001:0010544368:20120507:123217:BLANK !!:11
001:0015698466:20120507:123219:BLANK !!:11
001:0009369518:20120507:123220:BLANK !!:11
001:0009360461:20120507:123224:BLANK !!:11
001:0010532210:20120507:123225:BLANK !!:11
001:0002294278:20120507:123226:BLANK !!:11
001:0002294646:20120507:123228:BLANK !!:11
001:0009363039:20120507:123229:BLANK !!:11
001:0010549824:20120507:123232:BLANK !!:11
001:0013894712:20120507:123233:BLANK !!:11
001:0013882456:20120507:123235:BLANK !!:11
001:0002282243:20120507:123236:BLANK !!:11
001:0010550709:20120507:123238:BLANK !!:11
001:0010549787:20120507:123239:BLANK !!:11
001:0009352948:20120507:123241:BLANK !!:11
001:0010541183:20120507:123242:BLANK !!:11
001:0010543526:20120507:123244:BLANK !!:11
001:0010549455:20120507:123245:BLANK !!:11
001:0015689920:20120507:123247:BLANK !!:11
001:0013896430:20120507:123248:BLANK !!:11
001:0015782013:20120507:123252:BLANK !!:11
001:0002284706:20120507:123253:BLANK !!:11
001:0013897124:20120507:123255:BLANK !!:11
001:0006760214:20120507:123257:BLANK !!:11
001:0002268037:20120507:123259:BLANK !!:11
001:0009350673:20120507:123301:BLANK !!:11
001:0013895851:20120507:123303:BLANK !!:11
001:0009364324:20120507:123304:BLANK !!:11
001:0009357241:20120507:123306:BLANK !!:11
001:0002289438:20120507:123307:BLANK !!:11
001:0010537779:20120507:123309:BLANK !!:11
001:0010533341:20120507:123311:BLANK !!:11
001:0010552986:20120507:123313:BLANK !!:11
001:0013886928:20120507:123314:BLANK !!:11
001:0000365148:20120507:123316:BLANK !!:11
001:0013933226:20120507:123317:BLANK !!:11
001:0009364806:20120507:123319:BLANK !!:11
001:0015697358:20120507:123320:BLANK !!:11
001:0009360458:20120507:123322:BLANK !!:11
001:0009364773:20120507:123324:BLANK !!:11
001:0006755449:20120507:123325:BLANK !!:11
001:0013883458:20120507:123327:BLANK !!:11
001:0010539352:20120507:123328:BLANK !!:11
001:0013896494:20120507:123330:BLANK !!:11
001:0010553833:20120507:123332:BLANK !!:11
001:0009369516:20120507:123333:BLANK !!:11
001:0002290777:20120507:123335:BLANK !!:11
001:0004631652:20120507:123336:BLANK !!:11
001:0015696870:20120507:123338:BLANK !!:11
001:0010549504:20120507:123339:BLANK !!:11
001:0009365681:20120507:123341:BLANK !!:11
001:0002268007:20120507:123342:BLANK !!:11
001:0009360756:20120507:123344:BLANK !!:11
001:0013875148:20120507:123345:BLANK !!:11
001:0015694629:20120507:123347:BLANK !!:11
001:0015685006:20120507:123348:BLANK !!:11
001:0002293780:20120507:123350:BLANK !!:11
001:0009361053:20120507:123351:BLANK !!:11
001:0002271494:20120507:123353:BLANK !!:11
001:0010549407:20120507:123355:BLANK !!:11
001:0002276947:20120507:123357:BLANK !!:11
001:0010540274:20120507:123358:BLANK !!:11
001:0013888628:20120507:123400:BLANK !!:11
001:0009361055:20120507:123402:BLANK !!:11
001:0015689937:20120507:123403:BLANK !!:11
001:0010550890:20120507:123405:BLANK !!:11
001:0006755937:20120507:123407:BLANK !!:11
001:0002270962:20120507:123409:BLANK !!:11
001:0013887437:20120507:123410:BLANK !!:11
001:0003103684:20120507:123411:BLANK !!:11
001:0006750042:20120507:123413:BLANK !!:11
001:0013878454:20120507:123415:BLANK !!:11
001:0010549955:20120507:123417:BLANK !!:11
001:0009350670:20120507:123421:BLANK !!:11
001:0000365093:20120507:123422:BLANK !!:11
001:0010551115:20120507:123426:BLANK !!:11
001:0015674443:20120507:123428:BLANK !!:11
001:0010549748:20120507:123448:BLANK !!:11
001:0009350669:20120507:123454:BLANK !!:11
001:0010550707:20120507:123459:BLANK !!:11
001:0010551155:20120507:123525:BLANK !!:11
001:0003150394:20120507:123602:BLANK !!:11
001:0003116472:20120507:123628:BLANK !!:11
001:0009357257:20120507:123646:BLANK !!:11
001:0010628117:20120507:123812:BLANK !!:11
001:0013901179:20120507:123818:BLANK !!:11
001:0009366722:20120507:123902:BLANK !!:11
001:0013879728:20120507:123950:BLANK !!:11
001:0009357257:20120507:124150:BLANK !!:11
001:0015698029:20120507:124156:BLANK !!:11
001:0013893682:20120507:124617:BLANK !!:11
001:0013898707:20120507:124634:BLANK !!:11
001:0013874564:20120507:125534:BLANK !!:11
001:0010533341:20120507:125543:BLANK !!:11
001:0009361053:20120507:125603:BLANK !!:11
001:0002293780:20120507:125606:BLANK !!:11
001:0006758261:20120507:125610:BLANK !!:11
001:0009352948:20120507:125639:BLANK !!:11
001:0013887437:20120507:125701:BLANK !!:11
001:0010543526:20120507:125726:BLANK !!:11
001:0010551155:20120507:125751:BLANK !!:11
001:0013879728:20120507:125844:BLANK !!:11
001:0013900664:20120507:130301:BLANK !!:11
001:0013900540:20120507:130332:BLANK !!:11
001:0010551115:20120507:130356:BLANK !!:11
001:0013899674:20120507:130425:BLANK !!:11
001:0013952741:20120507:130517:BLANK !!:11
001:0013890035:20120507:130624:BLANK !!:11
001:0010530514:20120507:130626:BLANK !!:11
001:0013877112:20120507:130654:BLANK !!:11
001:0010553833:20120507:130730:BLANK !!:11
001:0013887985:20120507:130815:BLANK !!:11
001:0010549644:20120507:130819:BLANK !!:11
001:0009364108:20120507:130834:BLANK !!:11
001:0002273537:20120507:130848:BLANK !!:11
001:0002294278:20120507:130905:BLANK !!:11
001:0009369516:20120507:131002:BLANK !!:11
001:0010539352:20120507:131005:BLANK !!:11
001:0010549504:20120507:131008:BLANK !!:11
001:0002291755:20120507:131045:BLANK !!:11
001:0015688510:20120507:131047:BLANK !!:11
001:0015674575:20120507:131048:BLANK !!:11
001:0010547974:20120507:131054:BLANK !!:11
001:0004619983:20120507:131056:BLANK !!:11
001:0010550707:20120507:131237:BLANK !!:11
001:0009360461:20120507:131332:BLANK !!:11
001:0009356502:20120507:131334:BLANK !!:11
001:0009354724:20120507:131358:BLANK !!:11
001:0013891973:20120507:131410:BLANK !!:11
001:0003117697:20120507:131455:BLANK !!:11
001:0013884590:20120507:131519:BLANK !!:11
001:0002270962:20120507:131613:BLANK !!:11
001:0013878454:20120507:131625:BLANK !!:11
001:0010549955:20120507:131628:BLANK !!:11
001:0002290081:20120507:131629:BLANK !!:11
001:0006759131:20120507:131640:BLANK !!:11
001:0013879037:20120507:131711:BLANK !!:11
001:0010549824:20120507:131713:BLANK !!:11
001:0009364324:20120507:131741:BLANK !!:11
001:0002270146:20120507:131756:BLANK !!:11
001:0004631652:20120507:131758:BLANK !!:11
001:0002274131:20120507:131801:BLANK !!:11
001:0013879402:20120507:131903:BLANK !!:11
001:0006755185:20120507:131917:BLANK !!:11
001:0000365380:20120507:131939:BLANK !!:11
001:0013893682:20120507:131949:BLANK !!:11
001:0004631020:20120507:131957:BLANK !!:11
001:0013875297:20120507:131959:BLANK !!:11
001:0009371127:20120507:132002:BLANK !!:11
001:0010552986:20120507:132008:BLANK !!:11
001:0013933226:20120507:132011:BLANK !!:11
001:0006760214:20120507:132013:BLANK !!:11
001:0010640656:20120507:132017:BLANK !!:11
001:0000365148:20120507:132019:BLANK !!:11
001:0002268037:20120507:132021:BLANK !!:11
001:0002277756:20120507:132023:BLANK !!:11
001:0013214375:20120507:132026:BLANK !!:11
001:0013897138:20120507:132030:BLANK !!:11
001:0010544368:20120507:132031:BLANK !!:11
001:0004631014:20120507:132039:BLANK !!:11
001:0006757851:20120507:132041:BLANK !!:11
001:0009360755:20120507:132043:BLANK !!:11
001:0010546752:20120507:132046:BLANK !!:11
001:0015674443:20120507:132050:BLANK !!:11
001:0006755937:20120507:132053:BLANK !!:11
001:0013880789:20120507:132054:BLANK !!:11
001:0015697358:20120507:132056:BLANK !!:11
001:0009364773:20120507:132059:BLANK !!:11
001:0010541979:20120507:132103:BLANK !!:11
001:0013883538:20120507:132106:BLANK !!:11
001:0013887126:20120507:132108:BLANK !!:11
001:0013878009:20120507:132117:BLANK !!:11
001:0010549748:20120507:132130:BLANK !!:11
001:0003117930:20120507:132149:BLANK !!:11
001:0009369521:20120507:132150:BLANK !!:11
001:0002284706:20120507:132155:BLANK !!:11
001:0009350673:20120507:132158:BLANK !!:11
001:0010549787:20120507:132201:BLANK !!:11
001:0009357241:20120507:132204:BLANK !!:11
001:0015685006:20120507:132224:BLANK !!:11
001:0013883458:20120507:132230:BLANK !!:11
001:0013892138:20120507:132237:BLANK !!:11
001:0009350670:20120507:132243:BLANK !!:11
001:0006759096:20120507:132248:BLANK !!:11
001:0009364806:20120507:132251:BLANK !!:11
001:0010537779:20120507:132253:BLANK !!:11
001:0009360458:20120507:132255:BLANK !!:11
001:0013882456:20120507:132257:BLANK !!:11
001:0015688809:20120507:132305:BLANK !!:11
001:0010549454:20120507:132310:BLANK !!:11
001:0010628117:20120507:132322:BLANK !!:11
001:0010549407:20120507:132325:BLANK !!:11
001:0013901179:20120507:132329:BLANK !!:11
001:0015694629:20120507:132344:BLANK !!:11
001:0015689920:20120507:132350:BLANK !!:11
001:0006754282:20120507:132354:BLANK !!:11
001:0010541183:20120507:132355:BLANK !!:11
001:0015698466:20120507:132358:BLANK !!:11
001:0010542279:20120507:132359:BLANK !!:11
001:0009369518:20120507:132413:BLANK !!:11
001:0010532210:20120507:132415:BLANK !!:11
001:0013888628:20120507:132420:BLANK !!:11
001:0009350669:20120507:132421:BLANK !!:11
001:0010550890:20120507:132423:BLANK !!:11
001:0009361055:20120507:132426:BLANK !!:11
001:0015674317:20120507:132429:BLANK !!:11
001:0013897942:20120507:132433:BLANK !!:11
001:0013894940:20120507:132438:BLANK !!:11
001:0015689937:20120507:132440:BLANK !!:11
001:0015697731:20120507:132505:BLANK !!:11
001:0013895851:20120507:132520:BLANK !!:11
001:0002290777:20120507:132521:BLANK !!:11
001:0009360756:20120507:132523:BLANK !!:11
001:0013896494:20120507:132525:BLANK !!:11
001:0013884285:20120507:132527:BLANK !!:11
001:0010549428:20120507:132529:BLANK !!:11
001:0000365093:20120507:132533:BLANK !!:11
001:0002268007:20120507:132535:BLANK !!:11
001:0002294646:20120507:132538:BLANK !!:11
001:0009363039:20120507:132541:BLANK !!:11
001:0006751519:20120507:132548:BLANK !!:11
001:0010544149:20120507:132549:BLANK !!:11
001:0002271494:20120507:132553:BLANK !!:11
001:0002289438:20120507:132556:BLANK !!:11
001:0013897124:20120507:132558:BLANK !!:11
001:0010540274:20120507:132559:BLANK !!:11
001:0015688510:20120507:132604:BLANK !!:11
001:0015674575:20120507:132606:BLANK !!:11
001:0015689962:20120507:132608:BLANK !!:11
001:0003116472:20120507:132611:BLANK !!:11
001:0009365681:20120507:132617:BLANK !!:11
001:0015782013:20120507:132626:BLANK !!:11
001:0015691390:20120507:132630:BLANK !!:11
001:0010551168:20120507:132643:BLANK !!:11
001:0013896430:20120507:132702:BLANK !!:11
001:0002282243:20120507:132705:BLANK !!:11
001:0003101201:20120507:132708:BLANK !!:11
001:0013894712:20120507:132711:BLANK !!:11
001:0002276947:20120507:132716:BLANK !!:11
001:0015685385:20120507:132719:BLANK !!:11
001:0010550709:20120507:132721:BLANK !!:11
001:0010549396:20120507:132724:BLANK !!:11
001:0009366722:20120507:132741:BLANK !!:11
001:0015696870:20120507:132750:BLANK !!:11
001:0015696806:20120507:132754:BLANK !!:11
001:0006755519:20120507:132834:BLANK !!:11
001:0010549596:20120507:132837:BLANK !!:11
001:0006756914:20120507:132839:BLANK !!:11
001:0010532545:20120507:132856:BLANK !!:11
001:0006755449:20120507:132926:BLANK !!:11
001:0000407097:20120507:132936:BLANK !!:11
001:0013886928:20120507:132944:BLANK !!:11
001:0015693682:20120507:133137:BLANK !!:11
001:0010530367:20120507:133139:BLANK !!:11
001:0013893990:20120507:133141:BLANK !!:11
001:0013894885:20120507:133143:BLANK !!:11
001:0010537681:20120507:133228:BLANK !!:11
001:0010551185:20120507:133257:BLANK !!:11
001:0013877389:20120507:133300:BLANK !!:11
001:0015698029:20120507:133403:BLANK !!:11
001:0010549433:20120507:133441:BLANK !!:11
001:0002293868:20120507:133558:BLANK !!:11
001:0013898707:20120507:133933:BLANK !!:11
001:0010550889:20120507:134038:BLANK !!:11
001:0015690234:20120507:135602:BLANK !!:11
001:0013900664:20120507:135631:BLANK !!:11
001:0013875043:20120507:140439:BLANK !!:11
001:0013882945:20120507:140530:BLANK !!:11
001:0013894250:20120507:140550:BLANK !!:11
001:0013893990:20120507:141713:BLANK !!:11
001:0010547320:20120507:142004:BLANK !!:11
001:0015693682:20120507:142106:BLANK !!:11
001:0010551185:20120507:142326:BLANK !!:11
001:0013877389:20120507:142328:BLANK !!:11
001:0010530367:20120507:142504:BLANK !!:11
001:0013894885:20120507:142507:BLANK !!:11
001:0010549433:20120507:142830:BLANK !!:11
001:0002293868:20120507:142833:BLANK !!:11
001:0015690234:20120507:142843:BLANK !!:11
001:0010550889:20120507:144214:BLANK !!:11
001:0006760116:20120507:150651:BLANK !!:11
001:0010550898:20120507:150823:BLANK !!:11
001:0010644113:20120507:152750:BLANK !!:11
001:0006760116:20120507:160716:BLANK !!:11
001:0009361700:20120507:163338:BLANK !!:11
001:0010549596:20120507:170140:BLANK !!:11
001:0010537681:20120507:170205:BLANK !!:11
001:0006757082:20120507:170217:BLANK !!:11
001:0015690200:20120507:170223:BLANK !!:11
001:0009363039:20120507:170301:BLANK !!:11
001:0013883538:20120507:170303:BLANK !!:11
001:0013887126:20120507:170307:BLANK !!:11
001:0013888858:20120507:170314:BLANK !!:11
001:0013888430:20120507:170316:BLANK !!:11
001:0003117697:20120507:170336:BLANK !!:11
001:0003103684:20120507:170337:BLANK !!:11
001:0013879037:20120507:170339:BLANK !!:11
001:0004631014:20120507:170342:BLANK !!:11
001:0010549454:20120507:170344:BLANK !!:11
001:0006758431:20120507:170400:BLANK !!:11
001:0006755449:20120507:170403:BLANK !!:11
001:0010531397:20120507:170451:BLANK !!:11
001:0010549428:20120507:170455:BLANK !!:11
001:0013892138:20120507:170457:BLANK !!:11
001:0002290777:20120507:170459:BLANK !!:11
001:0009360461:20120507:170516:BLANK !!:11
001:0009369518:20120507:170518:BLANK !!:11
001:0010543526:20120507:170558:BLANK !!:11
001:0002294278:20120507:170607:BLANK !!:11
001:0010549433:20120507:170618:BLANK !!:11
001:0013885899:20120507:170622:BLANK !!:11
001:0010547846:20120507:170645:BLANK !!:11
001:0002270962:20120507:170734:BLANK !!:11
001:0009361700:20120507:170738:BLANK !!:11
001:0013895313:20120507:170755:BLANK !!:11
001:0013879728:20120507:170759:BLANK !!:11
001:0002274131:20120507:170800:BLANK !!:11
001:0013878708:20120507:170802:BLANK !!:11
001:0002276947:20120507:170858:BLANK !!:11
001:0006755937:20120507:170919:BLANK !!:11
001:0010549824:20120507:170921:BLANK !!:11
001:0013875043:20120507:170928:BLANK !!:11
001:0003150394:20120507:171742:BLANK !!:11
001:0002273537:20120507:172225:BLANK !!:11
001:0013874564:20120507:172319:BLANK !!:11
001:0009369516:20120507:172833:BLANK !!:11
001:0015674443:20120507:173322:BLANK !!:11
001:0010548307:20120507:174053:BLANK !!:11
001:0010540251:20120507:174054:BLANK !!:11
001:0010651256:20120507:174412:BLANK !!:11
001:0013889788:20120507:180125:BLANK !!:11
001:0013896823:20120507:180845:BLANK !!:11
001:0013900100:20120507:180904:BLANK !!:11
001:0013881218:20120507:181145:BLANK !!:11
001:0013882358:20120507:181323:BLANK !!:11
001:0013888273:20120507:181326:BLANK !!:11
001:0013896752:20120507:181502:BLANK !!:11
001:0013896432:20120507:181552:BLANK !!:11
001:0013896958:20120507:181555:BLANK !!:11
001:0013896432:20120507:181603:BLANK !!:11
001:0010644113:20120507:181610:BLANK !!:11
001:0013880904:20120507:181655:BLANK !!:11
001:0013892922:20120507:181939:BLANK !!:11
001:0013886076:20120507:181941:BLANK !!:11
001:0013889932:20120507:181945:BLANK !!:11
001:0013886572:20120507:181949:BLANK !!:11
001:0013901637:20120507:182807:BLANK !!:11
001:0002287554:20120507:184641:BLANK !!:11
001:0009363036:20120507:184649:BLANK !!:11
001:0013896015:20120507:184908:BLANK !!:11
001:0013888865:20120507:185217:BLANK !!:11
001:0003116318:20120507:185258:BLANK !!:11
001:0002288205:20120507:185918:BLANK !!:11
001:0009366281:20120507:190509:BLANK !!:11
001:0013896080:20120507:190514:BLANK !!:11
001:0013888913:20120507:190517:BLANK !!:11
001:0010549740:20120507:190535:BLANK !!:11
001:0013875043:20120507:190842:BLANK !!:11
001:0010551210:20120507:193426:BLANK !!:11
001:0006754204:20120507:193828:BLANK !!:11
001:0009364774:20120507:193949:BLANK !!:11
001:0002273235:20120507:194203:BLANK !!:11
001:0006760141:20120507:194218:BLANK !!:11
001:0010550340:20120507:194442:BLANK !!:11
001:0010548264:20120507:194445:BLANK !!:11
001:0013875397:20120507:194515:BLANK !!:11
001:0006750527:20120507:194719:BLANK !!:11
001:0010634177:20120507:194803:BLANK !!:11
001:0010549697:20120507:194832:BLANK !!:11
001:0015684972:20120507:194920:BLANK !!:11
001:0010542101:20120507:195056:BLANK !!:11
001:0009369519:20120507:195412:BLANK !!:11
001:0009359710:20120507:195415:BLANK !!:11
001:0002290144:20120507:195425:BLANK !!:11
001:0006750419:20120507:195656:BLANK !!:11
001:0000365761:20120507:195758:BLANK !!:11
001:0010549386:20120507:200100:BLANK !!:11
001:0013894407:20120507:201108:BLANK !!:11
001:0015685005:20120507:203010:BLANK !!:11
001:0006753686:20120507:203015:BLANK !!:11
001:0013887985:20120507:203023:BLANK !!:11
001:0013880789:20120507:203046:BLANK !!:11
001:0015691390:20120507:203051:BLANK !!:11
001:0013900540:20120507:203053:BLANK !!:11
001:0015696806:20120507:203055:BLANK !!:11
001:0006759131:20120507:203057:BLANK !!:11
001:0006754282:20120507:203059:BLANK !!:11
001:0013887688:20120507:203102:BLANK !!:11
001:0010551115:20120507:203104:BLANK !!:11
001:0010536569:20120507:203107:BLANK !!:11
001:0013952446:20120507:203110:BLANK !!:11
001:0015693682:20120507:203112:BLANK !!:11
001:0013884590:20120507:203114:BLANK !!:11
001:0013897138:20120507:203115:BLANK !!:11
001:0002270146:20120507:203119:BLANK !!:11
001:0006756914:20120507:203120:BLANK !!:11
001:0003116472:20120507:203124:BLANK !!:11
001:0013874960:20120507:203136:BLANK !!:11
001:0010544149:20120507:203137:BLANK !!:11
001:0010551185:20120507:203140:BLANK !!:11
001:0013887437:20120507:203142:BLANK !!:11
001:0013894885:20120507:203143:BLANK !!:11
001:0006754257:20120507:203145:BLANK !!:11
001:0010541979:20120507:203146:BLANK !!:11
001:0013944638:20120507:203149:BLANK !!:11
001:0013889730:20120507:203151:BLANK !!:11
001:0013886114:20120507:203155:BLANK !!:11
001:0002282143:20120507:203156:BLANK !!:11
001:0015689962:20120507:203158:BLANK !!:11
001:0009371127:20120507:203201:BLANK !!:11
001:0009357239:20120507:203203:BLANK !!:11
001:0013875818:20120507:203205:BLANK !!:11
001:0013891964:20120507:203206:BLANK !!:11
001:0010530367:20120507:203208:BLANK !!:11
001:0013883458:20120507:203210:BLANK !!:11
001:0006757851:20120507:203213:BLANK !!:11
001:0010549767:20120507:203215:BLANK !!:11
001:0010547320:20120507:203219:BLANK !!:11
001:0013877389:20120507:203220:BLANK !!:11
001:0009354724:20120507:203222:BLANK !!:11
001:0010550890:20120507:203225:BLANK !!:11
001:0010549371:20120507:203229:BLANK !!:11
001:0015689920:20120507:203231:BLANK !!:11
001:0002267666:20120507:203235:BLANK !!:11
001:0000683571:20120507:203237:BLANK !!:11
001:0004619983:20120507:203239:BLANK !!:11
001:0009360755:20120507:203242:BLANK !!:11
001:0002274545:20120507:203247:BLANK !!:11
001:0000407097:20120507:203248:BLANK !!:11
001:0010549787:20120507:203250:BLANK !!:11
001:0010550306:20120507:203252:BLANK !!:11
001:0002292541:20120507:203255:BLANK !!:11
001:0013878180:20120507:203257:BLANK !!:11
001:0015674317:20120507:203258:BLANK !!:11
001:0002285324:20120507:203301:BLANK !!:11
001:0013893682:20120507:203303:BLANK !!:11
001:0013930013:20120507:203305:BLANK !!:11
001:0006757638:20120507:203308:BLANK !!:11
001:0013884285:20120507:203309:BLANK !!:11
001:0010553833:20120507:203311:BLANK !!:11
001:0015688809:20120507:203315:BLANK !!:11
001:0010628117:20120507:203317:BLANK !!:11
001:0004631020:20120507:203318:BLANK !!:11
001:0010531624:20120507:203320:BLANK !!:11
001:0010532545:20120507:203322:BLANK !!:11
001:0006758261:20120507:203323:BLANK !!:11
001:0009364321:20120507:203326:BLANK !!:11
001:0009364775:20120507:203329:BLANK !!:11
001:0010530514:20120507:203331:BLANK !!:11
001:0013897974:20120507:203333:BLANK !!:11
001:0013893990:20120507:203334:BLANK !!:11
001:0013901179:20120507:203336:BLANK !!:11
001:0010549396:20120507:203338:BLANK !!:11
001:0013896494:20120507:203340:BLANK !!:11
001:0013884770:20120507:203341:BLANK !!:11
001:0009352948:20120507:203343:BLANK !!:11
001:0013214375:20120507:203345:BLANK !!:11
001:0010653054:20120507:203347:BLANK !!:11
001:0015697731:20120507:203349:BLANK !!:11
001:0013885080:20120507:203351:BLANK !!:11
001:0003102332:20120507:203353:BLANK !!:11
001:0003115319:20120507:203354:BLANK !!:11
001:0009364108:20120507:203358:BLANK !!:11
001:0015697358:20120507:203359:BLANK !!:11
001:0010550709:20120507:203402:BLANK !!:11
001:0015685385:20120507:203404:BLANK !!:11
001:0010541183:20120507:203406:BLANK !!:11
001:0015685006:20120507:203408:BLANK !!:11
001:0003117930:20120507:203412:BLANK !!:11
001:0002273808:20120507:203414:BLANK !!:11
001:0010549455:20120507:203415:BLANK !!:11
001:0010532210:20120507:203419:BLANK !!:11
001:0015674317:20120507:203421:BLANK !!:11
001:0009369521:20120507:203424:BLANK !!:11
001:0009350673:20120507:203427:BLANK !!:11
001:0010539435:20120507:203429:BLANK !!:11
001:0009360458:20120507:203431:BLANK !!:11
001:0015696870:20120507:203432:BLANK !!:11
001:0002289438:20120507:203434:BLANK !!:11
001:0002271494:20120507:203438:BLANK !!:11
001:0000365380:20120507:203440:BLANK !!:11
001:0009364806:20120507:203442:BLANK !!:11
001:0009357241:20120507:203444:BLANK !!:11
001:0009360116:20120507:203445:BLANK !!:11
001:0015693718:20120507:203447:BLANK !!:11
001:0009364773:20120507:203449:BLANK !!:11
001:0010537779:20120507:203451:BLANK !!:11
001:0010552986:20120507:203452:BLANK !!:11
001:0000365148:20120507:203455:BLANK !!:11
001:0013933226:20120507:203456:BLANK !!:11
001:0003110988:20120507:203458:BLANK !!:11
001:0013900030:20120507:203501:BLANK !!:11
001:0013877148:20120507:203502:BLANK !!:11
001:0010538666:20120507:203504:BLANK !!:11
001:0006758789:20120507:203506:BLANK !!:11
001:0013887862:20120507:203508:BLANK !!:11
001:0010554314:20120507:203509:BLANK !!:11
001:0013952741:20120507:203511:BLANK !!:11
001:0006753823:20120507:203513:BLANK !!:11
001:0015782013:20120507:203516:BLANK !!:11
001:0015682819:20120507:203519:BLANK !!:11
001:0002292481:20120507:203521:BLANK !!:11
001:0009361700:20120507:203523:BLANK !!:11
001:0009368226:20120507:203524:BLANK !!:11
001:0013875148:20120507:203526:BLANK !!:11
001:0004620445:20120507:203527:BLANK !!:11
001:0015688160:20120507:203529:BLANK !!:11
001:0015674575:20120507:203530:BLANK !!:11
001:0013894712:20120507:203532:BLANK !!:11
001:0002268037:20120507:203534:BLANK !!:11
001:0013890852:20120507:203536:BLANK !!:11
001:0002293780:20120507:203537:BLANK !!:11
001:0009361053:20120507:203539:BLANK !!:11
001:0013897049:20120507:203540:BLANK !!:11
001:0010546752:20120507:203542:BLANK !!:11
001:0009371128:20120507:203543:BLANK !!:11
001:0013935114:20120507:203545:BLANK !!:11
001:0013875297:20120507:203546:BLANK !!:11
001:0004624478:20120507:203548:BLANK !!:11
001:0002284706:20120507:203549:BLANK !!:11
001:0013886928:20120507:203551:BLANK !!:11
001:0010539352:20120507:203553:BLANK !!:11
001:0002291294:20120507:203554:BLANK !!:11
001:0010539061:20120507:203556:BLANK !!:11
001:0013879402:20120507:203557:BLANK !!:11
001:0013880536:20120507:203559:BLANK !!:11
001:0009347993:20120507:203601:BLANK !!:11
001:0004631652:20120507:203602:BLANK !!:11
001:0009365681:20120507:203604:BLANK !!:11
001:0010550707:20120507:203605:BLANK !!:11
001:0002291755:20120507:203607:BLANK !!:11
001:0010547087:20120507:203608:BLANK !!:11
001:0010549766:20120507:203610:BLANK !!:11
001:0002277756:20120507:203611:BLANK !!:11
001:0015697397:20120507:203613:BLANK !!:11
001:0015688510:20120507:203614:BLANK !!:11
001:0015691426:20120507:203616:BLANK !!:11
001:0009368209:20120507:203618:BLANK !!:11
001:0009356502:20120507:203620:BLANK !!:11
001:0010550678:20120507:203622:BLANK !!:11
001:0010549407:20120507:203623:BLANK !!:11
001:0010549884:20120507:203627:BLANK !!:11
001:0013881426:20120507:203629:BLANK !!:11
001:0002282243:20120507:203630:BLANK !!:11
001:0015698466:20120507:203633:BLANK !!:11
001:0009363041:20120507:203634:BLANK !!:11
001:0013940479:20120507:203636:BLANK !!:11
001:0009368404:20120507:203638:BLANK !!:11
001:0010542279:20120507:203641:BLANK !!:11
001:0013883591:20120507:203643:BLANK !!:11
001:0010549955:20120507:203645:BLANK !!:11
001:0013878454:20120507:203648:BLANK !!:11
001:0010540274:20120507:203652:BLANK !!:11
001:0010550294:20120507:203653:BLANK !!:11
001:0010549402:20120507:203656:BLANK !!:11
001:0010534521:20120507:203658:BLANK !!:11
001:0010533341:20120507:203700:BLANK !!:11
001:0015692449:20120507:203701:BLANK !!:11
001:0015689937:20120507:203703:BLANK !!:11
001:0013888628:20120507:203706:BLANK !!:11
001:0002268007:20120507:203708:BLANK !!:11
001:0009350670:20120507:203709:BLANK !!:11
001:0013887499:20120507:203711:BLANK !!:11
001:0010547437:20120507:203713:BLANK !!:11
001:0009350669:20120507:203720:BLANK !!:11
001:0006750042:20120507:203723:BLANK !!:11
001:0010538695:20120507:203725:BLANK !!:11
001:0002294646:20120507:203727:BLANK !!:11
001:0013874099:20120507:203729:BLANK !!:11
001:0013889930:20120507:203730:BLANK !!:11
001:0010551155:20120507:203732:BLANK !!:11
001:0010548132:20120507:203733:BLANK !!:11
001:0013878044:20120507:203735:BLANK !!:11
001:0009354725:20120507:203737:BLANK !!:11
001:0013897124:20120507:203740:BLANK !!:11
001:0002293868:20120507:203741:BLANK !!:11
001:0010640656:20120507:203744:BLANK !!:11
001:0002290826:20120507:203746:BLANK !!:11
001:0015696269:20120507:203749:BLANK !!:11
001:0000365093:20120507:203750:BLANK !!:11
001:0010549748:20120507:203754:BLANK !!:11
001:0002284416:20120507:203755:BLANK !!:11
001:0006755519:20120507:203758:BLANK !!:11
001:0009364805:20120507:203759:BLANK !!:11
001:0013900745:20120507:203801:BLANK !!:11
001:0010547974:20120507:203803:BLANK !!:11
001:0013900664:20120507:203804:BLANK !!:11
001:0009361701:20120507:203806:BLANK !!:11
001:0013890035:20120507:203807:BLANK !!:11
001:0013897942:20120507:203810:BLANK !!:11
001:0013878009:20120507:203812:BLANK !!:11
001:0006755185:20120507:203815:BLANK !!:11
001:0010551168:20120507:203816:BLANK !!:11
001:0015694393:20120507:203820:BLANK !!:11
001:0010549644:20120507:203822:BLANK !!:11
001:0013877112:20120507:203824:BLANK !!:11
001:0010549504:20120507:203826:BLANK !!:11
001:0010550889:20120507:203829:BLANK !!:11
001:0013898707:20120507:203833:BLANK !!:11
001:0003101201:20120507:203834:BLANK !!:11
001:0013881131:20120507:203837:BLANK !!:11
001:0015698029:20120507:203840:BLANK !!:11
001:0002267789:20120507:203844:BLANK !!:11
001:0002270614:20120507:203852:BLANK !!:11
001:0013891973:20120507:203858:BLANK !!:11
001:0015690234:20120507:204054:BLANK !!:11
001:0002267758:20120507:204225:BLANK !!:11
001:0010551140:20120507:204314:BLANK !!:11
001:0002282162:20120507:204316:BLANK !!:11
001:0009364772:20120507:204556:BLANK !!:11
001:0002295364:20120507:204557:BLANK !!:11
001:0010544167:20120507:210155:BLANK !!:11
001:0015693730:20120507:210704:BLANK !!:11
001:0009364324:20120507:210938:BLANK !!:11
001:0013895851:20120507:210941:BLANK !!:11
001:0009361055:20120507:210944:BLANK !!:11
001:0006760214:20120507:210947:BLANK !!:11
001:0009347994:20120507:211054:BLANK !!:11
001:0009371413:20120507:211209:BLANK !!:11
001:0013885002:20120507:211212:BLANK !!:11
001:0010553521:20120507:211238:BLANK !!:11
001:0010549450:20120507:211240:BLANK !!:11
001:0013894338:20120507:211814:BLANK !!:11
001:0009357257:20120507:213140:BLANK !!:11
001:0006754204:20120507:220246:BLANK !!:11
001:0002290144:20120507:220303:BLANK !!:11
001:0006760141:20120507:220310:BLANK !!:11
001:0010542101:20120507:220326:BLANK !!:11
001:0010548264:20120507:220332:BLANK !!:11
001:0010544368:20120507:220351:BLANK !!:11
001:0013899674:20120507:220355:BLANK !!:11
001:0013896430:20120507:220357:BLANK !!:11
001:0010550340:20120507:220401:BLANK !!:11
001:0010549697:20120507:220403:BLANK !!:11
001:0009366722:20120507:220537:BLANK !!:11
001:0013900680:20120507:220548:BLANK !!:11
001:0006760141:20120507:223943:BLANK !!:11
001:0006754204:20120507:224524:BLANK !!:11
001:0010542101:20120507:225010:BLANK !!:11
001:0010548264:20120507:225016:BLANK !!:11
001:0010550340:20120507:225022:BLANK !!:11
001:0010549697:20120507:225156:BLANK !!:11
001:0002290144:20120507:230203:BLANK !!:11
001:0009359710:20120508:051054:BLANK !!:11
001:0006754204:20120508:051100:BLANK !!:11
001:0009364774:20120508:051105:BLANK !!:11
001:0013875397:20120508:051106:BLANK !!:11
001:0002273235:20120508:051247:BLANK !!:11
001:0009366281:20120508:065010:BLANK !!:11
001:0013888913:20120508:065217:BLANK !!:11
001:0010550898:20120508:065332:BLANK !!:11
001:0013896080:20120508:065347:BLANK !!:11
001:0002287554:20120508:070511:BLANK !!:11
001:0003116318:20120508:070517:BLANK !!:11
001:0009363036:20120508:071208:BLANK !!:11
001:0013896015:20120508:071252:BLANK !!:11
001:0015693730:20120508:073018:BLANK !!:11
001:0006757082:20120508:073037:BLANK !!:11
001:0009364805:20120508:073043:BLANK !!:11
001:0013894885:20120508:073114:BLANK !!:11
001:0013879037:20120508:073125:BLANK !!:11
001:0013878180:20120508:073131:BLANK !!:11
001:0009361701:20120508:073139:BLANK !!:11
001:0002282162:20120508:073254:BLANK !!:11
001:0013885899:20120508:073309:BLANK !!:11
001:0013897124:20120508:073330:BLANK !!:11
001:0013952446:20120508:073432:BLANK !!:11
001:0015688795:20120508:073436:BLANK !!:11
001:0013900540:20120508:073438:BLANK !!:11
001:0006758261:20120508:073440:BLANK !!:11
001:0009363103:20120508:073442:BLANK !!:11
001:0004619983:20120508:073459:BLANK !!:11
001:0009347994:20120508:073518:BLANK !!:11
001:0013895851:20120508:073557:BLANK !!:11
001:0009371131:20120508:073610:BLANK !!:11
001:0009361053:20120508:073613:BLANK !!:11
001:0013900680:20120508:073635:BLANK !!:11
001:0000365380:20120508:073639:BLANK !!:11
001:0010534521:20120508:073642:BLANK !!:11
001:0013885002:20120508:073653:BLANK !!:11
001:0013874960:20120508:073656:BLANK !!:11
001:0015696806:20120508:073658:BLANK !!:11
001:0006755519:20120508:073705:BLANK !!:11
001:0010530514:20120508:073709:BLANK !!:11
001:0002270614:20120508:073726:BLANK !!:11
001:0013897942:20120508:073737:BLANK !!:11
001:0013889730:20120508:073745:BLANK !!:11
001:0013887985:20120508:073751:BLANK !!:11
001:0010553833:20120508:073810:BLANK !!:11
001:0002290081:20120508:073814:BLANK !!:11
001:0009371413:20120508:073830:BLANK !!:11
001:0009368404:20120508:073836:BLANK !!:11
001:0003117697:20120508:073852:BLANK !!:11
001:0004631652:20120508:073859:BLANK !!:11
001:0013887688:20120508:073927:BLANK !!:11
001:0010549504:20120508:073930:BLANK !!:11
001:0002270146:20120508:074004:BLANK !!:11
001:0002274545:20120508:074025:BLANK !!:11
001:0002273537:20120508:074059:BLANK !!:11
001:0002285324:20120508:074102:BLANK !!:11
001:0013930013:20120508:074114:BLANK !!:11
001:0013886114:20120508:074118:BLANK !!:11
001:0010536569:20120508:074121:BLANK !!:11
001:0010547974:20120508:074123:BLANK !!:11
001:0009371127:20120508:074125:BLANK !!:11
001:0009354724:20120508:074148:BLANK !!:11
001:0002292541:20120508:074150:BLANK !!:11
001:0013878454:20120508:074152:BLANK !!:11
001:0010549955:20120508:074155:BLANK !!:11
001:0010547320:20120508:074157:BLANK !!:11
001:0013900625:20120508:074204:BLANK !!:11
001:0010532545:20120508:074206:BLANK !!:11
001:0010541979:20120508:074209:BLANK !!:11
001:0010530367:20120508:074227:BLANK !!:11
001:0013889930:20120508:074232:BLANK !!:11
001:0010549884:20120508:074235:BLANK !!:11
001:0006750042:20120508:074238:BLANK !!:11
001:0009360755:20120508:074245:BLANK !!:11
001:0000365148:20120508:074248:BLANK !!:11
001:0006755461:20120508:074250:BLANK !!:11
001:0010640656:20120508:074253:BLANK !!:11
001:0006760214:20120508:074256:BLANK !!:11
001:0009357241:20120508:074258:BLANK !!:11
001:0013887126:20120508:074301:BLANK !!:11
001:0010544149:20120508:074303:BLANK !!:11
001:0010552986:20120508:074304:BLANK !!:11
001:0013929932:20120508:074309:BLANK !!:11
001:0013878009:20120508:074311:BLANK !!:11
001:0013883538:20120508:074313:BLANK !!:11
001:0009369516:20120508:074315:BLANK !!:11
001:0013888865:20120508:074318:BLANK !!:11
001:0002267758:20120508:074319:BLANK !!:11
001:0013884285:20120508:074321:BLANK !!:11
001:0013894338:20120508:074323:BLANK !!:11
001:0013891964:20120508:074325:BLANK !!:11
001:0013878382:20120508:074327:BLANK !!:11
001:0015688160:20120508:074331:BLANK !!:11
001:0015782013:20120508:074332:BLANK !!:11
001:0015682819:20120508:074337:BLANK !!:11
001:0013897049:20120508:074339:BLANK !!:11
001:0009360116:20120508:074341:BLANK !!:11
001:0010549644:20120508:074343:BLANK !!:11
001:0013892286:20120508:074346:BLANK !!:11
001:0013884770:20120508:074348:BLANK !!:11
001:0010550306:20120508:074350:BLANK !!:11
001:0009361700:20120508:074354:BLANK !!:11
001:0013214375:20120508:074356:BLANK !!:11
001:0015692449:20120508:074358:BLANK !!:11
001:0010550678:20120508:074401:BLANK !!:11
001:0010549596:20120508:074403:BLANK !!:11
001:0010538666:20120508:074405:BLANK !!:11
001:0009365681:20120508:074407:BLANK !!:11
001:0006756914:20120508:074408:BLANK !!:11
001:0002282143:20120508:074410:BLANK !!:11
001:0002294278:20120508:074412:BLANK !!:11
001:0013890035:20120508:074414:BLANK !!:11
001:0009356502:20120508:074416:BLANK !!:11
001:0010551155:20120508:074419:BLANK !!:11
001:0009350670:20120508:074427:BLANK !!:11
001:0010549455:20120508:074430:BLANK !!:11
001:0010653054:20120508:074433:BLANK !!:11
001:0013884590:20120508:074435:BLANK !!:11
001:0015697397:20120508:074438:BLANK !!:11
001:0003116472:20120508:074442:BLANK !!:11
001:0002267666:20120508:074445:BLANK !!:11
001:0010543526:20120508:074450:BLANK !!:11
001:0010550294:20120508:074452:BLANK !!:11
001:0009350673:20120508:074458:BLANK !!:11
001:0009360461:20120508:074500:BLANK !!:11
001:0013879728:20120508:074502:BLANK !!:11
001:0002291294:20120508:074503:BLANK !!:11
001:0010547087:20120508:074506:BLANK !!:11
001:0013887499:20120508:074518:BLANK !!:11
001:0010550889:20120508:074524:BLANK !!:11
001:0009364775:20120508:074528:BLANK !!:11
001:0010547091:20120508:074529:BLANK !!:11
001:0009364773:20120508:074532:BLANK !!:11
001:0010551115:20120508:074534:BLANK !!:11
001:0013935114:20120508:074536:BLANK !!:11
001:0003103684:20120508:074538:BLANK !!:11
001:0010544167:20120508:074540:BLANK !!:11
001:0006755937:20120508:074542:BLANK !!:11
001:0013880789:20120508:074544:BLANK !!:11
001:0006759096:20120508:074545:BLANK !!:11
001:0010554314:20120508:074547:BLANK !!:11
001:0013883458:20120508:074550:BLANK !!:11
001:0013940479:20120508:074606:BLANK !!:11
001:0009363041:20120508:074608:BLANK !!:11
001:0013887862:20120508:074610:BLANK !!:11
001:0006758789:20120508:074613:BLANK !!:11
001:0003101201:20120508:074623:BLANK !!:11
001:0015693718:20120508:074626:BLANK !!:11
001:0010540274:20120508:074631:BLANK !!:11
001:0010549787:20120508:074634:BLANK !!:11
001:0010533341:20120508:074637:BLANK !!:11
001:0010549567:20120508:074640:BLANK !!:11
001:0013898707:20120508:074643:BLANK !!:11
001:0009369521:20120508:074645:BLANK !!:11
001:0006754257:20120508:074648:BLANK !!:11
001:0002274131:20120508:074653:BLANK !!:11
001:0002282243:20120508:074700:BLANK !!:11
001:0015674443:20120508:074714:BLANK !!:11
001:0013875818:20120508:074717:BLANK !!:11
001:0010549396:20120508:074723:BLANK !!:11
001:0006758431:20120508:074726:BLANK !!:11
001:0002290826:20120508:074734:BLANK !!:11
001:0002292481:20120508:074735:BLANK !!:11
001:0009364324:20120508:074738:BLANK !!:11
001:0010540763:20120508:074743:BLANK !!:11
001:0013887437:20120508:074748:BLANK !!:11
001:0013874564:20120508:074752:BLANK !!:11
001:0003102332:20120508:074754:BLANK !!:11
001:0013888594:20120508:074756:BLANK !!:11
001:0003115319:20120508:074758:BLANK !!:11
001:0010538695:20120508:074811:BLANK !!:11
001:0006753823:20120508:074814:BLANK !!:11
001:0002293780:20120508:074815:BLANK !!:11
001:0015685006:20120508:074832:BLANK !!:11
001:0015697358:20120508:074835:BLANK !!:11
001:0010547997:20120508:074837:BLANK !!:11
001:0015698466:20120508:074839:BLANK !!:11
001:0010542279:20120508:074841:BLANK !!:11
001:0002268007:20120508:074842:BLANK !!:11
001:0002277756:20120508:074844:BLANK !!:11
001:0015694393:20120508:074846:BLANK !!:11
001:0009348591:20120508:074848:BLANK !!:11
001:0010531397:20120508:074850:BLANK !!:11
001:0010548132:20120508:074853:BLANK !!:11
001:0013878044:20120508:074855:BLANK !!:11
001:0013888628:20120508:074857:BLANK !!:11
001:0002291755:20120508:074900:BLANK !!:11
001:0010539435:20120508:074901:BLANK !!:11
001:0009364804:20120508:074903:BLANK !!:11
001:0010537779:20120508:074905:BLANK !!:11
001:0010550707:20120508:074907:BLANK !!:11
001:0006757638:20120508:074910:BLANK !!:11
001:0013900030:20120508:074913:BLANK !!:11
001:0010546752:20120508:074914:BLANK !!:11
001:0003110988:20120508:074916:BLANK !!:11
001:0004624478:20120508:074918:BLANK !!:11
001:0000365093:20120508:074920:BLANK !!:11
001:0015693682:20120508:074922:BLANK !!:11
001:0006751519:20120508:074924:BLANK !!:11
001:0006757851:20120508:074925:BLANK !!:11
001:0013880536:20120508:074927:BLANK !!:11
001:0013933226:20120508:074929:BLANK !!:11
001:0013877148:20120508:074931:BLANK !!:11
001:0004631020:20120508:074933:BLANK !!:11
001:0009357239:20120508:074936:BLANK !!:11
001:0010549748:20120508:074939:BLANK !!:11
001:0013899674:20120508:074946:BLANK !!:11
001:0000683571:20120508:074957:BLANK !!:11
001:0009352948:20120508:075000:BLANK !!:11
001:0010651256:20120508:075002:BLANK !!:11
001:0013894407:20120508:075005:BLANK !!:11
001:0015688809:20120508:075020:BLANK !!:11
001:0010547437:20120508:075028:BLANK !!:11
001:0013874099:20120508:075031:BLANK !!:11
001:0009368209:20120508:075038:BLANK !!:11
001:0015688510:20120508:075040:BLANK !!:11
001:0015697731:20120508:075047:BLANK !!:11
001:0013893682:20120508:075050:BLANK !!:11
001:0004631014:20120508:075052:BLANK !!:11
001:0013878129:20120508:075054:BLANK !!:11
001:0013896430:20120508:075056:BLANK !!:11
001:0015698029:20120508:075109:BLANK !!:11
001:0015691390:20120508:075111:BLANK !!:11
001:0010551210:20120508:075116:BLANK !!:11
001:0015690234:20120508:075119:BLANK !!:11
001:0002293868:20120508:075122:BLANK !!:11
001:0013891973:20120508:075124:BLANK !!:11
001:0010532210:20120508:075126:BLANK !!:11
001:0013888305:20120508:075130:BLANK !!:11
001:0000407097:20120508:075132:BLANK !!:11
001:0010541183:20120508:075134:BLANK !!:11
001:0006755185:20120508:075137:BLANK !!:11
001:0015674317:20120508:075139:BLANK !!:11
001:0009361055:20120508:075141:BLANK !!:11
001:0013944638:20120508:075145:BLANK !!:11
001:0009369518:20120508:075147:BLANK !!:11
001:0006759131:20120508:075151:BLANK !!:11
001:0002273808:20120508:075153:BLANK !!:11
001:0002289438:20120508:075156:BLANK !!:11
001:0009360458:20120508:075159:BLANK !!:11
001:0009364806:20120508:075201:BLANK !!:11
001:0013875297:20120508:075202:BLANK !!:11
001:0013896494:20120508:075204:BLANK !!:11
001:0009347993:20120508:075206:BLANK !!:11
001:0009357257:20120508:075209:BLANK !!:11
001:0006753686:20120508:075211:BLANK !!:11
001:0013886928:20120508:075234:BLANK !!:11
001:0002294646:20120508:075236:BLANK !!:11
001:0013877112:20120508:075239:BLANK !!:11
001:0015689920:20120508:075243:BLANK !!:11
001:0010549824:20120508:075246:BLANK !!:11
001:0002267789:20120508:075254:BLANK !!:11
001:0010551185:20120508:075257:BLANK !!:11
001:0013877389:20120508:075300:BLANK !!:11
001:0004620445:20120508:075302:BLANK !!:11
001:0015696269:20120508:075325:BLANK !!:11
001:0015689937:20120508:075330:BLANK !!:11
001:0006754282:20120508:075333:BLANK !!:11
001:0004627383:20120508:075338:BLANK !!:11
001:0002270962:20120508:075342:BLANK !!:11
001:0010551168:20120508:075344:BLANK !!:11
001:0006755449:20120508:075347:BLANK !!:11
001:0002290777:20120508:075349:BLANK !!:11
001:0013892138:20120508:075351:BLANK !!:11
001:0009360756:20120508:075353:BLANK !!:11
001:0009364321:20120508:075358:BLANK !!:11
001:0002284706:20120508:075402:BLANK !!:11
001:0010628117:20120508:075408:BLANK !!:11
001:0010549454:20120508:075410:BLANK !!:11
001:0009350669:20120508:075412:BLANK !!:11
001:0009354725:20120508:075415:BLANK !!:11
001:0002271494:20120508:075433:BLANK !!:11
001:0015690200:20120508:075451:BLANK !!:11
001:0015674575:20120508:075453:BLANK !!:11
001:0010531624:20120508:075456:BLANK !!:11
001:0013897974:20120508:075504:BLANK !!:11
001:0010539352:20120508:075508:BLANK !!:11
001:0013894940:20120508:075514:BLANK !!:11
001:0013897138:20120508:075516:BLANK !!:11
001:0013885080:20120508:075517:BLANK !!:11
001:0010550890:20120508:075522:BLANK !!:11
001:0010549371:20120508:075524:BLANK !!:11
001:0003117930:20120508:075528:BLANK !!:11
001:0013881131:20120508:075531:BLANK !!:11
001:0010549450:20120508:075532:BLANK !!:11
001:0013894712:20120508:075534:BLANK !!:11
001:0009366722:20120508:075536:BLANK !!:11
001:0013901179:20120508:075538:BLANK !!:11
001:0015696870:20120508:075539:BLANK !!:11
001:0015685005:20120508:075542:BLANK !!:11
001:0010547846:20120508:075544:BLANK !!:11
001:0010549740:20120508:075546:BLANK !!:11
001:0009371128:20120508:075548:BLANK !!:11
001:0013881426:20120508:075550:BLANK !!:11
001:0013895313:20120508:075607:BLANK !!:11
001:0013878708:20120508:075609:BLANK !!:11
001:0009363039:20120508:075618:BLANK !!:11
001:0002284416:20120508:075635:BLANK !!:11
001:0010549407:20120508:075638:BLANK !!:11
001:0010544368:20120508:075654:BLANK !!:11
001:0010549428:20120508:075659:BLANK !!:11
001:0002276947:20120508:075702:BLANK !!:11
001:0013893990:20120508:075704:BLANK !!:11
001:0010540251:20120508:075707:BLANK !!:11
001:0010549767:20120508:075717:BLANK !!:11
001:0003150394:20120508:075722:BLANK !!:11
001:0010550709:20120508:075740:BLANK !!:11
001:0013879402:20120508:075744:BLANK !!:11
001:0013890852:20120508:075833:BLANK !!:11
001:0013888858:20120508:075846:BLANK !!:11
001:0015685385:20120508:075922:BLANK !!:11
001:0015689962:20120508:080013:BLANK !!:11
001:0009364772:20120508:080021:BLANK !!:11
001:0010537681:20120508:080037:BLANK !!:11
001:0009368226:20120508:080124:BLANK !!:11
001:0013952741:20120508:080146:BLANK !!:11
001:0010548307:20120508:080332:BLANK !!:11
001:0000365761:20120508:080335:BLANK !!:11
001:0010548264:20120508:080349:BLANK !!:11
001:0010550340:20120508:080353:BLANK !!:11
001:0015684972:20120508:080407:BLANK !!:11
001:0010549433:20120508:080421:BLANK !!:11
001:0010549386:20120508:080532:BLANK !!:11
001:0006760141:20120508:081343:BLANK !!:11
001:0010549697:20120508:081405:BLANK !!:11
001:0002290144:20120508:081540:BLANK !!:11
001:0006750419:20120508:081555:BLANK !!:11
001:0009369519:20120508:081559:BLANK !!:11
001:0006750527:20120508:081606:BLANK !!:11
001:0010634177:20120508:081608:BLANK !!:11
001:0013900664:20120508:082106:BLANK !!:11
001:0010553521:20120508:083152:BLANK !!:11
001:0013875043:20120508:083252:BLANK !!:11
001:0010533195:20120508:083301:BLANK !!:11
001:0002288205:20120508:083502:BLANK !!:11
001:0013896958:20120508:084630:BLANK !!:11
001:0013901637:20120508:084641:BLANK !!:11
001:0013886076:20120508:084645:BLANK !!:11
001:0013886572:20120508:084649:BLANK !!:11
001:0013889932:20120508:084655:BLANK !!:11
001:0013892922:20120508:084700:BLANK !!:11
001:0013896823:20120508:084755:BLANK !!:11
001:0013896432:20120508:085351:BLANK !!:11
001:0010644113:20120508:085453:BLANK !!:11
001:0013882945:20120508:085801:BLANK !!:11
001:0013894250:20120508:085803:BLANK !!:11
001:0013896752:20120508:085807:BLANK !!:11
001:0013889788:20120508:085810:BLANK !!:11
001:0013896595:20120508:085812:BLANK !!:11
001:0013881218:20120508:085815:BLANK !!:11
001:0013880904:20120508:085816:BLANK !!:11
001:0013900100:20120508:085819:BLANK !!:11
001:0013882358:20120508:085822:BLANK !!:11
001:0013888273:20120508:085824:BLANK !!:11
001:0006756113:20120508:085843:BLANK !!:11
001:0010550910:20120508:091230:BLANK !!:11
001:0006760116:20120508:091237:BLANK !!:11
