001:0002294278:20120601:051606:BLANK !!:11
001:0003117697:20120601:051608:BLANK !!:11
001:0013875297:20120601:051611:BLANK !!:11
001:0013879037:20120601:051613:BLANK !!:11
001:0003103684:20120601:051617:BLANK !!:11
001:0002287554:20120601:065027:BLANK !!:11
001:0009366281:20120601:070604:BLANK !!:11
001:0013896015:20120601:070613:BLANK !!:11
001:0013896080:20120601:070804:BLANK !!:11
001:0013930013:20120601:073546:BLANK !!:11
001:0002282143:20120601:073927:BLANK !!:11
001:0013889730:20120601:074322:BLANK !!:11
001:0013894338:20120601:074616:BLANK !!:11
001:0013890035:20120601:074956:BLANK !!:11
001:0010549413:20120601:075202:BLANK !!:11
001:0010528475:20120601:075746:BLANK !!:11
001:0015685005:20120601:075920:BLANK !!:11
001:0013892286:20120601:075940:BLANK !!:11
001:0013880789:20120601:080536:BLANK !!:11
001:0015691390:20120601:080540:BLANK !!:11
001:0010549454:20120601:080544:BLANK !!:11
001:0013897282:20120601:080550:BLANK !!:11
001:0006759918:20120601:080701:BLANK !!:11
001:0009369516:20120601:080732:BLANK !!:11
001:0013888865:20120601:081755:BLANK !!:11
001:0013892286:20120601:123055:BLANK !!:11
001:0013889730:20120601:123651:BLANK !!:11
001:0015685005:20120601:124812:BLANK !!:11
001:0013894338:20120601:124819:BLANK !!:11
001:0010528475:20120601:124822:BLANK !!:11
001:0013888865:20120601:124918:BLANK !!:11
001:0013930013:20120601:125755:BLANK !!:11
001:0010549413:20120601:130304:BLANK !!:11
001:0013890035:20120601:130306:BLANK !!:11
001:0002282143:20120601:130404:BLANK !!:11