001:0009364774:20120604:050607:BLANK !!:11
001:0009359710:20120604:050616:BLANK !!:11
001:0006752093:20120604:050633:BLANK !!:11
001:0010549697:20120604:050639:BLANK !!:11
001:0010550340:20120604:050647:BLANK !!:11
001:0002273235:20120604:050716:BLANK !!:11
001:0006754204:20120604:050719:BLANK !!:11
001:0015684972:20120604:050825:BLANK !!:11
001:0010549386:20120604:051620:BLANK !!:11
001:0013875397:20120604:051624:BLANK !!:11
001:0010551140:20120604:070002:BLANK !!:11
001:0009364805:20120604:073121:BLANK !!:11
001:0006757082:20120604:073125:BLANK !!:11
001:0013892138:20120604:073259:BLANK !!:11
001:0013888594:20120604:073301:BLANK !!:11
001:0013881426:20120604:073303:BLANK !!:11
001:0013887499:20120604:073306:BLANK !!:11
001:0009361053:20120604:073309:BLANK !!:11
001:0002293780:20120604:073311:BLANK !!:11
001:0013874099:20120604:073314:BLANK !!:11
001:0010530367:20120604:073317:BLANK !!:11
001:0013894885:20120604:073336:BLANK !!:11
001:0013878180:20120604:073458:BLANK !!:11
001:0002292481:20120604:073505:BLANK !!:11
001:0009369518:20120604:073507:BLANK !!:11
001:0009371131:20120604:073527:BLANK !!:11
001:0010549884:20120604:073544:BLANK !!:11
001:0015693730:20120604:073614:BLANK !!:11
001:0009369516:20120604:073626:BLANK !!:11
001:0013897282:20120604:073628:BLANK !!:11
001:0013897942:20120604:073630:BLANK !!:11
001:0013891973:20120604:073717:BLANK !!:11
001:0006751401:20120604:073722:BLANK !!:11
001:0009368404:20120604:073726:BLANK !!:11
001:0013900030:20120604:073729:BLANK !!:11
001:0003110988:20120604:073731:BLANK !!:11
001:0006758431:20120604:073740:BLANK !!:11
001:0002282143:20120604:073743:BLANK !!:11
001:0013884590:20120604:073745:BLANK !!:11
001:0015697397:20120604:073748:BLANK !!:11
001:0006751519:20120604:073819:BLANK !!:11
001:0010532545:20120604:073821:BLANK !!:11
001:0013900680:20120604:073829:BLANK !!:11
001:0013883458:20120604:073831:BLANK !!:11
001:0015696806:20120604:073837:BLANK !!:11
001:0009350669:20120604:073839:BLANK !!:11
001:0010539061:20120604:073858:BLANK !!:11
001:0006758261:20120604:073901:BLANK !!:11
001:0010530514:20120604:073904:BLANK !!:11
001:0006755497:20120604:073938:BLANK !!:11
001:0009354724:20120604:073955:BLANK !!:11
001:0003102332:20120604:073957:BLANK !!:11
001:0003115319:20120604:073959:BLANK !!:11
001:0002282162:20120604:074002:BLANK !!:11
001:0013891964:20120604:074005:BLANK !!:11
001:0000683571:20120604:074007:BLANK !!:11
001:0002274545:20120604:074009:BLANK !!:11
001:0003117697:20120604:074011:BLANK !!:11
001:0013893682:20120604:074017:BLANK !!:11
001:0015694393:20120604:074024:BLANK !!:11
001:0002294278:20120604:074040:BLANK !!:11
001:0009371127:20120604:074049:BLANK !!:11
001:0009348592:20120604:074051:BLANK !!:11
001:0010549455:20120604:074053:BLANK !!:11
001:0013889730:20120604:074117:BLANK !!:11
001:0013952446:20120604:074121:BLANK !!:11
001:0006757638:20120604:074201:BLANK !!:11
001:0002270614:20120604:074237:BLANK !!:11
001:0002267758:20120604:074242:BLANK !!:11
001:0013887126:20120604:074243:BLANK !!:11
001:0013878009:20120604:074245:BLANK !!:11
001:0013930013:20120604:074246:BLANK !!:11
001:0004631014:20120604:074249:BLANK !!:11
001:0010554314:20120604:074251:BLANK !!:11
001:0002268037:20120604:074252:BLANK !!:11
001:0010549504:20120604:074254:BLANK !!:11
001:0013894338:20120604:074256:BLANK !!:11
001:0010547974:20120604:074258:BLANK !!:11
001:0010547087:20120604:074259:BLANK !!:11
001:0006751998:20120604:074303:BLANK !!:11
001:0015682735:20120604:074306:BLANK !!:11
001:0009347994:20120604:074308:BLANK !!:11
001:0013879728:20120604:074313:BLANK !!:11
001:0009364775:20120604:074322:BLANK !!:11
001:0015782013:20120604:074327:BLANK !!:11
001:0002290826:20120604:074405:BLANK !!:11
001:0013887437:20120604:074420:BLANK !!:11
001:0015689937:20120604:074428:BLANK !!:11
001:0002267666:20120604:074445:BLANK !!:11
001:0010533341:20120604:074448:BLANK !!:11
001:0013890035:20120604:074503:BLANK !!:11
001:0002292068:20120604:074509:BLANK !!:11
001:0013900745:20120604:074533:BLANK !!:11
001:0015693682:20120604:074540:BLANK !!:11
001:0013888865:20120604:074543:BLANK !!:11
001:0010551210:20120604:074546:BLANK !!:11
001:0009357239:20120604:074550:BLANK !!:11
001:0013214375:20120604:074552:BLANK !!:11
001:0010551168:20120604:074554:BLANK !!:11
001:0004631020:20120604:074558:BLANK !!:11
001:0002270146:20120604:074600:BLANK !!:11
001:0006753686:20120604:074603:BLANK !!:11
001:0009363103:20120604:074611:BLANK !!:11
001:0013894940:20120604:074612:BLANK !!:11
001:0002292541:20120604:074614:BLANK !!:11
001:0006753948:20120604:074616:BLANK !!:11
001:0013878129:20120604:074618:BLANK !!:11
001:0013884770:20120604:074620:BLANK !!:11
001:0013896494:20120604:074621:BLANK !!:11
001:0002290081:20120604:074623:BLANK !!:11
001:0006757851:20120604:074624:BLANK !!:11
001:0009354725:20120604:074626:BLANK !!:11
001:0002291294:20120604:074629:BLANK !!:11
001:0010539435:20120604:074631:BLANK !!:11
001:0013896430:20120604:074633:BLANK !!:11
001:0010544368:20120604:074634:BLANK !!:11
001:0006755461:20120604:074637:BLANK !!:11
001:0009360049:20120604:074640:BLANK !!:11
001:0010544167:20120604:074644:BLANK !!:11
001:0000365148:20120604:074646:BLANK !!:11
001:0013933226:20120604:074649:BLANK !!:11
001:0010552986:20120604:074651:BLANK !!:11
001:0010551115:20120604:074653:BLANK !!:11
001:0006755519:20120604:074656:BLANK !!:11
001:0013892286:20120604:074658:BLANK !!:11
001:0013874960:20120604:074700:BLANK !!:11
001:0013882456:20120604:074709:BLANK !!:11
001:0010549740:20120604:074712:BLANK !!:11
001:0010550306:20120604:074716:BLANK !!:11
001:0010549596:20120604:074719:BLANK !!:11
001:0002274131:20120604:074723:BLANK !!:11
001:0010531624:20120604:074725:BLANK !!:11
001:0009360755:20120604:074726:BLANK !!:11
001:0013885002:20120604:074729:BLANK !!:11
001:0010547320:20120604:074731:BLANK !!:11
001:0010549787:20120604:074734:BLANK !!:11
001:0006756914:20120604:074739:BLANK !!:11
001:0009364806:20120604:074741:BLANK !!:11
001:0009360458:20120604:074743:BLANK !!:11
001:0015688809:20120604:074745:BLANK !!:11
001:0000365761:20120604:074751:BLANK !!:11
001:0006759131:20120604:074754:BLANK !!:11
001:0010549644:20120604:074757:BLANK !!:11
001:0010550889:20120604:074801:BLANK !!:11
001:0015691426:20120604:074803:BLANK !!:11
001:0009366722:20120604:074805:BLANK !!:11
001:0002285324:20120604:074806:BLANK !!:11
001:0006759918:20120604:074808:BLANK !!:11
001:0010549748:20120604:074810:BLANK !!:11
001:0009357241:20120604:074813:BLANK !!:11
001:0009365681:20120604:074815:BLANK !!:11
001:0010549407:20120604:074817:BLANK !!:11
001:0013894712:20120604:074819:BLANK !!:11
001:0013878708:20120604:074821:BLANK !!:11
001:0013895313:20120604:074823:BLANK !!:11
001:0010539352:20120604:074827:BLANK !!:11
001:0009356502:20120604:074831:BLANK !!:11
001:0006758961:20120604:074833:BLANK !!:11
001:0010550707:20120604:074836:BLANK !!:11
001:0009357257:20120604:074841:BLANK !!:11
001:0010546752:20120604:074843:BLANK !!:11
001:0010549413:20120604:074846:BLANK !!:11
001:0010651256:20120604:074849:BLANK !!:11
001:0013898707:20120604:074851:BLANK !!:11
001:0010538666:20120604:074853:BLANK !!:11
001:0003101201:20120604:074856:BLANK !!:11
001:0013901179:20120604:074859:BLANK !!:11
001:0013888628:20120604:074902:BLANK !!:11
001:0015696870:20120604:074904:BLANK !!:11
001:0013889930:20120604:074906:BLANK !!:11
001:0000365380:20120604:074908:BLANK !!:11
001:0010553833:20120604:074911:BLANK !!:11
001:0010530304:20120604:074912:BLANK !!:11
001:0013879037:20120604:074914:BLANK !!:11
001:0002267789:20120604:074922:BLANK !!:11
001:0013897124:20120604:074925:BLANK !!:11
001:0010537779:20120604:074928:BLANK !!:11
001:0010653054:20120604:074931:BLANK !!:11
001:0013900540:20120604:074936:BLANK !!:11
001:0013944638:20120604:074938:BLANK !!:11
001:0010538695:20120604:074939:BLANK !!:11
001:0006753823:20120604:074941:BLANK !!:11
001:0010540274:20120604:074943:BLANK !!:11
001:0009364772:20120604:074948:BLANK !!:11
001:0009364324:20120604:074956:BLANK !!:11
001:0002268007:20120604:074958:BLANK !!:11
001:0009350670:20120604:075000:BLANK !!:11
001:0010532210:20120604:075002:BLANK !!:11
001:0010534521:20120604:075005:BLANK !!:11
001:0013888913:20120604:075007:BLANK !!:11
001:0013885899:20120604:075011:BLANK !!:11
001:0010628117:20120604:075015:BLANK !!:11
001:0009364804:20120604:075025:BLANK !!:11
001:0006754282:20120604:075028:BLANK !!:11
001:0013877112:20120604:075032:BLANK !!:11
001:0015697358:20120604:075038:BLANK !!:11
001:0010549766:20120604:075041:BLANK !!:11
001:0010548132:20120604:075043:BLANK !!:11
001:0010551155:20120604:075047:BLANK !!:11
001:0010541183:20120604:075048:BLANK !!:11
001:0006755185:20120604:075050:BLANK !!:11
001:0010550294:20120604:075052:BLANK !!:11
001:0010550678:20120604:075056:BLANK !!:11
001:0010549396:20120604:075059:BLANK !!:11
001:0010547091:20120604:075101:BLANK !!:11
001:0009364773:20120604:075103:BLANK !!:11
001:0002270962:20120604:075107:BLANK !!:11
001:0015685005:20120604:075109:BLANK !!:11
001:0015693718:20120604:075113:BLANK !!:11
001:0010549433:20120604:075143:BLANK !!:11
001:0015689920:20120604:075146:BLANK !!:11
001:0009369521:20120604:075150:BLANK !!:11
001:0002289438:20120604:075152:BLANK !!:11
001:0013893990:20120604:075154:BLANK !!:11
001:0002273808:20120604:075156:BLANK !!:11
001:0013900625:20120604:075158:BLANK !!:11
001:0006753998:20120604:075200:BLANK !!:11
001:0002271494:20120604:075202:BLANK !!:11
001:0015690234:20120604:075205:BLANK !!:11
001:0009350673:20120604:075209:BLANK !!:11
001:0013878382:20120604:075211:BLANK !!:11
001:0015674317:20120604:075214:BLANK !!:11
001:0013886127:20120604:075216:BLANK !!:11
001:0004619983:20120604:075219:BLANK !!:11
001:0013935114:20120604:075221:BLANK !!:11
001:0009361055:20120604:075224:BLANK !!:11
001:0013895851:20120604:075226:BLANK !!:11
001:0009371413:20120604:075229:BLANK !!:11
001:0009363041:20120604:075232:BLANK !!:11
001:0010547997:20120604:075239:BLANK !!:11
001:0015689962:20120604:075242:BLANK !!:11
001:0009358046:20120604:075245:BLANK !!:11
001:0009360116:20120604:075247:BLANK !!:11
001:0013880789:20120604:075249:BLANK !!:11
001:0015697731:20120604:075251:BLANK !!:11
001:0013952741:20120604:075253:BLANK !!:11
001:0015696269:20120604:075255:BLANK !!:11
001:0015688160:20120604:075258:BLANK !!:11
001:0015682819:20120604:075300:BLANK !!:11
001:0013897049:20120604:075303:BLANK !!:11
001:0009364108:20120604:075305:BLANK !!:11
001:0002293868:20120604:075307:BLANK !!:11
001:0013940479:20120604:075309:BLANK !!:11
001:0013887862:20120604:075312:BLANK !!:11
001:0009320970:20120604:075318:BLANK !!:11
001:0015698466:20120604:075320:BLANK !!:11
001:0013883591:20120604:075322:BLANK !!:11
001:0010542279:20120604:075325:BLANK !!:11
001:0010549402:20120604:075327:BLANK !!:11
001:0003117930:20120604:075330:BLANK !!:11
001:0006750042:20120604:075333:BLANK !!:11
001:0004620445:20120604:075335:BLANK !!:11
001:0013878044:20120604:075342:BLANK !!:11
001:0006760214:20120604:075345:BLANK !!:11
001:0009368209:20120604:075350:BLANK !!:11
001:0002294646:20120604:075353:BLANK !!:11
001:0010550890:20120604:075355:BLANK !!:11
001:0015698029:20120604:075359:BLANK !!:11
001:0015674443:20120604:075402:BLANK !!:11
001:0006754257:20120604:075404:BLANK !!:11
001:0015688510:20120604:075407:BLANK !!:11
001:0015692449:20120604:075411:BLANK !!:11
001:0010549454:20120604:075413:BLANK !!:11
001:0010544149:20120604:075415:BLANK !!:11
001:0010528475:20120604:075417:BLANK !!:11
001:0010550709:20120604:075420:BLANK !!:11
001:0004631652:20120604:075424:BLANK !!:11
001:0010551185:20120604:075449:BLANK !!:11
001:0010549371:20120604:075452:BLANK !!:11
001:0013877389:20120604:075456:BLANK !!:11
001:0013875297:20120604:075459:BLANK !!:11
001:0013874564:20120604:075502:BLANK !!:11
001:0010551136:20120604:075509:BLANK !!:11
001:0002290777:20120604:075511:BLANK !!:11
001:0009347993:20120604:075513:BLANK !!:11
001:0003116472:20120604:075516:BLANK !!:11
001:0009360756:20120604:075518:BLANK !!:11
001:0002276947:20120604:075522:BLANK !!:11
001:0010549428:20120604:075524:BLANK !!:11
001:0013890852:20120604:075527:BLANK !!:11
001:0002282243:20120604:075536:BLANK !!:11
001:0010549450:20120604:075539:BLANK !!:11
001:0015690200:20120604:075556:BLANK !!:11
001:0013883642:20120604:075558:BLANK !!:11
001:0000365093:20120604:075600:BLANK !!:11
001:0015694629:20120604:075602:BLANK !!:11
001:0015685006:20120604:075606:BLANK !!:11
001:0013875148:20120604:075610:BLANK !!:11
001:0015685385:20120604:075613:BLANK !!:11
001:0015691390:20120604:075615:BLANK !!:11
001:0010549767:20120604:075619:BLANK !!:11
001:0002277756:20120604:075657:BLANK !!:11
001:0004624478:20120604:075706:BLANK !!:11
001:0006755449:20120604:075712:BLANK !!:11
001:0002284416:20120604:075720:BLANK !!:11
001:0013897138:20120604:075733:BLANK !!:11
001:0015674575:20120604:075739:BLANK !!:11
001:0013929932:20120604:075749:BLANK !!:11
001:0013899674:20120604:075756:BLANK !!:11
001:0010535545:20120604:075803:BLANK !!:11
001:0003150394:20120604:075805:BLANK !!:11
001:0013893763:20120604:075853:BLANK !!:11
001:0009364321:20120604:080017:BLANK !!:11
001:0013879402:20120604:080100:BLANK !!:11
001:0013885080:20120604:080108:BLANK !!:11
001:0010540763:20120604:080109:BLANK !!:11
001:0010537681:20120604:080138:BLANK !!:11
001:0006760141:20120604:080258:BLANK !!:11
001:0010542101:20120604:080301:BLANK !!:11
001:0013881131:20120604:080307:BLANK !!:11
001:0002295364:20120604:080716:BLANK !!:11
001:0013889932:20120604:081155:BLANK !!:11
001:0010553521:20120604:081737:BLANK !!:11
001:0006750527:20120604:082018:BLANK !!:11
001:0013900664:20120604:082729:BLANK !!:11
001:0015688795:20120604:082943:BLANK !!:11
001:0009369519:20120604:083307:BLANK !!:11
001:0010634177:20120604:083310:BLANK !!:11
001:0006750419:20120604:083312:BLANK !!:11
001:0010533195:20120604:084006:BLANK !!:11
001:0013875043:20120604:084049:BLANK !!:11
001:0010644113:20120604:084955:BLANK !!:11
001:0013894250:20120604:085336:BLANK !!:11
001:0013896752:20120604:085340:BLANK !!:11
001:0013896958:20120604:085346:BLANK !!:11
001:0013881218:20120604:085349:BLANK !!:11
001:0006756113:20120604:085351:BLANK !!:11
001:0013880904:20120604:085355:BLANK !!:11
001:0013882358:20120604:085357:BLANK !!:11
001:0013888273:20120604:085359:BLANK !!:11
001:0013885371:20120604:085400:BLANK !!:11
001:0013900100:20120604:085411:BLANK !!:11
001:0013896432:20120604:085533:BLANK !!:11
001:0013901637:20120604:085842:BLANK !!:11
001:0013882945:20120604:085847:BLANK !!:11
001:0013896823:20120604:085856:BLANK !!:11
001:0013886572:20120604:085902:BLANK !!:11
001:0013886076:20120604:085904:BLANK !!:11
001:0013892922:20120604:085911:BLANK !!:11
001:0010550910:20120604:085958:BLANK !!:11
001:0006760116:20120604:090003:BLANK !!:11
001:0013885371:20120604:091934:BLANK !!:11
001:0006757638:20120604:093333:BLANK !!:11
001:0010547091:20120604:094531:BLANK !!:11
001:0013888865:20120604:100808:BLANK !!:11
001:0002276947:20120604:101957:BLANK !!:11
001:0013875043:20120604:102846:BLANK !!:11
001:0013888865:20120604:103306:BLANK !!:11
001:0006760116:20120604:105533:BLANK !!:11
001:0010644113:20120604:112203:BLANK !!:11
001:0006756113:20120604:115104:BLANK !!:11
001:0010550898:20120604:115222:BLANK !!:11
001:0010533195:20120604:120831:BLANK !!:11
001:0013884590:20120604:123010:BLANK !!:11
001:0009371127:20120604:123013:BLANK !!:11
001:0006751401:20120604:123015:BLANK !!:11
001:0013883458:20120604:123016:BLANK !!:11
001:0013900680:20120604:123018:BLANK !!:11
001:0013930013:20120604:123020:BLANK !!:11
001:0009364775:20120604:123022:BLANK !!:11
001:0013897942:20120604:123023:BLANK !!:11
001:0003101201:20120604:123025:BLANK !!:11
001:0010544149:20120604:123026:BLANK !!:11
001:0013883642:20120604:123028:BLANK !!:11
001:0013893763:20120604:123029:BLANK !!:11
001:0006754282:20120604:123031:BLANK !!:11
001:0010530367:20120604:123032:BLANK !!:11
001:0013900540:20120604:123034:BLANK !!:11
001:0013878009:20120604:123035:BLANK !!:11
001:0013929932:20120604:123038:BLANK !!:11
001:0006755185:20120604:123040:BLANK !!:11
001:0013894885:20120604:123042:BLANK !!:11
001:0006755519:20120604:123043:BLANK !!:11
001:0013888913:20120604:123045:BLANK !!:11
001:0004631014:20120604:123046:BLANK !!:11
001:0013899674:20120604:123048:BLANK !!:11
001:0013929932:20120604:123050:BLANK !!:11
001:0010530514:20120604:123051:BLANK !!:11
001:0013879037:20120604:123053:BLANK !!:11
001:0010530304:20120604:123054:BLANK !!:11
001:0013890035:20120604:123056:BLANK !!:11
001:0010549454:20120604:123058:BLANK !!:11
001:0010544167:20120604:123059:BLANK !!:11
001:0010549396:20120604:123101:BLANK !!:11
001:0013893990:20120604:123102:BLANK !!:11
001:0010547974:20120604:123104:BLANK !!:11
001:0013900625:20120604:123105:BLANK !!:11
001:0013881131:20120604:123107:BLANK !!:11
001:0013214375:20120604:123108:BLANK !!:11
001:0002285324:20120604:123110:BLANK !!:11
001:0006751519:20120604:123111:BLANK !!:11
001:0010551168:20120604:123113:BLANK !!:11
001:0013898707:20120604:123114:BLANK !!:11
001:0013887126:20120604:123116:BLANK !!:11
001:0010532545:20120604:123117:BLANK !!:11
001:0002267789:20120604:123119:BLANK !!:11
001:0010628117:20120604:123121:BLANK !!:11
001:0015696806:20120604:123122:BLANK !!:11
001:0002270146:20120604:123124:BLANK !!:11
001:0013879402:20120604:123126:BLANK !!:11
001:0006755449:20120604:123127:BLANK !!:11
001:0013886127:20120604:123129:BLANK !!:11
001:0013952446:20120604:123132:BLANK !!:11
001:0004631020:20120604:123135:BLANK !!:11
001:0010550306:20120604:123136:BLANK !!:11
001:0006755497:20120604:123138:BLANK !!:11
001:0004619983:20120604:123139:BLANK !!:11
001:0010549504:20120604:123142:BLANK !!:11
001:0006757851:20120604:123143:BLANK !!:11
001:0009354724:20120604:123145:BLANK !!:11
001:0010550707:20120604:123148:BLANK !!:11
001:0013952741:20120604:123150:BLANK !!:11
001:0015689962:20120604:123151:BLANK !!:11
001:0010551136:20120604:123153:BLANK !!:11
001:0010549567:20120604:123154:BLANK !!:11
001:0010549596:20120604:123156:BLANK !!:11
001:0010547997:20120604:123157:BLANK !!:11
001:0010549787:20120604:123200:BLANK !!:11
001:0015685385:20120604:123201:BLANK !!:11
001:0010549644:20120604:123203:BLANK !!:11
001:0010541183:20120604:123204:BLANK !!:11
001:0013897138:20120604:123206:BLANK !!:11
001:0006751998:20120604:123207:BLANK !!:11
001:0009364108:20120604:123209:BLANK !!:11
001:0010532210:20120604:123210:BLANK !!:11
001:0010546752:20120604:123212:BLANK !!:11
001:0015674317:20120604:123213:BLANK !!:11
001:0006758261:20120604:123215:BLANK !!:11
001:0010549428:20120604:123216:BLANK !!:11
001:0015697731:20120604:123218:BLANK !!:11
001:0009348592:20120604:123219:BLANK !!:11
001:0006753948:20120604:123221:BLANK !!:11
001:0015698466:20120604:123222:BLANK !!:11
001:0002282243:20120604:123224:BLANK !!:11
001:0006756914:20120604:123225:BLANK !!:11
001:0002270962:20120604:123227:BLANK !!:11
001:0013897124:20120604:123228:BLANK !!:11
001:0015688809:20120604:123230:BLANK !!:11
001:0002292481:20120604:123232:BLANK !!:11
001:0003117697:20120604:123234:BLANK !!:11
001:0002294278:20120604:123236:BLANK !!:11
001:0015697397:20120604:123238:BLANK !!:11
001:0009363039:20120604:123240:BLANK !!:11
001:0013875297:20120604:123242:BLANK !!:11
001:0013880789:20120604:123245:BLANK !!:11
001:0006753998:20120604:123247:BLANK !!:11
001:0013880536:20120604:123248:BLANK !!:11
001:0013901179:20120604:123251:BLANK !!:11
001:0006758961:20120604:123254:BLANK !!:11
001:0013877112:20120604:123256:BLANK !!:11
001:0002294646:20120604:123258:BLANK !!:11
001:0009364804:20120604:123259:BLANK !!:11
001:0015691390:20120604:123301:BLANK !!:11
001:0000365093:20120604:123302:BLANK !!:11
001:0015689920:20120604:123306:BLANK !!:11
001:0002274131:20120604:123307:BLANK !!:11
001:0013882456:20120604:123309:BLANK !!:11
001:0009364806:20120604:123311:BLANK !!:11
001:0010549455:20120604:123313:BLANK !!:11
001:0015690200:20120604:123316:BLANK !!:11
001:0010553833:20120604:123318:BLANK !!:11
001:0009361055:20120604:123319:BLANK !!:11
001:0002290081:20120604:123320:BLANK !!:11
001:0010537779:20120604:123322:BLANK !!:11
001:0015685006:20120604:123323:BLANK !!:11
001:0009364324:20120604:123325:BLANK !!:11
001:0009369518:20120604:123326:BLANK !!:11
001:0009350673:20120604:123328:BLANK !!:11
001:0002289438:20120604:123330:BLANK !!:11
001:0009357241:20120604:123334:BLANK !!:11
001:0013888628:20120604:123335:BLANK !!:11
001:0002268007:20120604:123337:BLANK !!:11
001:0013875148:20120604:123338:BLANK !!:11
001:0013895851:20120604:123339:BLANK !!:11
001:0015688160:20120604:123341:BLANK !!:11
001:0013897049:20120604:123343:BLANK !!:11
001:0009360755:20120604:123344:BLANK !!:11
001:0004631652:20120604:123346:BLANK !!:11
001:0009358046:20120604:123348:BLANK !!:11
001:0002277756:20120604:123350:BLANK !!:11
001:0003117930:20120604:123352:BLANK !!:11
001:0009360116:20120604:123353:BLANK !!:11
001:0010542279:20120604:123355:BLANK !!:11
001:0009350670:20120604:123356:BLANK !!:11
001:0015696870:20120604:123358:BLANK !!:11
001:0002293780:20120604:123400:BLANK !!:11
001:0009354725:20120604:123402:BLANK !!:11
001:0002268037:20120604:123404:BLANK !!:11
001:0010552986:20120604:123405:BLANK !!:11
001:0010540274:20120604:123409:BLANK !!:11
001:0009347993:20120604:123410:BLANK !!:11
001:0009360756:20120604:123412:BLANK !!:11
001:0006753823:20120604:123413:BLANK !!:11
001:0009365681:20120604:123416:BLANK !!:11
001:0015694629:20120604:123417:BLANK !!:11
001:0010538695:20120604:123419:BLANK !!:11
001:0015689937:20120604:123420:BLANK !!:11
001:0004620445:20120604:123422:BLANK !!:11
001:0015682819:20120604:123423:BLANK !!:11
001:0013878044:20120604:123425:BLANK !!:11
001:0002290777:20120604:123426:BLANK !!:11
001:0006750042:20120604:123428:BLANK !!:11
001:0015697358:20120604:123429:BLANK !!:11
001:0009369516:20120604:123431:BLANK !!:11
001:0013897282:20120604:123433:BLANK !!:11
001:0010539352:20120604:123435:BLANK !!:11
001:0009350669:20120604:123439:BLANK !!:11
001:0015782013:20120604:123444:BLANK !!:11
001:0010549407:20120604:123447:BLANK !!:11
001:0010539435:20120604:123448:BLANK !!:11
001:0002291755:20120604:123450:BLANK !!:11
001:0000365148:20120604:123452:BLANK !!:11
001:0006760214:20120604:123454:BLANK !!:11
001:0002271494:20120604:123456:BLANK !!:11
001:0002292068:20120604:123457:BLANK !!:11
001:0015674443:20120604:123508:BLANK !!:11
001:0010544368:20120604:123513:BLANK !!:11
001:0010533341:20120604:123515:BLANK !!:11
001:0003150394:20120604:123519:BLANK !!:11
001:0013896080:20120604:123521:BLANK !!:11
001:0013874960:20120604:123525:BLANK !!:11
001:0013881426:20120604:123539:BLANK !!:11
001:0010554314:20120604:123541:BLANK !!:11
001:0009371131:20120604:123547:BLANK !!:11
001:0010550678:20120604:123549:BLANK !!:11
001:0015693682:20120604:123610:BLANK !!:11
001:0006759918:20120604:123641:BLANK !!:11
001:0009366722:20120604:123648:BLANK !!:11
001:0013874564:20120604:123756:BLANK !!:11
001:0015682735:20120604:123815:BLANK !!:11
001:0010550910:20120604:123846:BLANK !!:11
001:0010549748:20120604:124010:BLANK !!:11
001:0010554314:20120604:124013:BLANK !!:11
001:0013881426:20120604:124015:BLANK !!:11
001:0002291755:20120604:124031:BLANK !!:11
001:0010539435:20120604:124033:BLANK !!:11
001:0009360049:20120604:124105:BLANK !!:11
001:0003102332:20120604:124519:BLANK !!:11
001:0010551115:20120604:124618:BLANK !!:11
001:0010535545:20120604:125236:BLANK !!:11
001:0013874564:20120604:125615:BLANK !!:11
001:0010550910:20120604:125618:BLANK !!:11
001:0013935114:20120604:125622:BLANK !!:11
001:0013940479:20120604:125626:BLANK !!:11
001:0002267789:20120604:125928:BLANK !!:11
001:0010549454:20120604:130114:BLANK !!:11
001:0015690234:20120604:130250:BLANK !!:11
001:0013887437:20120604:130309:BLANK !!:11
001:0006751998:20120604:130312:BLANK !!:11
001:0013893682:20120604:130330:BLANK !!:11
001:0013900540:20120604:130412:BLANK !!:11
001:0010530514:20120604:130513:BLANK !!:11
001:0015698029:20120604:130533:BLANK !!:11
001:0013901179:20120604:130605:BLANK !!:11
001:0006751401:20120604:130748:BLANK !!:11
001:0013879402:20120604:130905:BLANK !!:11
001:0006757851:20120604:130936:BLANK !!:11
001:0010530367:20120604:131010:BLANK !!:11
001:0002294278:20120604:131036:BLANK !!:11
001:0010628117:20120604:131123:BLANK !!:11
001:0013890035:20120604:131124:BLANK !!:11
001:0013898707:20120604:131126:BLANK !!:11
001:0010535545:20120604:131129:BLANK !!:11
001:0002268037:20120604:131147:BLANK !!:11
001:0002293780:20120604:131149:BLANK !!:11
001:0010533341:20120604:131210:BLANK !!:11
001:0010544368:20120604:131213:BLANK !!:11
001:0009360755:20120604:131216:BLANK !!:11
001:0002285324:20120604:131231:BLANK !!:11
001:0010549644:20120604:131300:BLANK !!:11
001:0010549504:20120604:131327:BLANK !!:11
001:0015688160:20120604:131433:BLANK !!:11
001:0015682819:20120604:131436:BLANK !!:11
001:0013897049:20120604:131438:BLANK !!:11
001:0015697397:20120604:131444:BLANK !!:11
001:0003117697:20120604:131448:BLANK !!:11
001:0010549455:20120604:131453:BLANK !!:11
001:0006751519:20120604:131500:BLANK !!:11
001:0004631020:20120604:131504:BLANK !!:11
001:0002290081:20120604:131505:BLANK !!:11
001:0006759918:20120604:131508:BLANK !!:11
001:0002274131:20120604:131516:BLANK !!:11
001:0009361055:20120604:131520:BLANK !!:11
001:0006753998:20120604:131532:BLANK !!:11
001:0009350673:20120604:131535:BLANK !!:11
001:0013878382:20120604:131538:BLANK !!:11
001:0009364775:20120604:131557:BLANK !!:11
001:0010553833:20120604:131626:BLANK !!:11
001:0010551115:20120604:131637:BLANK !!:11
001:0013896430:20120604:131640:BLANK !!:11
001:0013930013:20120604:131721:BLANK !!:11
001:0010539352:20120604:131801:BLANK !!:11
001:0006758261:20120604:131803:BLANK !!:11
001:0009369516:20120604:131805:BLANK !!:11
001:0013900680:20120604:131808:BLANK !!:11
001:0006759131:20120604:131810:BLANK !!:11
001:0010530304:20120604:131821:BLANK !!:11
001:0013884770:20120604:131823:BLANK !!:11
001:0002292481:20120604:131826:BLANK !!:11
001:0013214375:20120604:131830:BLANK !!:11
001:0009364804:20120604:131832:BLANK !!:11
001:0010547974:20120604:131843:BLANK !!:11
001:0013897942:20120604:131847:BLANK !!:11
001:0006753948:20120604:131851:BLANK !!:11
001:0009348592:20120604:131853:BLANK !!:11
001:0015674443:20120604:131857:BLANK !!:11
001:0009354725:20120604:131900:BLANK !!:11
001:0013952741:20120604:131904:BLANK !!:11
001:0010550306:20120604:131925:BLANK !!:11
001:0013879037:20120604:131930:BLANK !!:11
001:0009371131:20120604:131951:BLANK !!:11
001:0010550678:20120604:131954:BLANK !!:11
001:0013900625:20120604:131956:BLANK !!:11
001:0013878009:20120604:131958:BLANK !!:11
001:0015689962:20120604:132001:BLANK !!:11
001:0002270146:20120604:132003:BLANK !!:11
001:0002270962:20120604:132007:BLANK !!:11
001:0013888913:20120604:132029:BLANK !!:11
001:0010542279:20120604:132043:BLANK !!:11
001:0015698466:20120604:132045:BLANK !!:11
001:0006755519:20120604:132047:BLANK !!:11
001:0010550890:20120604:132057:BLANK !!:11
001:0010541183:20120604:132102:BLANK !!:11
001:0009354724:20120604:132105:BLANK !!:11
001:0002271494:20120604:132107:BLANK !!:11
001:0009363039:20120604:132111:BLANK !!:11
001:0010532545:20120604:132116:BLANK !!:11
001:0013877112:20120604:132119:BLANK !!:11
001:0009371127:20120604:132121:BLANK !!:11
001:0015696806:20120604:132124:BLANK !!:11
001:0009357241:20120604:132126:BLANK !!:11
001:0013897138:20120604:132129:BLANK !!:11
001:0015697358:20120604:132131:BLANK !!:11
001:0013888628:20120604:132134:BLANK !!:11
001:0009320970:20120604:132137:BLANK !!:11
001:0013952446:20120604:132152:BLANK !!:11
001:0015693682:20120604:132201:BLANK !!:11
001:0003150394:20120604:132203:BLANK !!:11
001:0006755497:20120604:132210:BLANK !!:11
001:0010544167:20120604:132220:BLANK !!:11
001:0013886127:20120604:132224:BLANK !!:11
001:0010549787:20120604:132227:BLANK !!:11
001:0010549428:20120604:132230:BLANK !!:11
001:0013900664:20120604:132236:BLANK !!:11
001:0013884590:20120604:132240:BLANK !!:11
001:0010544149:20120604:132243:BLANK !!:11
001:0013893990:20120604:132254:BLANK !!:11
001:0013894885:20120604:132304:BLANK !!:11
001:0006760214:20120604:132320:BLANK !!:11
001:0013880536:20120604:132328:BLANK !!:11
001:0000365148:20120604:132332:BLANK !!:11
001:0000365093:20120604:132334:BLANK !!:11
001:0003117930:20120604:132336:BLANK !!:11
001:0002277756:20120604:132338:BLANK !!:11
001:0010552986:20120604:132342:BLANK !!:11
001:0013894712:20120604:132345:BLANK !!:11
001:0013933226:20120604:132349:BLANK !!:11
001:0004631652:20120604:132352:BLANK !!:11
001:0009365681:20120604:132354:BLANK !!:11
001:0002294646:20120604:132357:BLANK !!:11
001:0004631014:20120604:132407:BLANK !!:11
001:0013899674:20120604:132410:BLANK !!:11
001:0003102332:20120604:132414:BLANK !!:11
001:0009364324:20120604:132420:BLANK !!:11
001:0013875148:20120604:132423:BLANK !!:11
001:0013875297:20120604:132429:BLANK !!:11
001:0006756914:20120604:132437:BLANK !!:11
001:0010549396:20120604:132440:BLANK !!:11
001:0015689920:20120604:132444:BLANK !!:11
001:0010532210:20120604:132447:BLANK !!:11
001:0010546752:20120604:132449:BLANK !!:11
001:0015674317:20120604:132451:BLANK !!:11
001:0015696870:20120604:132453:BLANK !!:11
001:0003101201:20120604:132455:BLANK !!:11
001:0010549596:20120604:132457:BLANK !!:11
001:0013887126:20120604:132506:BLANK !!:11
001:0006758961:20120604:132509:BLANK !!:11
001:0015782013:20120604:132513:BLANK !!:11
001:0015682735:20120604:132516:BLANK !!:11
001:0013874960:20120604:132517:BLANK !!:11
001:0009360458:20120604:132519:BLANK !!:11
001:0002282243:20120604:132521:BLANK !!:11
001:0013882456:20120604:132523:BLANK !!:11
001:0009364806:20120604:132524:BLANK !!:11
001:0010551168:20120604:132529:BLANK !!:11
001:0006755185:20120604:132531:BLANK !!:11
001:0013929932:20120604:132533:BLANK !!:11
001:0013897282:20120604:132534:BLANK !!:11
001:0009347993:20120604:132541:BLANK !!:11
001:0000365380:20120604:132543:BLANK !!:11
001:0013895851:20120604:132546:BLANK !!:11
001:0010549567:20120604:132549:BLANK !!:11
001:0002289438:20120604:132551:BLANK !!:11
001:0013896080:20120604:132555:BLANK !!:11
001:0015691390:20120604:132558:BLANK !!:11
001:0009369518:20120604:132559:BLANK !!:11
001:0013880789:20120604:132603:BLANK !!:11
001:0015685006:20120604:132608:BLANK !!:11
001:0015694629:20120604:132610:BLANK !!:11
001:0006754282:20120604:132616:BLANK !!:11
001:0002290777:20120604:132627:BLANK !!:11
001:0009360756:20120604:132631:BLANK !!:11
001:0009360116:20120604:132634:BLANK !!:11
001:0009358046:20120604:132636:BLANK !!:11
001:0002268007:20120604:132638:BLANK !!:11
001:0009350670:20120604:132639:BLANK !!:11
001:0013897124:20120604:132652:BLANK !!:11
001:0010540274:20120604:132654:BLANK !!:11
001:0009363103:20120604:132657:BLANK !!:11
001:0013894940:20120604:132658:BLANK !!:11
001:0004620445:20120604:132700:BLANK !!:11
001:0010547997:20120604:132703:BLANK !!:11
001:0015689937:20120604:132705:BLANK !!:11
001:0010549748:20120604:132710:BLANK !!:11
001:0010549407:20120604:132716:BLANK !!:11
001:0009357239:20120604:132719:BLANK !!:11
001:0015697731:20120604:132727:BLANK !!:11
001:0002292068:20120604:132729:BLANK !!:11
001:0009364108:20120604:132733:BLANK !!:11
001:0013883642:20120604:132735:BLANK !!:11
001:0010537779:20120604:132737:BLANK !!:11
001:0009350669:20120604:132740:BLANK !!:11
001:0015685385:20120604:132742:BLANK !!:11
001:0015688809:20120604:132748:BLANK !!:11
001:0010550709:20120604:132753:BLANK !!:11
001:0013935114:20120604:132756:BLANK !!:11
001:0013940479:20120604:132758:BLANK !!:11
001:0004619983:20120604:132805:BLANK !!:11
001:0010550707:20120604:132815:BLANK !!:11
001:0013893763:20120604:132929:BLANK !!:11
001:0013883458:20120604:132935:BLANK !!:11
001:0002292541:20120604:132945:BLANK !!:11
001:0006753823:20120604:132949:BLANK !!:11
001:0010538695:20120604:132950:BLANK !!:11
001:0013892286:20120604:133025:BLANK !!:11
001:0009366722:20120604:133032:BLANK !!:11
001:0006750042:20120604:133039:BLANK !!:11
001:0006755449:20120604:133138:BLANK !!:11
001:0013881131:20120604:133204:BLANK !!:11
001:0010547320:20120604:133207:BLANK !!:11
001:0010551185:20120604:133209:BLANK !!:11
001:0013877389:20120604:133211:BLANK !!:11
001:0010549433:20120604:133419:BLANK !!:11
001:0002293868:20120604:133422:BLANK !!:11
001:0013878044:20120604:133556:BLANK !!:11
001:0010550889:20120604:133846:BLANK !!:11
001:0015690234:20120604:134733:BLANK !!:11
001:0013882945:20120604:134847:BLANK !!:11
001:0015698029:20120604:135919:BLANK !!:11
001:0013900664:20120604:140836:BLANK !!:11
001:0010533195:20120604:140840:BLANK !!:11
001:0002292541:20120604:141005:BLANK !!:11
001:0003150394:20120604:141741:BLANK !!:11
001:0010547320:20120604:141936:BLANK !!:11
001:0010550355:20120604:142408:BLANK !!:11
001:0010551185:20120604:142454:BLANK !!:11
001:0013877389:20120604:142457:BLANK !!:11
001:0002293868:20120604:142824:BLANK !!:11
001:0010549433:20120604:142829:BLANK !!:11
001:0010550889:20120604:143736:BLANK !!:11
001:0010551140:20120604:150442:BLANK !!:11
001:0010644113:20120604:155634:BLANK !!:11
001:0013890035:20120604:170145:BLANK !!:11
001:0006756914:20120604:170155:BLANK !!:11
001:0013901179:20120604:170159:BLANK !!:11
001:0002282143:20120604:170206:BLANK !!:11
001:0006755185:20120604:170208:BLANK !!:11
001:0015698466:20120604:170221:BLANK !!:11
001:0013894940:20120604:170223:BLANK !!:11
001:0010532210:20120604:170224:BLANK !!:11
001:0013893763:20120604:170252:BLANK !!:11
001:0002277756:20120604:170315:BLANK !!:11
001:0003117930:20120604:170317:BLANK !!:11
001:0002294278:20120604:170319:BLANK !!:11
001:0010542279:20120604:170321:BLANK !!:11
001:0013879037:20120604:170323:BLANK !!:11
001:0010549454:20120604:170327:BLANK !!:11
001:0006753998:20120604:170335:BLANK !!:11
001:0015693718:20120604:170338:BLANK !!:11
001:0009369518:20120604:170342:BLANK !!:11
001:0010549402:20120604:170343:BLANK !!:11
001:0013887499:20120604:170352:BLANK !!:11
001:0010549787:20120604:170355:BLANK !!:11
001:0013878009:20120604:170430:BLANK !!:11
001:0006754257:20120604:170519:BLANK !!:11
001:0010537681:20120604:170540:BLANK !!:11
001:0009368209:20120604:170542:BLANK !!:11
001:0009364773:20120604:170648:BLANK !!:11
001:0010537779:20120604:170650:BLANK !!:11
001:0002293868:20120604:170846:BLANK !!:11
001:0013890852:20120604:171019:BLANK !!:11
001:0013952741:20120604:171447:BLANK !!:11
001:0013874564:20120604:171549:BLANK !!:11
001:0013875043:20120604:171843:BLANK !!:11
001:0013888865:20120604:172214:BLANK !!:11
001:0015674443:20120604:172412:BLANK !!:11
001:0010644113:20120604:173226:BLANK !!:11
001:0010651256:20120604:180102:BLANK !!:11
001:0010550910:20120604:180235:BLANK !!:11
001:0013886076:20120604:180639:BLANK !!:11
001:0013889932:20120604:180641:BLANK !!:11
001:0010535545:20120604:180826:BLANK !!:11
001:0003150394:20120604:180829:BLANK !!:11
001:0013896823:20120604:180951:BLANK !!:11
001:0013882358:20120604:181027:BLANK !!:11
001:0013888273:20120604:181030:BLANK !!:11
001:0010533195:20120604:181032:BLANK !!:11
001:0013894250:20120604:181530:BLANK !!:11
001:0010549740:20120604:181801:BLANK !!:11
001:0013900100:20120604:181830:BLANK !!:11
001:0013875043:20120604:181951:BLANK !!:11
001:0013892922:20120604:182004:BLANK !!:11
001:0013886572:20120604:182011:BLANK !!:11
001:0013901637:20120604:182014:BLANK !!:11
001:0013896958:20120604:183330:BLANK !!:11
001:0013896752:20120604:183332:BLANK !!:11
001:0013881218:20120604:183338:BLANK !!:11
001:0013896432:20120604:185447:BLANK !!:11
001:0006754204:20120604:193021:BLANK !!:11
001:0015688795:20120604:193239:BLANK !!:11
001:0006760141:20120604:193249:BLANK !!:11
001:0009364774:20120604:193554:BLANK !!:11
001:0006750527:20120604:193657:BLANK !!:11
001:0002273235:20120604:193916:BLANK !!:11
001:0002290144:20120604:194506:BLANK !!:11
001:0010550340:20120604:194558:BLANK !!:11
001:0006752093:20120604:194608:BLANK !!:11
001:0010549697:20120604:194613:BLANK !!:11
001:0015684972:20120604:194808:BLANK !!:11
001:0010634177:20120604:195011:BLANK !!:11
001:0010549386:20120604:195204:BLANK !!:11
001:0009359710:20120604:195208:BLANK !!:11
001:0010542101:20120604:195304:BLANK !!:11
001:0010551210:20120604:195817:BLANK !!:11
001:0013875397:20120604:195828:BLANK !!:11
001:0013880904:20120604:200254:BLANK !!:11
001:0006755519:20120604:203018:BLANK !!:11
001:0013900680:20120604:203020:BLANK !!:11
001:0010530304:20120604:203021:BLANK !!:11
001:0013894885:20120604:203023:BLANK !!:11
001:0013900540:20120604:203025:BLANK !!:11
001:0006751401:20120604:203026:BLANK !!:11
001:0013888913:20120604:203028:BLANK !!:11
001:0013884590:20120604:203029:BLANK !!:11
001:0010547974:20120604:203031:BLANK !!:11
001:0006759131:20120604:203033:BLANK !!:11
001:0010549884:20120604:203036:BLANK !!:11
001:0006759918:20120604:203038:BLANK !!:11
001:0015693682:20120604:203039:BLANK !!:11
001:0013952446:20120604:203041:BLANK !!:11
001:0013884770:20120604:203043:BLANK !!:11
001:0015685005:20120604:203045:BLANK !!:11
001:0013883642:20120604:203047:BLANK !!:11
001:0010530367:20120604:203050:BLANK !!:11
001:0004619983:20120604:203051:BLANK !!:11
001:0013893990:20120604:203101:BLANK !!:11
001:0009364321:20120604:203103:BLANK !!:11
001:0006751519:20120604:203105:BLANK !!:11
001:0006753686:20120604:203106:BLANK !!:11
001:0010553833:20120604:203108:BLANK !!:11
001:0013930013:20120604:203109:BLANK !!:11
001:0013883458:20120604:203111:BLANK !!:11
001:0002267789:20120604:203112:BLANK !!:11
001:0010539061:20120604:203114:BLANK !!:11
001:0006754282:20120604:203117:BLANK !!:11
001:0013896080:20120604:203120:BLANK !!:11
001:0013897942:20120604:203122:BLANK !!:11
001:0010549396:20120604:203124:BLANK !!:11
001:0013929932:20120604:203127:BLANK !!:11
001:0013886127:20120604:203130:BLANK !!:11
001:0002270146:20120604:203133:BLANK !!:11
001:0013894338:20120604:203135:BLANK !!:11
001:0010532545:20120604:203136:BLANK !!:11
001:0009364775:20120604:203138:BLANK !!:11
001:0010549596:20120604:203140:BLANK !!:11
001:0009348592:20120604:203141:BLANK !!:11
001:0013878180:20120604:203143:BLANK !!:11
001:0010551136:20120604:203144:BLANK !!:11
001:0010546752:20120604:203146:BLANK !!:11
001:0013897138:20120604:203147:BLANK !!:11
001:0015697731:20120604:203149:BLANK !!:11
001:0013900625:20120604:203150:BLANK !!:11
001:0006757851:20120604:203154:BLANK !!:11
001:0013894712:20120604:203155:BLANK !!:11
001:0009371127:20120604:203158:BLANK !!:11
001:0010544167:20120604:203200:BLANK !!:11
001:0013887126:20120604:203201:BLANK !!:11
001:0009363103:20120604:203203:BLANK !!:11
001:0015696806:20120604:203205:BLANK !!:11
001:0009364108:20120604:203206:BLANK !!:11
001:0006757082:20120604:203208:BLANK !!:11
001:0013885080:20120604:203209:BLANK !!:11
001:0010531624:20120604:203211:BLANK !!:11
001:0013889730:20120604:203213:BLANK !!:11
001:0003116472:20120604:203215:BLANK !!:11
001:0010550306:20120604:203218:BLANK !!:11
001:0000683571:20120604:203220:BLANK !!:11
001:0010549767:20120604:203222:BLANK !!:11
001:0013896494:20120604:203225:BLANK !!:11
001:0006755461:20120604:203227:BLANK !!:11
001:0002267666:20120604:203229:BLANK !!:11
001:0010540763:20120604:203231:BLANK !!:11
001:0013899674:20120604:203234:BLANK !!:11
001:0013875297:20120604:203235:BLANK !!:11
001:0013887437:20120604:203237:BLANK !!:11
001:0010549433:20120604:203240:BLANK !!:11
001:0015688809:20120604:203243:BLANK !!:11
001:0010550709:20120604:203245:BLANK !!:11
001:0015674317:20120604:203248:BLANK !!:11
001:0009369521:20120604:203251:BLANK !!:11
001:0010547997:20120604:203252:BLANK !!:11
001:0009363039:20120604:203254:BLANK !!:11
001:0010541183:20120604:203257:BLANK !!:11
001:0002282243:20120604:203259:BLANK !!:11
001:0000365380:20120604:203301:BLANK !!:11
001:0010544368:20120604:203303:BLANK !!:11
001:0010550890:20120604:203305:BLANK !!:11
001:0015685385:20120604:203307:BLANK !!:11
001:0006758961:20120604:203311:BLANK !!:11
001:0013214375:20120604:203313:BLANK !!:11
001:0009357239:20120604:203315:BLANK !!:11
001:0013879402:20120604:203316:BLANK !!:11
001:0009356502:20120604:203318:BLANK !!:11
001:0013895851:20120604:203319:BLANK !!:11
001:0015682735:20120604:203321:BLANK !!:11
001:0006758431:20120604:203322:BLANK !!:11
001:0013900745:20120604:203324:BLANK !!:11
001:0010530514:20120604:203325:BLANK !!:11
001:0002273808:20120604:203328:BLANK !!:11
001:0010549371:20120604:203330:BLANK !!:11
001:0009354724:20120604:203334:BLANK !!:11
001:0013877389:20120604:203335:BLANK !!:11
001:0010551185:20120604:203337:BLANK !!:11
001:0006755449:20120604:203338:BLANK !!:11
001:0004631020:20120604:203340:BLANK !!:11
001:0010547320:20120604:203341:BLANK !!:11
001:0013882456:20120604:203343:BLANK !!:11
001:0010549455:20120604:203344:BLANK !!:11
001:0010547087:20120604:203346:BLANK !!:11
001:0002294646:20120604:203349:BLANK !!:11
001:0015689920:20120604:203352:BLANK !!:11
001:0010554314:20120604:203354:BLANK !!:11
001:0013875148:20120604:203355:BLANK !!:11
001:0009361055:20120604:203358:BLANK !!:11
001:0009360458:20120604:203400:BLANK !!:11
001:0009364806:20120604:203401:BLANK !!:11
001:0010549766:20120604:203403:BLANK !!:11
001:0013896430:20120604:203404:BLANK !!:11
001:0002274545:20120604:203406:BLANK !!:11
001:0009360755:20120604:203407:BLANK !!:11
001:0003110988:20120604:203409:BLANK !!:11
001:0002290826:20120604:203412:BLANK !!:11
001:0003117697:20120604:203413:BLANK !!:11
001:0015696269:20120604:203415:BLANK !!:11
001:0002292541:20120604:203416:BLANK !!:11
001:0015688510:20120604:203418:BLANK !!:11
001:0015691390:20120604:203420:BLANK !!:11
001:0013880789:20120604:203421:BLANK !!:11
001:0009365681:20120604:203423:BLANK !!:11
001:0009350670:20120604:203424:BLANK !!:11
001:0004631652:20120604:203426:BLANK !!:11
001:0013898707:20120604:203428:BLANK !!:11
001:0003115319:20120604:203430:BLANK !!:11
001:0006751998:20120604:203431:BLANK !!:11
001:0009360116:20120604:203433:BLANK !!:11
001:0009358046:20120604:203434:BLANK !!:11
001:0009368404:20120604:203436:BLANK !!:11
001:0015685006:20120604:203441:BLANK !!:11
001:0009364324:20120604:203443:BLANK !!:11
001:0003102332:20120604:203444:BLANK !!:11
001:0010549567:20120604:203447:BLANK !!:11
001:0010539435:20120604:203448:BLANK !!:11
001:0002291755:20120604:203450:BLANK !!:11
001:0015674575:20120604:203452:BLANK !!:11
001:0009364804:20120604:203453:BLANK !!:11
001:0000365093:20120604:203455:BLANK !!:11
001:0013878129:20120604:203456:BLANK !!:11
001:0002291294:20120604:203458:BLANK !!:11
001:0010549428:20120604:203459:BLANK !!:11
001:0010540274:20120604:203502:BLANK !!:11
001:0013881426:20120604:203504:BLANK !!:11
001:0010549407:20120604:203505:BLANK !!:11
001:0002268007:20120604:203507:BLANK !!:11
001:0013878382:20120604:203509:BLANK !!:11
001:0009350673:20120604:203510:BLANK !!:11
001:0015689937:20120604:203512:BLANK !!:11
001:0013935114:20120604:203515:BLANK !!:11
001:0010653054:20120604:203517:BLANK !!:11
001:0010538695:20120604:203519:BLANK !!:11
001:0015697397:20120604:203521:BLANK !!:11
001:0006753823:20120604:203523:BLANK !!:11
001:0009363041:20120604:203524:BLANK !!:11
001:0002270962:20120604:203526:BLANK !!:11
001:0013897282:20120604:203527:BLANK !!:11
001:0015689962:20120604:203528:BLANK !!:11
001:0009369516:20120604:203530:BLANK !!:11
001:0002293780:20120604:203531:BLANK !!:11
001:0002290081:20120604:203533:BLANK !!:11
001:0002268037:20120604:203535:BLANK !!:11
001:0002282162:20120604:203536:BLANK !!:11
001:0006758261:20120604:203538:BLANK !!:11
001:0009364805:20120604:203539:BLANK !!:11
001:0010628117:20120604:203541:BLANK !!:11
001:0010550707:20120604:203542:BLANK !!:11
001:0013891964:20120604:203544:BLANK !!:11
001:0013881131:20120604:203545:BLANK !!:11
001:0009347994:20120604:203547:BLANK !!:11
001:0010534521:20120604:203550:BLANK !!:11
001:0009360756:20120604:203552:BLANK !!:11
001:0010551155:20120604:203554:BLANK !!:11
001:0010548132:20120604:203555:BLANK !!:11
001:0013878044:20120604:203557:BLANK !!:11
001:0013900030:20120604:203559:BLANK !!:11
001:0015697358:20120604:203602:BLANK !!:11
001:0015696870:20120604:203604:BLANK !!:11
001:0010538666:20120604:203606:BLANK !!:11
001:0009350669:20120604:203608:BLANK !!:11
001:0013889930:20120604:203610:BLANK !!:11
001:0013897049:20120604:203611:BLANK !!:11
001:0015682819:20120604:203613:BLANK !!:11
001:0009354725:20120604:203615:BLANK !!:11
001:0015688160:20120604:203616:BLANK !!:11
001:0010533341:20120604:203618:BLANK !!:11
001:0010550678:20120604:203619:BLANK !!:11
001:0002290777:20120604:203621:BLANK !!:11
001:0013940479:20120604:203623:BLANK !!:11
001:0013874099:20120604:203624:BLANK !!:11
001:0010549504:20120604:203626:BLANK !!:11
001:0010550294:20120604:203628:BLANK !!:11
001:0002270614:20120604:203631:BLANK !!:11
001:0006755497:20120604:203634:BLANK !!:11
001:0015691426:20120604:203637:BLANK !!:11
001:0009366722:20120604:203640:BLANK !!:11
001:0002292481:20120604:203641:BLANK !!:11
001:0009347993:20120604:203643:BLANK !!:11
001:0004624478:20120604:203645:BLANK !!:11
001:0010549450:20120604:203647:BLANK !!:11
001:0002285324:20120604:203650:BLANK !!:11
001:0004620445:20120604:203652:BLANK !!:11
001:0013887862:20120604:203654:BLANK !!:11
001:0006753948:20120604:203656:BLANK !!:11
001:0015692449:20120604:203658:BLANK !!:11
001:0013888628:20120604:203700:BLANK !!:11
001:0013897124:20120604:203702:BLANK !!:11
001:0009320970:20120604:203703:BLANK !!:11
001:0015693730:20120604:203706:BLANK !!:11
001:0010549644:20120604:203709:BLANK !!:11
001:0002292068:20120604:203710:BLANK !!:11
001:0013883591:20120604:203712:BLANK !!:11
001:0002271494:20120604:203714:BLANK !!:11
001:0009357241:20120604:203717:BLANK !!:11
001:0002289438:20120604:203719:BLANK !!:11
001:0000365148:20120604:203723:BLANK !!:11
001:0015782013:20120604:203725:BLANK !!:11
001:0013933226:20120604:203727:BLANK !!:11
001:0010552986:20120604:203729:BLANK !!:11
001:0009361053:20120604:203731:BLANK !!:11
001:0009371131:20120604:203732:BLANK !!:11
001:0013892138:20120604:203734:BLANK !!:11
001:0013888594:20120604:203736:BLANK !!:11
001:0009371413:20120604:203737:BLANK !!:11
001:0003101201:20120604:203739:BLANK !!:11
001:0013885002:20120604:203741:BLANK !!:11
001:0010551115:20120604:203743:BLANK !!:11
001:0010550889:20120604:203745:BLANK !!:11
001:0010549450:20120604:203749:BLANK !!:11
001:0010539352:20120604:203750:BLANK !!:11
001:0010528475:20120604:203752:BLANK !!:11
001:0013893682:20120604:203754:BLANK !!:11
001:0013944638:20120604:203756:BLANK !!:11
001:0010551168:20120604:203759:BLANK !!:11
001:0010553521:20120604:203802:BLANK !!:11
001:0015690234:20120604:203805:BLANK !!:11
001:0006750042:20120604:203809:BLANK !!:11
001:0013877112:20120604:203811:BLANK !!:11
001:0013895313:20120604:203812:BLANK !!:11
001:0013879728:20120604:203814:BLANK !!:11
001:0013878708:20120604:203816:BLANK !!:11
001:0002274131:20120604:203819:BLANK !!:11
001:0002284416:20120604:203821:BLANK !!:11
001:0015698029:20120604:203824:BLANK !!:11
001:0010549748:20120604:203846:BLANK !!:11
001:0013891973:20120604:203918:BLANK !!:11
001:0010549413:20120604:203922:BLANK !!:11
001:0015694393:20120604:204008:BLANK !!:11
001:0013892286:20120604:204115:BLANK !!:11
001:0013880536:20120604:204153:BLANK !!:11
001:0010550898:20120604:204713:BLANK !!:11
001:0013900664:20120604:210128:BLANK !!:11
001:0010644113:20120604:213019:BLANK !!:11
001:0009357257:20120604:213330:BLANK !!:11
001:0004631014:20120604:213650:BLANK !!:11
001:0010544149:20120604:213654:BLANK !!:11
001:0009364772:20120604:213843:BLANK !!:11
001:0002295364:20120604:213846:BLANK !!:11
001:0010644113:20120604:214227:BLANK !!:11
001:0000365761:20120604:214643:BLANK !!:11
001:0013874960:20120604:220120:BLANK !!:11
001:0006760141:20120604:220300:BLANK !!:11
001:0010542101:20120604:220302:BLANK !!:11
001:0006754204:20120604:220350:BLANK !!:11
001:0015688795:20120604:220354:BLANK !!:11
001:0010550340:20120604:220527:BLANK !!:11
001:0006752093:20120604:220529:BLANK !!:11
001:0010549697:20120604:220531:BLANK !!:11
001:0002290144:20120604:220536:BLANK !!:11
001:0002267758:20120604:220719:BLANK !!:11
001:0015688795:20120604:221218:BLANK !!:11
001:0006760141:20120604:224412:BLANK !!:11
001:0006754204:20120604:224707:BLANK !!:11
001:0010542101:20120604:224931:BLANK !!:11
001:0006752093:20120604:225025:BLANK !!:11
001:0010549697:20120604:225028:BLANK !!:11
001:0010550340:20120604:225032:BLANK !!:11
001:0002290144:20120604:225150:BLANK !!:11
001:0002273235:20120605:053117:BLANK !!:11
001:0009364774:20120605:053120:BLANK !!:11
001:0009359710:20120605:061723:BLANK !!:11
001:0015684972:20120605:061726:BLANK !!:11
001:0010550898:20120605:070028:BLANK !!:11
001:0006757082:20120605:073431:BLANK !!:11
001:0009364805:20120605:073435:BLANK !!:11
001:0013214375:20120605:073440:BLANK !!:11
001:0013887499:20120605:073448:BLANK !!:11
001:0003103684:20120605:073457:BLANK !!:11
001:0013893682:20120605:073523:BLANK !!:11
001:0009347994:20120605:073540:BLANK !!:11
001:0013874099:20120605:073546:BLANK !!:11
001:0010547437:20120605:073551:BLANK !!:11
001:0013896430:20120605:073557:BLANK !!:11
001:0009364775:20120605:073638:BLANK !!:11
001:0002267758:20120605:073641:BLANK !!:11
001:0006751401:20120605:073651:BLANK !!:11
001:0002292481:20120605:073658:BLANK !!:11
001:0010549884:20120605:073715:BLANK !!:11
001:0013878180:20120605:073718:BLANK !!:11
001:0015694393:20120605:073739:BLANK !!:11
001:0013888865:20120605:073758:BLANK !!:11
001:0009348592:20120605:073812:BLANK !!:11
001:0013894885:20120605:073843:BLANK !!:11
001:0006755497:20120605:073852:BLANK !!:11
001:0013884285:20120605:073911:BLANK !!:11
001:0010532545:20120605:073916:BLANK !!:11
001:0013896494:20120605:073954:BLANK !!:11
001:0002282162:20120605:074034:BLANK !!:11
001:0013897138:20120605:074103:BLANK !!:11
001:0002267789:20120605:074111:BLANK !!:11
001:0006759131:20120605:074129:BLANK !!:11
001:0015693730:20120605:074135:BLANK !!:11
001:0003115319:20120605:074158:BLANK !!:11
001:0010549567:20120605:074200:BLANK !!:11
001:0006755461:20120605:074218:BLANK !!:11
001:0009363103:20120605:074221:BLANK !!:11
001:0009361701:20120605:074226:BLANK !!:11
001:0003117697:20120605:074245:BLANK !!:11
001:0010544167:20120605:074247:BLANK !!:11
001:0010530367:20120605:074249:BLANK !!:11
001:0010550678:20120605:074252:BLANK !!:11
001:0015697397:20120605:074304:BLANK !!:11
001:0006754282:20120605:074316:BLANK !!:11
001:0003101201:20120605:074322:BLANK !!:11
001:0013894712:20120605:074327:BLANK !!:11
001:0013891964:20120605:074347:BLANK !!:11
001:0000683571:20120605:074353:BLANK !!:11
001:0002290081:20120605:074407:BLANK !!:11
001:0009320970:20120605:074412:BLANK !!:11
001:0010549396:20120605:074417:BLANK !!:11
001:0010537779:20120605:074427:BLANK !!:11
001:0015690234:20120605:074432:BLANK !!:11
001:0006759918:20120605:074434:BLANK !!:11
001:0010530514:20120605:074508:BLANK !!:11
001:0003110988:20120605:074513:BLANK !!:11
001:0013900030:20120605:074516:BLANK !!:11
001:0009354724:20120605:074528:BLANK !!:11
001:0015689937:20120605:074531:BLANK !!:11
001:0006756914:20120605:074535:BLANK !!:11
001:0010549596:20120605:074537:BLANK !!:11
001:0010551115:20120605:074540:BLANK !!:11
001:0013887437:20120605:074543:BLANK !!:11
001:0013935114:20120605:074545:BLANK !!:11
001:0010547087:20120605:074553:BLANK !!:11
001:0010554314:20120605:074555:BLANK !!:11
001:0013879728:20120605:074558:BLANK !!:11
001:0010549504:20120605:074600:BLANK !!:11
001:0002290826:20120605:074601:BLANK !!:11
001:0006755185:20120605:074604:BLANK !!:11
001:0000365380:20120605:074607:BLANK !!:11
001:0013896080:20120605:074621:BLANK !!:11
001:0015682735:20120605:074625:BLANK !!:11
001:0013883591:20120605:074627:BLANK !!:11
001:0010549402:20120605:074629:BLANK !!:11
001:0010531624:20120605:074637:BLANK !!:11
001:0009357241:20120605:074643:BLANK !!:11
001:0009350669:20120605:074644:BLANK !!:11
001:0013891973:20120605:074647:BLANK !!:11
001:0009357257:20120605:074655:BLANK !!:11
001:0013929932:20120605:074659:BLANK !!:11
001:0009356502:20120605:074704:BLANK !!:11
001:0013889730:20120605:074705:BLANK !!:11
001:0009369518:20120605:074717:BLANK !!:11
001:0013874960:20120605:074720:BLANK !!:11
001:0013897942:20120605:074724:BLANK !!:11
001:0010549787:20120605:074730:BLANK !!:11
001:0006755519:20120605:074735:BLANK !!:11
001:0002274131:20120605:074738:BLANK !!:11
001:0010549413:20120605:074740:BLANK !!:11
001:0002294278:20120605:074742:BLANK !!:11
001:0010548132:20120605:074746:BLANK !!:11
001:0015696870:20120605:074751:BLANK !!:11
001:0010549644:20120605:074754:BLANK !!:11
001:0009354725:20120605:074756:BLANK !!:11
001:0000365148:20120605:074758:BLANK !!:11
001:0009361055:20120605:074804:BLANK !!:11
001:0010549454:20120605:074808:BLANK !!:11
001:0010552986:20120605:074810:BLANK !!:11
001:0013933226:20120605:074813:BLANK !!:11
001:0009368226:20120605:074816:BLANK !!:11
001:0006760214:20120605:074818:BLANK !!:11
001:0006758431:20120605:074821:BLANK !!:11
001:0013900540:20120605:074824:BLANK !!:11
001:0009369521:20120605:074826:BLANK !!:11
001:0010547320:20120605:074829:BLANK !!:11
001:0013895851:20120605:074831:BLANK !!:11
001:0015685005:20120605:074839:BLANK !!:11
001:0009363039:20120605:074849:BLANK !!:11
001:0013886127:20120605:074914:BLANK !!:11
001:0013883538:20120605:074917:BLANK !!:11
001:0015688809:20120605:074920:BLANK !!:11
001:0010539061:20120605:074935:BLANK !!:11
001:0013944638:20120605:074941:BLANK !!:11
001:0010547091:20120605:074945:BLANK !!:11
001:0009364773:20120605:074948:BLANK !!:11
001:0015693682:20120605:074951:BLANK !!:11
001:0002293780:20120605:075001:BLANK !!:11
001:0009364324:20120605:075011:BLANK !!:11
001:0010549455:20120605:075013:BLANK !!:11
001:0013882456:20120605:075015:BLANK !!:11
001:0009360458:20120605:075017:BLANK !!:11
001:0013898707:20120605:075018:BLANK !!:11
001:0013930013:20120605:075020:BLANK !!:11
001:0002284416:20120605:075023:BLANK !!:11
001:0013888628:20120605:075025:BLANK !!:11
001:0013878454:20120605:075027:BLANK !!:11
001:0010544368:20120605:075033:BLANK !!:11
001:0002267666:20120605:075035:BLANK !!:11
001:0002282143:20120605:075053:BLANK !!:11
001:0010551155:20120605:075057:BLANK !!:11
001:0013884590:20120605:075059:BLANK !!:11
001:0010546752:20120605:075102:BLANK !!:11
001:0010538695:20120605:075104:BLANK !!:11
001:0010538666:20120605:075105:BLANK !!:11
001:0006753823:20120605:075107:BLANK !!:11
001:0010550306:20120605:075110:BLANK !!:11
001:0015698466:20120605:075113:BLANK !!:11
001:0003116472:20120605:075115:BLANK !!:11
001:0013880536:20120605:075117:BLANK !!:11
001:0010542279:20120605:075119:BLANK !!:11
001:0009368404:20120605:075121:BLANK !!:11
001:0002291755:20120605:075122:BLANK !!:11
001:0010539435:20120605:075124:BLANK !!:11
001:0002291294:20120605:075125:BLANK !!:11
001:0002292541:20120605:075127:BLANK !!:11
001:0006753948:20120605:075129:BLANK !!:11
001:0013893990:20120605:075131:BLANK !!:11
001:0009360755:20120605:075133:BLANK !!:11
001:0002268007:20120605:075135:BLANK !!:11
001:0009350670:20120605:075137:BLANK !!:11
001:0015698029:20120605:075142:BLANK !!:11
001:0010628117:20120605:075150:BLANK !!:11
001:0004624478:20120605:075202:BLANK !!:11
001:0010532210:20120605:075205:BLANK !!:11
001:0002285324:20120605:075209:BLANK !!:11
001:0013878708:20120605:075219:BLANK !!:11
001:0013895313:20120605:075225:BLANK !!:11
001:0010549407:20120605:075228:BLANK !!:11
001:0009364804:20120605:075232:BLANK !!:11
001:0010550889:20120605:075249:BLANK !!:11
001:0015696269:20120605:075253:BLANK !!:11
001:0013897282:20120605:075255:BLANK !!:11
001:0002277756:20120605:075257:BLANK !!:11
001:0004620445:20120605:075258:BLANK !!:11
001:0006753686:20120605:075301:BLANK !!:11
001:0009369516:20120605:075304:BLANK !!:11
001:0013894338:20120605:075307:BLANK !!:11
001:0013888305:20120605:075308:BLANK !!:11
001:0015697731:20120605:075310:BLANK !!:11
001:0013890035:20120605:075312:BLANK !!:11
001:0015693718:20120605:075315:BLANK !!:11
001:0002292068:20120605:075317:BLANK !!:11
001:0006755449:20120605:075320:BLANK !!:11
001:0013878382:20120605:075321:BLANK !!:11
001:0015674317:20120605:075324:BLANK !!:11
001:0010541183:20120605:075326:BLANK !!:11
001:0006753998:20120605:075328:BLANK !!:11
001:0013887126:20120605:075343:BLANK !!:11
001:0015696806:20120605:075346:BLANK !!:11
001:0013952446:20120605:075348:BLANK !!:11
001:0009357239:20120605:075357:BLANK !!:11
001:0000365761:20120605:075402:BLANK !!:11
001:0002293868:20120605:075406:BLANK !!:11
001:0013888594:20120605:075408:BLANK !!:11
001:0015674575:20120605:075410:BLANK !!:11
001:0002294646:20120605:075413:BLANK !!:11
001:0013879037:20120605:075415:BLANK !!:11
001:0006758789:20120605:075417:BLANK !!:11
001:0006757851:20120605:075420:BLANK !!:11
001:0004631020:20120605:075423:BLANK !!:11
001:0010551185:20120605:075424:BLANK !!:11
001:0013877389:20120605:075426:BLANK !!:11
001:0013878129:20120605:075429:BLANK !!:11
001:0010549748:20120605:075431:BLANK !!:11
001:0010530304:20120605:075433:BLANK !!:11
001:0002290777:20120605:075434:BLANK !!:11
001:0002282243:20120605:075436:BLANK !!:11
001:0010540274:20120605:075438:BLANK !!:11
001:0013877112:20120605:075441:BLANK !!:11
001:0009371127:20120605:075443:BLANK !!:11
001:0009347993:20120605:075446:BLANK !!:11
001:0009360756:20120605:075448:BLANK !!:11
001:0002289438:20120605:075451:BLANK !!:11
001:0010551136:20120605:075454:BLANK !!:11
001:0002270962:20120605:075456:BLANK !!:11
001:0010550890:20120605:075458:BLANK !!:11
001:0010549428:20120605:075501:BLANK !!:11
001:0015697358:20120605:075504:BLANK !!:11
001:0013900625:20120605:075506:BLANK !!:11
001:0010533341:20120605:075508:BLANK !!:11
001:0004631652:20120605:075510:BLANK !!:11
001:0013883642:20120605:075512:BLANK !!:11
001:0003150394:20120605:075517:BLANK !!:11
001:0013874564:20120605:075525:BLANK !!:11
001:0009365681:20120605:075531:BLANK !!:11
001:0010539352:20120605:075533:BLANK !!:11
001:0010535545:20120605:075535:BLANK !!:11
001:0015682819:20120605:075536:BLANK !!:11
001:0013897049:20120605:075538:BLANK !!:11
001:0015688160:20120605:075540:BLANK !!:11
001:0010553833:20120605:075542:BLANK !!:11
001:0010550707:20120605:075543:BLANK !!:11
001:0013875297:20120605:075546:BLANK !!:11
001:0010528475:20120605:075554:BLANK !!:11
001:0009361700:20120605:075605:BLANK !!:11
001:0010550294:20120605:075606:BLANK !!:11
001:0010549433:20120605:075614:BLANK !!:11
001:0015689920:20120605:075616:BLANK !!:11
001:0010534521:20120605:075618:BLANK !!:11
001:0002273808:20120605:075625:BLANK !!:11
001:0009363041:20120605:075628:BLANK !!:11
001:0010551168:20120605:075631:BLANK !!:11
001:0013880789:20120605:075633:BLANK !!:11
001:0010549766:20120605:075635:BLANK !!:11
001:0013893763:20120605:075636:BLANK !!:11
001:0009368209:20120605:075638:BLANK !!:11
001:0015685385:20120605:075640:BLANK !!:11
001:0013894940:20120605:075643:BLANK !!:11
001:0013940479:20120605:075645:BLANK !!:11
001:0010653054:20120605:075648:BLANK !!:11
001:0009364772:20120605:075652:BLANK !!:11
001:0013875148:20120605:075653:BLANK !!:11
001:0010544149:20120605:075655:BLANK !!:11
001:0015689962:20120605:075708:BLANK !!:11
001:0013887862:20120605:075712:BLANK !!:11
001:0010550709:20120605:075722:BLANK !!:11
001:0010549371:20120605:075725:BLANK !!:11
001:0002276947:20120605:075744:BLANK !!:11
001:0015690200:20120605:075751:BLANK !!:11
001:0009358046:20120605:075754:BLANK !!:11
001:0009360116:20120605:075756:BLANK !!:11
001:0015692449:20120605:075804:BLANK !!:11
001:0009364108:20120605:075808:BLANK !!:11
001:0013899674:20120605:075820:BLANK !!:11
001:0010536569:20120605:075823:BLANK !!:11
001:0015691426:20120605:075834:BLANK !!:11
001:0010547997:20120605:075836:BLANK !!:11
001:0003117930:20120605:075840:BLANK !!:11
001:0000365093:20120605:075842:BLANK !!:11
001:0015691390:20120605:075925:BLANK !!:11
001:0015674443:20120605:075938:BLANK !!:11
001:0015694629:20120605:075945:BLANK !!:11
001:0015685006:20120605:075948:BLANK !!:11
001:0009364321:20120605:080002:BLANK !!:11
001:0015688510:20120605:080104:BLANK !!:11
001:0013885080:20120605:080108:BLANK !!:11
001:0010540763:20120605:080110:BLANK !!:11
001:0013952741:20120605:080115:BLANK !!:11
001:0013881426:20120605:080124:BLANK !!:11
001:0004631014:20120605:080206:BLANK !!:11
001:0013878044:20120605:080236:BLANK !!:11
001:0013881131:20120605:080249:BLANK !!:11
001:0013892286:20120605:080317:BLANK !!:11
001:0013879402:20120605:080408:BLANK !!:11
001:0006758961:20120605:080410:BLANK !!:11
001:0002268037:20120605:080450:BLANK !!:11
001:0006760141:20120605:080453:BLANK !!:11
001:0006754204:20120605:080455:BLANK !!:11
001:0010542101:20120605:080457:BLANK !!:11
001:0013875397:20120605:080459:BLANK !!:11
001:0002290144:20120605:080523:BLANK !!:11
001:0010551210:20120605:080527:BLANK !!:11
001:0002271494:20120605:080548:BLANK !!:11
001:0015782013:20120605:080552:BLANK !!:11
001:0004619983:20120605:080556:BLANK !!:11
001:0010549386:20120605:080701:BLANK !!:11
001:0002295364:20120605:080715:BLANK !!:11
001:0010549740:20120605:080806:BLANK !!:11
001:0010651256:20120605:081045:BLANK !!:11
001:0006752093:20120605:081255:BLANK !!:11
001:0010550340:20120605:081302:BLANK !!:11
001:0010549697:20120605:081305:BLANK !!:11
001:0015688795:20120605:081342:BLANK !!:11
001:0013883458:20120605:081625:BLANK !!:11
001:0013888913:20120605:081629:BLANK !!:11
001:0013900664:20120605:082107:BLANK !!:11
001:0013885002:20120605:082111:BLANK !!:11
001:0009371413:20120605:082112:BLANK !!:11
001:0009366722:20120605:082348:BLANK !!:11
001:0013897124:20120605:082538:BLANK !!:11
001:0010549450:20120605:082920:BLANK !!:11
001:0010553521:20120605:082923:BLANK !!:11
001:0010634177:20120605:083437:BLANK !!:11
001:0006750527:20120605:083448:BLANK !!:11
001:0010644113:20120605:084605:BLANK !!:11
001:0013896958:20120605:084921:BLANK !!:11
001:0013882945:20120605:084927:BLANK !!:11
001:0013886572:20120605:084934:BLANK !!:11
001:0013889932:20120605:084939:BLANK !!:11
001:0013892922:20120605:084944:BLANK !!:11
001:0013896823:20120605:084949:BLANK !!:11
001:0013886076:20120605:084952:BLANK !!:11
001:0013875043:20120605:085026:BLANK !!:11
001:0010533195:20120605:085038:BLANK !!:11
001:0013894250:20120605:085142:BLANK !!:11
001:0013896752:20120605:085147:BLANK !!:11
001:0013880904:20120605:085152:BLANK !!:11
001:0013896595:20120605:085156:BLANK !!:11
001:0013889788:20120605:085202:BLANK !!:11
001:0013881218:20120605:085205:BLANK !!:11
001:0013888273:20120605:085208:BLANK !!:11
001:0013882358:20120605:085211:BLANK !!:11
001:0013900100:20120605:085219:BLANK !!:11
001:0006756113:20120605:085238:BLANK !!:11
001:0013896432:20120605:085950:BLANK !!:11
001:0010550910:20120605:091517:BLANK !!:11
001:0010547437:20120605:092304:BLANK !!:11
