001:0015693730:20120609:072403:BLANK !!:11
001:0006757082:20120609:072901:BLANK !!:11
001:0013878180:20120609:072905:BLANK !!:11
001:0009368404:20120609:072909:BLANK !!:11
001:0013897124:20120609:072916:BLANK !!:11
001:0013887499:20120609:072924:BLANK !!:11
001:0013885002:20120609:072936:BLANK !!:11
001:0009371131:20120609:072938:BLANK !!:11
001:0009361053:20120609:072942:BLANK !!:11
001:0009364805:20120609:072945:BLANK !!:11
001:0010530367:20120609:072949:BLANK !!:11
001:0013900540:20120609:072953:BLANK !!:11
001:0009361701:20120609:072958:BLANK !!:11
001:0013891973:20120609:073014:BLANK !!:11
001:0003115319:20120609:073021:BLANK !!:11
001:0013894885:20120609:073025:BLANK !!:11
001:0013891964:20120609:073032:BLANK !!:11
001:0009363041:20120609:073035:BLANK !!:11
001:0013892138:20120609:073037:BLANK !!:11
001:0006751401:20120609:073043:BLANK !!:11
001:0013888913:20120609:073055:BLANK !!:11
001:0013930013:20120609:073218:BLANK !!:11
001:0010549884:20120609:073225:BLANK !!:11
001:0010551210:20120609:073227:BLANK !!:11
001:0015688795:20120609:073229:BLANK !!:11
001:0010539061:20120609:073302:BLANK !!:11
001:0013884590:20120609:073322:BLANK !!:11
001:0015689962:20120609:073324:BLANK !!:11
001:0009363103:20120609:073328:BLANK !!:11
001:0013897942:20120609:073342:BLANK !!:11
001:0013214375:20120609:073349:BLANK !!:11
001:0006754282:20120609:073404:BLANK !!:11
001:0009348592:20120609:073407:BLANK !!:11
001:0006758261:20120609:073409:BLANK !!:11
001:0009347994:20120609:073413:BLANK !!:11
001:0006760141:20120609:073422:BLANK !!:11
001:0010547091:20120609:073426:BLANK !!:11
001:0009364773:20120609:073429:BLANK !!:11
001:0003102332:20120609:073437:BLANK !!:11
001:0010553833:20120609:073444:BLANK !!:11
001:0006751998:20120609:073452:BLANK !!:11
001:0013887437:20120609:073457:BLANK !!:11
001:0002282143:20120609:073504:BLANK !!:11
001:0009361700:20120609:073511:BLANK !!:11
001:0013893682:20120609:073513:BLANK !!:11
001:0010532545:20120609:073518:BLANK !!:11
001:0009371127:20120609:073524:BLANK !!:11
001:0013896430:20120609:073527:BLANK !!:11
001:0010532545:20120609:073531:BLANK !!:11
001:0006751519:20120609:073537:BLANK !!:11
001:0006755497:20120609:073540:BLANK !!:11
001:0002267758:20120609:073613:BLANK !!:11
001:0009364775:20120609:073619:BLANK !!:11
001:0013929932:20120609:073623:BLANK !!:11
001:0010530514:20120609:073628:BLANK !!:11
001:0013900680:20120609:073632:BLANK !!:11
001:0013894338:20120609:073650:BLANK !!:11
001:0002282162:20120609:073653:BLANK !!:11
001:0013892286:20120609:073658:BLANK !!:11
001:0013894712:20120609:073811:BLANK !!:11
001:0010547974:20120609:073820:BLANK !!:11
001:0015697397:20120609:073828:BLANK !!:11
001:0002293780:20120609:073832:BLANK !!:11
001:0002292541:20120609:073835:BLANK !!:11
001:0006753948:20120609:073839:BLANK !!:11
001:0013899674:20120609:073845:BLANK !!:11
001:0013896494:20120609:073848:BLANK !!:11
001:0013884285:20120609:073850:BLANK !!:11
001:0013900030:20120609:073852:BLANK !!:11
001:0013888865:20120609:073856:BLANK !!:11
001:0002295364:20120609:073925:BLANK !!:11
001:0010544167:20120609:073928:BLANK !!:11
001:0013888305:20120609:073931:BLANK !!:11
001:0013887126:20120609:073940:BLANK !!:11
001:0015691426:20120609:073947:BLANK !!:11
001:0013900625:20120609:073950:BLANK !!:11
001:0002290081:20120609:073958:BLANK !!:11
001:0009363039:20120609:074008:BLANK !!:11
001:0013878009:20120609:074012:BLANK !!:11
001:0010536569:20120609:074024:BLANK !!:11
001:0013890035:20120609:074029:BLANK !!:11
001:0002270614:20120609:074100:BLANK !!:11
001:0002290826:20120609:074109:BLANK !!:11
001:0002282243:20120609:074111:BLANK !!:11
001:0013879728:20120609:074114:BLANK !!:11
001:0015688510:20120609:074130:BLANK !!:11
001:0013877112:20120609:074138:BLANK !!:11
001:0015682735:20120609:074142:BLANK !!:11
001:0010549402:20120609:074144:BLANK !!:11
001:0013883591:20120609:074147:BLANK !!:11
001:0006757638:20120609:074153:BLANK !!:11
001:0002273235:20120609:074156:BLANK !!:11
001:0002291755:20120609:074200:BLANK !!:11
001:0006758961:20120609:074202:BLANK !!:11
001:0010539435:20120609:074204:BLANK !!:11
001:0009352948:20120609:074207:BLANK !!:11
001:0002270146:20120609:074209:BLANK !!:11
001:0002291294:20120609:074211:BLANK !!:11
001:0010537779:20120609:074224:BLANK !!:11
001:0009354724:20120609:074229:BLANK !!:11
001:0002268037:20120609:074232:BLANK !!:11
001:0010547320:20120609:074234:BLANK !!:11
001:0002267666:20120609:074235:BLANK !!:11
001:0013888628:20120609:074238:BLANK !!:11
001:0013889930:20120609:074240:BLANK !!:11
001:0013878382:20120609:074244:BLANK !!:11
001:0013894940:20120609:074247:BLANK !!:11
001:0009350673:20120609:074251:BLANK !!:11
001:0010549504:20120609:074303:BLANK !!:11
001:0010547087:20120609:074306:BLANK !!:11
001:0010554314:20120609:074311:BLANK !!:11
001:0013874564:20120609:074313:BLANK !!:11
001:0006750527:20120609:074319:BLANK !!:11
001:0010550306:20120609:074324:BLANK !!:11
001:0010549787:20120609:074328:BLANK !!:11
001:0006756914:20120609:074331:BLANK !!:11
001:0003117930:20120609:074334:BLANK !!:11
001:0010544149:20120609:074340:BLANK !!:11
001:0015696806:20120609:074345:BLANK !!:11
001:0010549596:20120609:074353:BLANK !!:11
001:0010538666:20120609:074355:BLANK !!:11
001:0013896080:20120609:074357:BLANK !!:11
001:0015782013:20120609:074401:BLANK !!:11
001:0003116472:20120609:074404:BLANK !!:11
001:0013878129:20120609:074407:BLANK !!:11
001:0015694393:20120609:074425:BLANK !!:11
001:0000365148:20120609:074428:BLANK !!:11
001:0013933226:20120609:074430:BLANK !!:11
001:0010552986:20120609:074433:BLANK !!:11
001:0013882456:20120609:074435:BLANK !!:11
001:0009360458:20120609:074437:BLANK !!:11
001:0009364806:20120609:074439:BLANK !!:11
001:0013875397:20120609:074441:BLANK !!:11
001:0000365380:20120609:074443:BLANK !!:11
001:0009358046:20120609:074445:BLANK !!:11
001:0013878708:20120609:074447:BLANK !!:11
001:0013895313:20120609:074451:BLANK !!:11
001:0006753998:20120609:074453:BLANK !!:11
001:0002270962:20120609:074456:BLANK !!:11
001:0015689937:20120609:074457:BLANK !!:11
001:0010549455:20120609:074500:BLANK !!:11
001:0006755519:20120609:074504:BLANK !!:11
001:0013898707:20120609:074507:BLANK !!:11
001:0013878454:20120609:074512:BLANK !!:11
001:0010549955:20120609:074515:BLANK !!:11
001:0002271494:20120609:074517:BLANK !!:11
001:0010540274:20120609:074520:BLANK !!:11
001:0010544368:20120609:074523:BLANK !!:11
001:0010551115:20120609:074525:BLANK !!:11
001:0013874960:20120609:074527:BLANK !!:11
001:0013935114:20120609:074529:BLANK !!:11
001:0009356502:20120609:074531:BLANK !!:11
001:0006760214:20120609:074534:BLANK !!:11
001:0006752093:20120609:074538:BLANK !!:11
001:0013944638:20120609:074540:BLANK !!:11
001:0013887862:20120609:074542:BLANK !!:11
001:0006755185:20120609:074545:BLANK !!:11
001:0006758789:20120609:074549:BLANK !!:11
001:0013888594:20120609:074550:BLANK !!:11
001:0010551168:20120609:074554:BLANK !!:11
001:0006754204:20120609:074558:BLANK !!:11
001:0006755461:20120609:074604:BLANK !!:11
001:0010538695:20120609:074613:BLANK !!:11
001:0010549644:20120609:074618:BLANK !!:11
001:0010550294:20120609:074621:BLANK !!:11
001:0010549766:20120609:074627:BLANK !!:11
001:0009368226:20120609:074630:BLANK !!:11
001:0009354725:20120609:074633:BLANK !!:11
001:0015697358:20120609:074636:BLANK !!:11
001:0004631020:20120609:074641:BLANK !!:11
001:0013886127:20120609:074643:BLANK !!:11
001:0004619983:20120609:074646:BLANK !!:11
001:0009357257:20120609:074648:BLANK !!:11
001:0010549450:20120609:074650:BLANK !!:11
001:0013952741:20120609:074652:BLANK !!:11
001:0010531624:20120609:074654:BLANK !!:11
001:0006753686:20120609:074655:BLANK !!:11
001:0013878044:20120609:074657:BLANK !!:11
001:0006753823:20120609:074700:BLANK !!:11
001:0013881426:20120609:074702:BLANK !!:11
001:0009364108:20120609:074708:BLANK !!:11
001:0013880536:20120609:074711:BLANK !!:11
001:0015684972:20120609:074713:BLANK !!:11
001:0000683571:20120609:074715:BLANK !!:11
001:0010653054:20120609:074720:BLANK !!:11
001:0010543526:20120609:074733:BLANK !!:11
001:0015674443:20120609:074736:BLANK !!:11
001:0010533341:20120609:074738:BLANK !!:11
001:0002274131:20120609:074741:BLANK !!:11
001:0009364772:20120609:074746:BLANK !!:11
001:0015688809:20120609:074751:BLANK !!:11
001:0002289438:20120609:074756:BLANK !!:11
001:0009364324:20120609:074800:BLANK !!:11
001:0009357241:20120609:074816:BLANK !!:11
001:0000407097:20120609:074818:BLANK !!:11
001:0013897138:20120609:074822:BLANK !!:11
001:0009364321:20120609:074834:BLANK !!:11
001:0010531397:20120609:074841:BLANK !!:11
001:0006750419:20120609:074844:BLANK !!:11
001:0013883458:20120609:074846:BLANK !!:11
001:0010550889:20120609:074850:BLANK !!:11
001:0010532210:20120609:074855:BLANK !!:11
001:0006754257:20120609:074858:BLANK !!:11
001:0013890852:20120609:074904:BLANK !!:11
001:0009368209:20120609:074906:BLANK !!:11
001:0015690234:20120609:074916:BLANK !!:11
001:0002292068:20120609:074926:BLANK !!:11
001:0003101201:20120609:074940:BLANK !!:11
001:0010546752:20120609:074942:BLANK !!:11
001:0010534521:20120609:074944:BLANK !!:11
001:0009357239:20120609:074947:BLANK !!:11
001:0002273808:20120609:074950:BLANK !!:11
001:0013889730:20120609:074953:BLANK !!:11
001:0009348591:20120609:074958:BLANK !!:11
001:0010542101:20120609:075001:BLANK !!:11
001:0013886928:20120609:075004:BLANK !!:11
001:0010550678:20120609:075018:BLANK !!:11
001:0010628117:20120609:075028:BLANK !!:11
001:0002294646:20120609:075033:BLANK !!:11
001:0002293868:20120609:075039:BLANK !!:11
001:0010550707:20120609:075041:BLANK !!:11
001:0010539352:20120609:075050:BLANK !!:11
001:0015698466:20120609:075056:BLANK !!:11
001:0010542279:20120609:075058:BLANK !!:11
001:0015697731:20120609:075101:BLANK !!:11
001:0009359710:20120609:075103:BLANK !!:11
001:0009361055:20120609:075105:BLANK !!:11
001:0010549697:20120609:075108:BLANK !!:11
001:0013888430:20120609:075112:BLANK !!:11
001:0006759131:20120609:075114:BLANK !!:11
001:0006759096:20120609:075116:BLANK !!:11
001:0009364774:20120609:075140:BLANK !!:11
001:0010549386:20120609:075155:BLANK !!:11
001:0000365093:20120609:075156:BLANK !!:11
001:0002277756:20120609:075159:BLANK !!:11
001:0009347993:20120609:075202:BLANK !!:11
001:0010549740:20120609:075207:BLANK !!:11
001:0010549407:20120609:075213:BLANK !!:11
001:0010549567:20120609:075216:BLANK !!:11
001:0010551136:20120609:075219:BLANK !!:11
001:0010551185:20120609:075220:BLANK !!:11
001:0013877389:20120609:075223:BLANK !!:11
001:0009369518:20120609:075226:BLANK !!:11
001:0009365681:20120609:075229:BLANK !!:11
001:0013885080:20120609:075244:BLANK !!:11
001:0015692449:20120609:075251:BLANK !!:11
001:0010550340:20120609:075252:BLANK !!:11
001:0015694629:20120609:075254:BLANK !!:11
001:0015685006:20120609:075300:BLANK !!:11
001:0015674317:20120609:075303:BLANK !!:11
001:0010547997:20120609:075308:BLANK !!:11
001:0010549371:20120609:075313:BLANK !!:11
001:0010549428:20120609:075317:BLANK !!:11
001:0010550890:20120609:075320:BLANK !!:11
001:0010541183:20120609:075323:BLANK !!:11
001:0015674575:20120609:075331:BLANK !!:11
001:0015693718:20120609:075339:BLANK !!:11
001:0015698029:20120609:075347:BLANK !!:11
001:0002284416:20120609:075349:BLANK !!:11
001:0015682819:20120609:075351:BLANK !!:11
001:0002290144:20120609:075354:BLANK !!:11
001:0004631652:20120609:075356:BLANK !!:11
001:0013893990:20120609:075358:BLANK !!:11
001:0015693682:20120609:075401:BLANK !!:11
001:0010528475:20120609:075404:BLANK !!:11
001:0013875148:20120609:075407:BLANK !!:11
001:0013895851:20120609:075410:BLANK !!:11
001:0013900745:20120609:075413:BLANK !!:11
001:0013884770:20120609:075416:BLANK !!:11
001:0013874099:20120609:075425:BLANK !!:11
001:0010547437:20120609:075428:BLANK !!:11
001:0010535545:20120609:075450:BLANK !!:11
001:0003150394:20120609:075452:BLANK !!:11
001:0010549767:20120609:075456:BLANK !!:11
001:0010550709:20120609:075509:BLANK !!:11
001:0010530304:20120609:075513:BLANK !!:11
001:0010549433:20120609:075527:BLANK !!:11
001:0010549413:20120609:075531:BLANK !!:11
001:0015689920:20120609:075537:BLANK !!:11
001:0004624478:20120609:075543:BLANK !!:11
001:0013893763:20120609:075552:BLANK !!:11
001:0015688160:20120609:075558:BLANK !!:11
001:0002268007:20120609:075601:BLANK !!:11
001:0009350670:20120609:075604:BLANK !!:11
001:0006757851:20120609:075606:BLANK !!:11
001:0009360755:20120609:075608:BLANK !!:11
001:0004620445:20120609:075611:BLANK !!:11
001:0015694386:20120609:075613:BLANK !!:11
001:0002290777:20120609:075615:BLANK !!:11
001:0009360756:20120609:075618:BLANK !!:11
001:0013879402:20120609:075624:BLANK !!:11
001:0010549748:20120609:075630:BLANK !!:11
001:0013883642:20120609:075648:BLANK !!:11
001:0009364804:20120609:075650:BLANK !!:11
001:0002276947:20120609:075652:BLANK !!:11
001:0013952446:20120609:075659:BLANK !!:11
001:0013877148:20120609:075703:BLANK !!:11
001:0015685385:20120609:075733:BLANK !!:11
001:0009366722:20120609:075802:BLANK !!:11
001:0015690200:20120609:075848:BLANK !!:11
001:0010537681:20120609:075852:BLANK !!:11
001:0009369519:20120609:075854:BLANK !!:11
001:0004631014:20120609:075909:BLANK !!:11
001:0010553521:20120609:075959:BLANK !!:11
001:0006755449:20120609:080028:BLANK !!:11
001:0013881131:20120609:080051:BLANK !!:11
001:0009371128:20120609:080318:BLANK !!:11
001:0010651256:20120609:080524:BLANK !!:11
001:0013900664:20120609:083312:BLANK !!:11
001:0000365761:20120609:083643:BLANK !!:11
001:0013875043:20120609:083734:BLANK !!:11
001:0010644113:20120609:084705:BLANK !!:11
001:0013886572:20120609:085212:BLANK !!:11
001:0013901637:20120609:085214:BLANK !!:11
001:0013892922:20120609:085216:BLANK !!:11
001:0013889932:20120609:085219:BLANK !!:11
001:0013896823:20120609:085226:BLANK !!:11
001:0013896752:20120609:085315:BLANK !!:11
001:0013888273:20120609:085319:BLANK !!:11
001:0013896595:20120609:085325:BLANK !!:11
001:0013889788:20120609:085327:BLANK !!:11
001:0013885371:20120609:085335:BLANK !!:11
001:0013881218:20120609:085339:BLANK !!:11
001:0013882358:20120609:085342:BLANK !!:11
001:0006756113:20120609:085345:BLANK !!:11
001:0013900100:20120609:085403:BLANK !!:11
001:0013896432:20120609:085410:BLANK !!:11
001:0010549450:20120609:085651:BLANK !!:11
001:0010550910:20120609:090829:BLANK !!:11
001:0006760116:20120609:090834:BLANK !!:11
001:0013883642:20120609:092931:BLANK !!:11
001:0013885371:20120609:093056:BLANK !!:11
001:0013894940:20120609:101828:BLANK !!:11
001:0003150394:20120609:105714:BLANK !!:11
001:0009348591:20120609:110551:BLANK !!:11
001:0015694393:20120609:114417:BLANK !!:11
001:0013894338:20120609:114420:BLANK !!:11
001:0010550898:20120609:114734:BLANK !!:11
001:0006760116:20120609:120604:BLANK !!:11
001:0006756113:20120609:122323:BLANK !!:11
001:0006759131:20120609:123017:BLANK !!:11
001:0009371127:20120609:123020:BLANK !!:11
001:0006751401:20120609:123023:BLANK !!:11
001:0013900625:20120609:123025:BLANK !!:11
001:0006755519:20120609:123027:BLANK !!:11
001:0010547974:20120609:123029:BLANK !!:11
001:0006754282:20120609:123030:BLANK !!:11
001:0003101201:20120609:123032:BLANK !!:11
001:0010530367:20120609:123033:BLANK !!:11
001:0015693682:20120609:123035:BLANK !!:11
001:0013878009:20120609:123036:BLANK !!:11
001:0002273235:20120609:123038:BLANK !!:11
001:0013929932:20120609:123039:BLANK !!:11
001:0010544149:20120609:123041:BLANK !!:11
001:0013897942:20120609:123043:BLANK !!:11
001:0010530304:20120609:123044:BLANK !!:11
001:0004631014:20120609:123046:BLANK !!:11
001:0010549596:20120609:123048:BLANK !!:11
001:0006756914:20120609:123049:BLANK !!:11
001:0002282243:20120609:123051:BLANK !!:11
001:0015697731:20120609:123052:BLANK !!:11
001:0006757851:20120609:123054:BLANK !!:11
001:0013893990:20120609:123055:BLANK !!:11
001:0010530514:20120609:123057:BLANK !!:11
001:0013874960:20120609:123058:BLANK !!:11
001:0015682735:20120609:123100:BLANK !!:11
001:0013890035:20120609:123102:BLANK !!:11
001:0010549787:20120609:123104:BLANK !!:11
001:0013894885:20120609:123105:BLANK !!:11
001:0013888913:20120609:123107:BLANK !!:11
001:0013214375:20120609:123108:BLANK !!:11
001:0013891964:20120609:123110:BLANK !!:11
001:0002270146:20120609:123112:BLANK !!:11
001:0013879402:20120609:123114:BLANK !!:11
001:0009357239:20120609:123115:BLANK !!:11
001:0006759096:20120609:123117:BLANK !!:11
001:0010547997:20120609:123118:BLANK !!:11
001:0006751998:20120609:123120:BLANK !!:11
001:0010551168:20120609:123121:BLANK !!:11
001:0015674317:20120609:123123:BLANK !!:11
001:0004631020:20120609:123124:BLANK !!:11
001:0009364108:20120609:123126:BLANK !!:11
001:0010628117:20120609:123127:BLANK !!:11
001:0010532545:20120609:123129:BLANK !!:11
001:0010541183:20120609:123130:BLANK !!:11
001:0010537681:20120609:123132:BLANK !!:11
001:0013897124:20120609:123133:BLANK !!:11
001:0006753948:20120609:123135:BLANK !!:11
001:0006751519:20120609:123138:BLANK !!:11
001:0015696806:20120609:123140:BLANK !!:11
001:0013952741:20120609:123142:BLANK !!:11
001:0013887437:20120609:123144:BLANK !!:11
001:0010532210:20120609:123146:BLANK !!:11
001:0002294646:20120609:123148:BLANK !!:11
001:0002270614:20120609:123150:BLANK !!:11
001:0013883538:20120609:123152:BLANK !!:11
001:0013884285:20120609:123154:BLANK !!:11
001:0010549644:20120609:123156:BLANK !!:11
001:0009356502:20120609:123158:BLANK !!:11
001:0010546752:20120609:123159:BLANK !!:11
001:0000365380:20120609:123203:BLANK !!:11
001:0008281095:20120609:123205:BLANK !!:11
001:0010550709:20120609:123207:BLANK !!:11
001:0009363039:20120609:123210:BLANK !!:11
001:0010551115:20120609:123212:BLANK !!:11
001:0013887126:20120609:123213:BLANK !!:11
001:0009360755:20120609:123215:BLANK !!:11
001:0015685385:20120609:123217:BLANK !!:11
001:0013881131:20120609:123218:BLANK !!:11
001:0013894712:20120609:123219:BLANK !!:11
001:0013877112:20120609:123221:BLANK !!:11
001:0006758261:20120609:123223:BLANK !!:11
001:0006752093:20120609:123224:BLANK !!:11
001:0013888858:20120609:123226:BLANK !!:11
001:0013892286:20120609:123227:BLANK !!:11
001:0015689920:20120609:123229:BLANK !!:11
001:0000407097:20120609:123230:BLANK !!:11
001:0006754204:20120609:123232:BLANK !!:11
001:0010549567:20120609:123234:BLANK !!:11
001:0000365093:20120609:123235:BLANK !!:11
001:0009369519:20120609:123237:BLANK !!:11
001:0002290081:20120609:123238:BLANK !!:11
001:0010549455:20120609:123240:BLANK !!:11
001:0006755497:20120609:123241:BLANK !!:11
001:0009364804:20120609:123243:BLANK !!:11
001:0013886127:20120609:123244:BLANK !!:11
001:0013893682:20120609:123246:BLANK !!:11
001:0013883458:20120609:123248:BLANK !!:11
001:0009364774:20120609:123249:BLANK !!:11
001:0013875397:20120609:123251:BLANK !!:11
001:0013884590:20120609:123252:BLANK !!:11
001:0010550340:20120609:123254:BLANK !!:11
001:0009359710:20120609:123255:BLANK !!:11
001:0013884770:20120609:123257:BLANK !!:11
001:0013900745:20120609:123259:BLANK !!:11
001:0010543526:20120609:123300:BLANK !!:11
001:0002270962:20120609:123302:BLANK !!:11
001:0006760141:20120609:123303:BLANK !!:11
001:0010542101:20120609:123305:BLANK !!:11
001:0002290144:20120609:123306:BLANK !!:11
001:0009360458:20120609:123307:BLANK !!:11
001:0010549697:20120609:123309:BLANK !!:11
001:0010531624:20120609:123310:BLANK !!:11
001:0009364324:20120609:123312:BLANK !!:11
001:0010549402:20120609:123315:BLANK !!:11
001:0010544368:20120609:123317:BLANK !!:11
001:0010549386:20120609:123319:BLANK !!:11
001:0015685006:20120609:123320:BLANK !!:11
001:0002268037:20120609:123322:BLANK !!:11
001:0002289438:20120609:123323:BLANK !!:11
001:0009357241:20120609:123325:BLANK !!:11
001:0006753998:20120609:123326:BLANK !!:11
001:0009369518:20120609:123328:BLANK !!:11
001:0002268007:20120609:123329:BLANK !!:11
001:0013886928:20120609:123331:BLANK !!:11
001:0015697358:20120609:123332:BLANK !!:11
001:0009358046:20120609:123334:BLANK !!:11
001:0013875148:20120609:123336:BLANK !!:11
001:0002277756:20120609:123337:BLANK !!:11
001:0003117930:20120609:123339:BLANK !!:11
001:0010537779:20120609:123340:BLANK !!:11
001:0009350673:20120609:123341:BLANK !!:11
001:0009361055:20120609:123343:BLANK !!:11
001:0013892138:20120609:123344:BLANK !!:11
001:0010542279:20120609:123346:BLANK !!:11
001:0006755449:20120609:123347:BLANK !!:11
001:0006758961:20120609:123349:BLANK !!:11
001:0010539435:20120609:123350:BLANK !!:11
001:0002282143:20120609:123352:BLANK !!:11
001:0013878382:20120609:123353:BLANK !!:11
001:0009350670:20120609:123355:BLANK !!:11
001:0015694629:20120609:123356:BLANK !!:11
001:0006753823:20120609:123358:BLANK !!:11
001:0004631652:20120609:123359:BLANK !!:11
001:0009365681:20120609:123401:BLANK !!:11
001:0013889930:20120609:123402:BLANK !!:11
001:0015688809:20120609:123404:BLANK !!:11
001:0009354725:20120609:123406:BLANK !!:11
001:0013888628:20120609:123408:BLANK !!:11
001:0009350669:20120609:123409:BLANK !!:11
001:0010549407:20120609:123411:BLANK !!:11
001:0015682819:20120609:123412:BLANK !!:11
001:0009347993:20120609:123413:BLANK !!:11
001:0013878044:20120609:123416:BLANK !!:11
001:0010549504:20120609:123418:BLANK !!:11
001:0009360756:20120609:123421:BLANK !!:11
001:0006760214:20120609:123422:BLANK !!:11
001:0002290777:20120609:123424:BLANK !!:11
001:0002293780:20120609:123425:BLANK !!:11
001:0010533341:20120609:123427:BLANK !!:11
001:0004619983:20120609:123429:BLANK !!:11
001:0015782013:20120609:123431:BLANK !!:11
001:0010550890:20120609:123432:BLANK !!:11
001:0002271494:20120609:123434:BLANK !!:11
001:0002292068:20120609:123436:BLANK !!:11
001:0009361053:20120609:123438:BLANK !!:11
001:0009371131:20120609:123440:BLANK !!:11
001:0013878454:20120609:123451:BLANK !!:11
001:0010549955:20120609:123453:BLANK !!:11
001:0010540274:20120609:123455:BLANK !!:11
001:0000365148:20120609:123457:BLANK !!:11
001:0002276947:20120609:123458:BLANK !!:11
001:0013933226:20120609:123500:BLANK !!:11
001:0010552986:20120609:123501:BLANK !!:11
001:0010547091:20120609:123523:BLANK !!:11
001:0004620445:20120609:123532:BLANK !!:11
001:0010549748:20120609:123547:BLANK !!:11
001:0010531397:20120609:123549:BLANK !!:11
001:0003116472:20120609:123613:BLANK !!:11
001:0015694386:20120609:123619:BLANK !!:11
001:0006750527:20120609:123621:BLANK !!:11
001:0010539352:20120609:123622:BLANK !!:11
001:0010528475:20120609:123720:BLANK !!:11
001:0009371128:20120609:123722:BLANK !!:11
001:0013898707:20120609:123736:BLANK !!:11
001:0009366722:20120609:123742:BLANK !!:11
001:0015698029:20120609:123940:BLANK !!:11
001:0013874564:20120609:124011:BLANK !!:11
001:0010547091:20120609:124054:BLANK !!:11
001:0010644113:20120609:124059:BLANK !!:11
001:0009364775:20120609:124103:BLANK !!:11
001:0013889932:20120609:124124:BLANK !!:11
001:0006750419:20120609:124149:BLANK !!:11
001:0013892138:20120609:124456:BLANK !!:11
001:0003102332:20120609:124542:BLANK !!:11
001:0013894250:20120609:125019:BLANK !!:11
001:0010535545:20120609:125023:BLANK !!:11
001:0002282143:20120609:125030:BLANK !!:11
001:0013900745:20120609:125259:BLANK !!:11
001:0013877148:20120609:125338:BLANK !!:11
001:0013891964:20120609:125527:BLANK !!:11
001:0009361053:20120609:125703:BLANK !!:11
001:0009371131:20120609:125708:BLANK !!:11
001:0015688510:20120609:125843:BLANK !!:11
001:0002291755:20120609:125845:BLANK !!:11
001:0006760141:20120609:125921:BLANK !!:11
001:0009359710:20120609:130048:BLANK !!:11
001:0009364775:20120609:130056:BLANK !!:11
001:0013900664:20120609:130130:BLANK !!:11
001:0010543526:20120609:130330:BLANK !!:11
001:0009352948:20120609:130331:BLANK !!:11
001:0013887437:20120609:130354:BLANK !!:11
001:0013892286:20120609:130507:BLANK !!:11
001:0010530367:20120609:130534:BLANK !!:11
001:0009371128:20120609:130615:BLANK !!:11
001:0010530514:20120609:130622:BLANK !!:11
001:0006754204:20120609:130639:BLANK !!:11
001:0003102332:20120609:130642:BLANK !!:11
001:0002270146:20120609:130711:BLANK !!:11
001:0013884770:20120609:130738:BLANK !!:11
001:0006758261:20120609:130740:BLANK !!:11
001:0006751401:20120609:130803:BLANK !!:11
001:0013893682:20120609:130814:BLANK !!:11
001:0010644113:20120609:130912:BLANK !!:11
001:0013888913:20120609:130935:BLANK !!:11
001:0006759096:20120609:131045:BLANK !!:11
001:0002293780:20120609:131047:BLANK !!:11
001:0010533341:20120609:131057:BLANK !!:11
001:0013878382:20120609:131156:BLANK !!:11
001:0009361055:20120609:131202:BLANK !!:11
001:0009371127:20120609:131239:BLANK !!:11
001:0013888858:20120609:131241:BLANK !!:11
001:0015688160:20120609:131244:BLANK !!:11
001:0009354724:20120609:131247:BLANK !!:11
001:0013884590:20120609:131256:BLANK !!:11
001:0010551115:20120609:131304:BLANK !!:11
001:0013874564:20120609:131340:BLANK !!:11
001:0010535545:20120609:131345:BLANK !!:11
001:0009363103:20120609:131418:BLANK !!:11
001:0015697397:20120609:131425:BLANK !!:11
001:0010550340:20120609:131435:BLANK !!:11
001:0010539352:20120609:131558:BLANK !!:11
001:0006752093:20120609:131559:BLANK !!:11
001:0013214375:20120609:131601:BLANK !!:11
001:0013890035:20120609:131603:BLANK !!:11
001:0013878044:20120609:131606:BLANK !!:11
001:0013879402:20120609:131614:BLANK !!:11
001:0006753998:20120609:131621:BLANK !!:11
001:0009350673:20120609:131623:BLANK !!:11
001:0003117930:20120609:131626:BLANK !!:11
001:0013898707:20120609:131629:BLANK !!:11
001:0010628117:20120609:131631:BLANK !!:11
001:0002273235:20120609:131649:BLANK !!:11
001:0010549697:20120609:131654:BLANK !!:11
001:0013883591:20120609:131706:BLANK !!:11
001:0002290081:20120609:131710:BLANK !!:11
001:0004631020:20120609:131715:BLANK !!:11
001:0013884285:20120609:131717:BLANK !!:11
001:0009356502:20120609:131720:BLANK !!:11
001:0006751519:20120609:131725:BLANK !!:11
001:0000365093:20120609:131747:BLANK !!:11
001:0002270614:20120609:131755:BLANK !!:11
001:0003101201:20120609:131803:BLANK !!:11
001:0015693682:20120609:131813:BLANK !!:11
001:0010549386:20120609:131819:BLANK !!:11
001:0010549644:20120609:131830:BLANK !!:11
001:0004631014:20120609:131835:BLANK !!:11
001:0009354725:20120609:131843:BLANK !!:11
001:0010544368:20120609:131845:BLANK !!:11
001:0015682819:20120609:131849:BLANK !!:11
001:0010549504:20120609:131851:BLANK !!:11
001:0009358046:20120609:131929:BLANK !!:11
001:0004631652:20120609:131930:BLANK !!:11
001:0009365681:20120609:131932:BLANK !!:11
001:0013877112:20120609:131951:BLANK !!:11
001:0015689937:20120609:132017:BLANK !!:11
001:0010549455:20120609:132020:BLANK !!:11
001:0013875148:20120609:132023:BLANK !!:11
001:0009357241:20120609:132025:BLANK !!:11
001:0002270962:20120609:132100:BLANK !!:11
001:0010541183:20120609:132109:BLANK !!:11
001:0013952741:20120609:132119:BLANK !!:11
001:0013888628:20120609:132125:BLANK !!:11
001:0015782013:20120609:132127:BLANK !!:11
001:0010542101:20120609:132129:BLANK !!:11
001:0002290144:20120609:132131:BLANK !!:11
001:0009363039:20120609:132134:BLANK !!:11
001:0006753823:20120609:132136:BLANK !!:11
001:0010550890:20120609:132141:BLANK !!:11
001:0013897942:20120609:132144:BLANK !!:11
001:0010530304:20120609:132148:BLANK !!:11
001:0006755497:20120609:132152:BLANK !!:11
001:0013886928:20120609:132153:BLANK !!:11
001:0004619983:20120609:132156:BLANK !!:11
001:0009357239:20120609:132200:BLANK !!:11
001:0013894885:20120609:132203:BLANK !!:11
001:0013883538:20120609:132216:BLANK !!:11
001:0006753948:20120609:132225:BLANK !!:11
001:0002271494:20120609:132249:BLANK !!:11
001:0010532210:20120609:132321:BLANK !!:11
001:0000407097:20120609:132323:BLANK !!:11
001:0002268037:20120609:132331:BLANK !!:11
001:0013897124:20120609:132336:BLANK !!:11
001:0009364804:20120609:132338:BLANK !!:11
001:0008281095:20120609:132340:BLANK !!:11
001:0006760214:20120609:132355:BLANK !!:11
001:0006754282:20120609:132358:BLANK !!:11
001:0015674317:20120609:132401:BLANK !!:11
001:0000365148:20120609:132403:BLANK !!:11
001:0006757851:20120609:132405:BLANK !!:11
001:0015697358:20120609:132406:BLANK !!:11
001:0010531624:20120609:132410:BLANK !!:11
001:0009360755:20120609:132412:BLANK !!:11
001:0009350670:20120609:132418:BLANK !!:11
001:0015688510:20120609:132421:BLANK !!:11
001:0002291755:20120609:132423:BLANK !!:11
001:0013874960:20120609:132425:BLANK !!:11
001:0013886127:20120609:132427:BLANK !!:11
001:0010552986:20120609:132431:BLANK !!:11
001:0013933226:20120609:132433:BLANK !!:11
001:0010549787:20120609:132435:BLANK !!:11
001:0010549596:20120609:132437:BLANK !!:11
001:0004620445:20120609:132439:BLANK !!:11
001:0015685006:20120609:132441:BLANK !!:11
001:0015694629:20120609:132442:BLANK !!:11
001:0002282243:20120609:132444:BLANK !!:11
001:0010549407:20120609:132445:BLANK !!:11
001:0006756914:20120609:132447:BLANK !!:11
001:0010549567:20120609:132449:BLANK !!:11
001:0013893990:20120609:132451:BLANK !!:11
001:0015682735:20120609:132453:BLANK !!:11
001:0010528475:20120609:132455:BLANK !!:11
001:0002294646:20120609:132457:BLANK !!:11
001:0010539435:20120609:132501:BLANK !!:11
001:0010549955:20120609:132504:BLANK !!:11
001:0010531397:20120609:132508:BLANK !!:11
001:0013878009:20120609:132509:BLANK !!:11
001:0010546752:20120609:132521:BLANK !!:11
001:0006755519:20120609:132524:BLANK !!:11
001:0003116472:20120609:132526:BLANK !!:11
001:0002289438:20120609:132528:BLANK !!:11
001:0009347993:20120609:132530:BLANK !!:11
001:0002277756:20120609:132532:BLANK !!:11
001:0009369519:20120609:132535:BLANK !!:11
001:0013881131:20120609:132538:BLANK !!:11
001:0010547997:20120609:132540:BLANK !!:11
001:0013900625:20120609:132542:BLANK !!:11
001:0010540274:20120609:132544:BLANK !!:11
001:0015698466:20120609:132553:BLANK !!:11
001:0010542279:20120609:132555:BLANK !!:11
001:0013877148:20120609:132604:BLANK !!:11
001:0000365380:20120609:132614:BLANK !!:11
001:0002276947:20120609:132617:BLANK !!:11
001:0006750527:20120609:132625:BLANK !!:11
001:0013875397:20120609:132628:BLANK !!:11
001:0013887126:20120609:132630:BLANK !!:11
001:0015696806:20120609:132633:BLANK !!:11
001:0010549748:20120609:132635:BLANK !!:11
001:0010549428:20120609:132640:BLANK !!:11
001:0013894712:20120609:132645:BLANK !!:11
001:0010544149:20120609:132658:BLANK !!:11
001:0013929932:20120609:132701:BLANK !!:11
001:0009360458:20120609:132704:BLANK !!:11
001:0013882456:20120609:132706:BLANK !!:11
001:0009364806:20120609:132708:BLANK !!:11
001:0009364774:20120609:132709:BLANK !!:11
001:0010551168:20120609:132711:BLANK !!:11
001:0009364324:20120609:132714:BLANK !!:11
001:0002268007:20120609:132716:BLANK !!:11
001:0009369518:20120609:132718:BLANK !!:11
001:0015697731:20120609:132735:BLANK !!:11
001:0002292068:20120609:132738:BLANK !!:11
001:0006759131:20120609:132742:BLANK !!:11
001:0015688809:20120609:132744:BLANK !!:11
001:0010550709:20120609:132748:BLANK !!:11
001:0009360756:20120609:132813:BLANK !!:11
001:0002290777:20120609:132817:BLANK !!:11
001:0010537779:20120609:132825:BLANK !!:11
001:0009364108:20120609:132843:BLANK !!:11
001:0015689920:20120609:132850:BLANK !!:11
001:0015685385:20120609:132900:BLANK !!:11
001:0015690200:20120609:132947:BLANK !!:11
001:0002292541:20120609:133001:BLANK !!:11
001:0009350669:20120609:133009:BLANK !!:11
001:0010537681:20120609:133024:BLANK !!:11
001:0013877389:20120609:133044:BLANK !!:11
001:0010547320:20120609:133047:BLANK !!:11
001:0010551185:20120609:133048:BLANK !!:11
001:0010547974:20120609:133125:BLANK !!:11
001:0010634177:20120609:133214:BLANK !!:11
001:0013883458:20120609:133256:BLANK !!:11
001:0009366722:20120609:133258:BLANK !!:11
001:0002274131:20120609:133308:BLANK !!:11
001:0010549433:20120609:133719:BLANK !!:11
001:0002293868:20120609:133722:BLANK !!:11
001:0015694386:20120609:133955:BLANK !!:11
001:0015698029:20120609:134149:BLANK !!:11
001:0015690234:20120609:134621:BLANK !!:11
001:0010550889:20120609:135309:BLANK !!:11
001:0013900664:20120609:135658:BLANK !!:11
001:0015688795:20120609:135942:BLANK !!:11
001:0003150394:20120609:140828:BLANK !!:11
001:0002274131:20120609:141026:BLANK !!:11
001:0002292541:20120609:141356:BLANK !!:11
001:0010547320:20120609:141944:BLANK !!:11
001:0010549433:20120609:142524:BLANK !!:11
001:0002293868:20120609:142528:BLANK !!:11
001:0010634177:20120609:142604:BLANK !!:11
001:0010551185:20120609:142846:BLANK !!:11
001:0013877389:20120609:142852:BLANK !!:11
001:0015690234:20120609:143720:BLANK !!:11
001:0015688795:20120609:143930:BLANK !!:11
001:0010550889:20120609:145029:BLANK !!:11
001:0010551140:20120609:150526:BLANK !!:11
001:0010549450:20120609:151041:BLANK !!:11
001:0009348591:20120609:152726:BLANK !!:11
001:0015688809:20120609:153519:BLANK !!:11
001:0003150394:20120609:154501:BLANK !!:11
001:0013891964:20120609:154938:BLANK !!:11
001:0004631020:20120609:170112:BLANK !!:11
001:0013896430:20120609:170114:BLANK !!:11
001:0004619983:20120609:170131:BLANK !!:11
001:0013893990:20120609:170151:BLANK !!:11
001:0006754282:20120609:170155:BLANK !!:11
001:0009361701:20120609:170209:BLANK !!:11
001:0009348592:20120609:170226:BLANK !!:11
001:0013900540:20120609:170233:BLANK !!:11
001:0013887126:20120609:170236:BLANK !!:11
001:0009359710:20120609:170237:BLANK !!:11
001:0013875397:20120609:170239:BLANK !!:11
001:0002273235:20120609:170300:BLANK !!:11
001:0006752093:20120609:170309:BLANK !!:11
001:0006753998:20120609:170311:BLANK !!:11
001:0009369518:20120609:170313:BLANK !!:11
001:0006754204:20120609:170315:BLANK !!:11
001:0010550340:20120609:170317:BLANK !!:11
001:0010549697:20120609:170319:BLANK !!:11
001:0002290144:20120609:170330:BLANK !!:11
001:0009364774:20120609:170342:BLANK !!:11
001:0013900680:20120609:170358:BLANK !!:11
001:0000365380:20120609:170401:BLANK !!:11
001:0013882456:20120609:170403:BLANK !!:11
001:0010549386:20120609:170405:BLANK !!:11
001:0002270962:20120609:170408:BLANK !!:11
001:0013896080:20120609:170410:BLANK !!:11
001:0010549787:20120609:170412:BLANK !!:11
001:0013929932:20120609:170418:BLANK !!:11
001:0010530514:20120609:170433:BLANK !!:11
001:0015689920:20120609:170441:BLANK !!:11
001:0013890852:20120609:170445:BLANK !!:11
001:0010549428:20120609:170447:BLANK !!:11
001:0009363041:20120609:170451:BLANK !!:11
001:0013885002:20120609:170452:BLANK !!:11
001:0015689937:20120609:170455:BLANK !!:11
001:0010537681:20120609:170559:BLANK !!:11
001:0009366722:20120609:170634:BLANK !!:11
001:0010549644:20120609:170643:BLANK !!:11
001:0010547437:20120609:170709:BLANK !!:11
001:0010550709:20120609:170728:BLANK !!:11
001:0015684972:20120609:170801:BLANK !!:11
001:0013877112:20120609:170934:BLANK !!:11
001:0003150394:20120609:171341:BLANK !!:11
001:0013877148:20120609:171456:BLANK !!:11
001:0013899674:20120609:171533:BLANK !!:11
001:0006755497:20120609:171623:BLANK !!:11
001:0015694386:20120609:171838:BLANK !!:11
001:0010551136:20120609:172200:BLANK !!:11
001:0010535545:20120609:172317:BLANK !!:11
001:0015694393:20120609:173447:BLANK !!:11
001:0013894338:20120609:173450:BLANK !!:11
001:0003150394:20120609:173546:BLANK !!:11
001:0010651256:20120609:173554:BLANK !!:11
001:0015674443:20120609:175744:BLANK !!:11
001:0010644113:20120609:180439:BLANK !!:11
001:0010550910:20120609:180443:BLANK !!:11
001:0013882358:20120609:180806:BLANK !!:11
001:0013888273:20120609:180808:BLANK !!:11
001:0006753686:20120609:180815:BLANK !!:11
001:0013900100:20120609:180916:BLANK !!:11
001:0013896595:20120609:181001:BLANK !!:11
001:0013896752:20120609:181003:BLANK !!:11
001:0013894250:20120609:181029:BLANK !!:11
001:0013896823:20120609:181036:BLANK !!:11
001:0010549450:20120609:181237:BLANK !!:11
001:0013892922:20120609:181244:BLANK !!:11
001:0013886572:20120609:181249:BLANK !!:11
001:0013889788:20120609:181251:BLANK !!:11
001:0013875043:20120609:181415:BLANK !!:11
001:0013901637:20120609:181521:BLANK !!:11
001:0013896432:20120609:181643:BLANK !!:11
001:0013891964:20120609:183459:BLANK !!:11
001:0013888865:20120609:191813:BLANK !!:11
001:0006759918:20120609:193049:BLANK !!:11
001:0003103684:20120609:193051:BLANK !!:11
001:0003117697:20120609:193115:BLANK !!:11
001:0009348591:20120609:193326:BLANK !!:11
001:0002271494:20120609:193405:BLANK !!:11
001:0013892286:20120609:193536:BLANK !!:11
001:0002294278:20120609:193538:BLANK !!:11
001:0013879037:20120609:193945:BLANK !!:11
001:0013874564:20120609:194242:BLANK !!:11
001:0006758431:20120609:194325:BLANK !!:11
001:0010549396:20120609:194627:BLANK !!:11
001:0013875297:20120609:194829:BLANK !!:11
001:0013884770:20120609:195223:BLANK !!:11
001:0013900745:20120609:195225:BLANK !!:11
001:0009364775:20120609:195227:BLANK !!:11
001:0010549454:20120609:195231:BLANK !!:11
001:0002267789:20120609:195438:BLANK !!:11
001:0009369516:20120609:195629:BLANK !!:11
001:0013897282:20120609:195632:BLANK !!:11
001:0013880789:20120609:195754:BLANK !!:11
001:0015691390:20120609:200340:BLANK !!:11
001:0009364772:20120609:203020:BLANK !!:11
001:0006751401:20120609:203029:BLANK !!:11
001:0003101201:20120609:203035:BLANK !!:11
001:0013888913:20120609:203037:BLANK !!:11
001:0015693682:20120609:203039:BLANK !!:11
001:0009364321:20120609:203043:BLANK !!:11
001:0013894885:20120609:203046:BLANK !!:11
001:0009371127:20120609:203048:BLANK !!:11
001:0013883538:20120609:203050:BLANK !!:11
001:0013883458:20120609:203052:BLANK !!:11
001:0013884285:20120609:203056:BLANK !!:11
001:0015696806:20120609:203058:BLANK !!:11
001:0006751519:20120609:203100:BLANK !!:11
001:0013900625:20120609:203102:BLANK !!:11
001:0010553833:20120609:203103:BLANK !!:11
001:0010547974:20120609:203105:BLANK !!:11
001:0013884590:20120609:203107:BLANK !!:11
001:0010530367:20120609:203108:BLANK !!:11
001:0015688795:20120609:203110:BLANK !!:11
001:0015697731:20120609:203111:BLANK !!:11
001:0006757851:20120609:203113:BLANK !!:11
001:0013885080:20120609:203114:BLANK !!:11
001:0010532545:20120609:203116:BLANK !!:11
001:0013897942:20120609:203117:BLANK !!:11
001:0010546752:20120609:203119:BLANK !!:11
001:0002282243:20120609:203121:BLANK !!:11
001:0015674317:20120609:203123:BLANK !!:11
001:0013878180:20120609:203124:BLANK !!:11
001:0010547997:20120609:203126:BLANK !!:11
001:0006756914:20120609:203128:BLANK !!:11
001:0009354724:20120609:203129:BLANK !!:11
001:0010549596:20120609:203132:BLANK !!:11
001:0010547320:20120609:203134:BLANK !!:11
001:0013877389:20120609:203136:BLANK !!:11
001:0013886127:20120609:203138:BLANK !!:11
001:0010551185:20120609:203141:BLANK !!:11
001:0002292541:20120609:203144:BLANK !!:11
001:0009369519:20120609:203146:BLANK !!:11
001:0010551210:20120609:203148:BLANK !!:11
001:0002270146:20120609:203150:BLANK !!:11
001:0006759096:20120609:203152:BLANK !!:11
001:0015689962:20120609:203153:BLANK !!:11
001:0006757638:20120609:203203:BLANK !!:11
001:0013889730:20120609:203204:BLANK !!:11
001:0013897138:20120609:203206:BLANK !!:11
001:0010549407:20120609:203213:BLANK !!:11
001:0003116472:20120609:203217:BLANK !!:11
001:0013894712:20120609:203218:BLANK !!:11
001:0010532210:20120609:203220:BLANK !!:11
001:0009364108:20120609:203222:BLANK !!:11
001:0002290826:20120609:203224:BLANK !!:11
001:0006758261:20120609:203226:BLANK !!:11
001:0002294646:20120609:203228:BLANK !!:11
001:0013881131:20120609:203231:BLANK !!:11
001:0013891964:20120609:203233:BLANK !!:11
001:0002282162:20120609:203235:BLANK !!:11
001:0009363039:20120609:203237:BLANK !!:11
001:0006754257:20120609:203238:BLANK !!:11
001:0000407097:20120609:203242:BLANK !!:11
001:0010549455:20120609:203243:BLANK !!:11
001:0006760141:20120609:203245:BLANK !!:11
001:0010542101:20120609:203246:BLANK !!:11
001:0009352948:20120609:203248:BLANK !!:11
001:0015698466:20120609:203249:BLANK !!:11
001:0002290081:20120609:203251:BLANK !!:11
001:0010543526:20120609:203253:BLANK !!:11
001:0010549767:20120609:203256:BLANK !!:11
001:0010550890:20120609:203259:BLANK !!:11
001:0002267666:20120609:203301:BLANK !!:11
001:0002273808:20120609:203304:BLANK !!:11
001:0010547087:20120609:203306:BLANK !!:11
001:0010554314:20120609:203308:BLANK !!:11
001:0010549371:20120609:203310:BLANK !!:11
001:0010541183:20120609:203313:BLANK !!:11
001:0013880536:20120609:203316:BLANK !!:11
001:0006755461:20120609:203317:BLANK !!:11
001:0015697397:20120609:203319:BLANK !!:11
001:0006757082:20120609:203321:BLANK !!:11
001:0010550306:20120609:203322:BLANK !!:11
001:0002277756:20120609:203326:BLANK !!:11
001:0009363103:20120609:203327:BLANK !!:11
001:0003117930:20120609:203329:BLANK !!:11
001:0010542279:20120609:203331:BLANK !!:11
001:0015685385:20120609:203333:BLANK !!:11
001:0009364804:20120609:203335:BLANK !!:11
001:0000365093:20120609:203336:BLANK !!:11
001:0009365681:20120609:203339:BLANK !!:11
001:0009364806:20120609:203340:BLANK !!:11
001:0009360458:20120609:203342:BLANK !!:11
001:0006753948:20120609:203344:BLANK !!:11
001:0010539061:20120609:203348:BLANK !!:11
001:0015694629:20120609:203349:BLANK !!:11
001:0009360755:20120609:203351:BLANK !!:11
001:0010549504:20120609:203352:BLANK !!:11
001:0013930013:20120609:203354:BLANK !!:11
001:0010531624:20120609:203356:BLANK !!:11
001:0002291294:20120609:203358:BLANK !!:11
001:0013881426:20120609:203401:BLANK !!:11
001:0010653054:20120609:203405:BLANK !!:11
001:0009364805:20120609:203407:BLANK !!:11
001:0010549766:20120609:203409:BLANK !!:11
001:0010549433:20120609:203412:BLANK !!:11
001:0015691426:20120609:203414:BLANK !!:11
001:0010628117:20120609:203416:BLANK !!:11
001:0002293868:20120609:203419:BLANK !!:11
001:0003102332:20120609:203421:BLANK !!:11
001:0003115319:20120609:203423:BLANK !!:11
001:0010549567:20120609:203425:BLANK !!:11
001:0010539435:20120609:203427:BLANK !!:11
001:0015688510:20120609:203430:BLANK !!:11
001:0010544368:20120609:203431:BLANK !!:11
001:0002291755:20120609:203433:BLANK !!:11
001:0009368209:20120609:203435:BLANK !!:11
001:0015693718:20120609:203437:BLANK !!:11
001:0015692449:20120609:203440:BLANK !!:11
001:0013935114:20120609:203442:BLANK !!:11
001:0010547091:20120609:203444:BLANK !!:11
001:0013897124:20120609:203447:BLANK !!:11
001:0002282143:20120609:203449:BLANK !!:11
001:0010540274:20120609:203451:BLANK !!:11
001:0010537779:20120609:203452:BLANK !!:11
001:0002293780:20120609:203454:BLANK !!:11
001:0013874099:20120609:203455:BLANK !!:11
001:0010534521:20120609:203457:BLANK !!:11
001:0010533341:20120609:203458:BLANK !!:11
001:0002268037:20120609:203500:BLANK !!:11
001:0015674575:20120609:203501:BLANK !!:11
001:0015697358:20120609:203503:BLANK !!:11
001:0009361700:20120609:203504:BLANK !!:11
001:0010549955:20120609:203506:BLANK !!:11
001:0010538695:20120609:203508:BLANK !!:11
001:0009368226:20120609:203510:BLANK !!:11
001:0009364773:20120609:203511:BLANK !!:11
001:0009350669:20120609:203513:BLANK !!:11
001:0002276947:20120609:203514:BLANK !!:11
001:0002289438:20120609:203517:BLANK !!:11
001:0009357241:20120609:203519:BLANK !!:11
001:0010552986:20120609:203520:BLANK !!:11
001:0009356502:20120609:203522:BLANK !!:11
001:0009347994:20120609:203525:BLANK !!:11
001:0002270614:20120609:203528:BLANK !!:11
001:0013888858:20120609:203530:BLANK !!:11
001:0006759131:20120609:203534:BLANK !!:11
001:0010538666:20120609:203536:BLANK !!:11
001:0009371128:20120609:203544:BLANK !!:11
001:0010530304:20120609:203549:BLANK !!:11
001:0010539352:20120609:203552:BLANK !!:11
001:0010550294:20120609:203557:BLANK !!:11
001:0015682735:20120609:203602:BLANK !!:11
001:0010549884:20120609:203604:BLANK !!:11
001:0002267758:20120609:203607:BLANK !!:11
001:0006750527:20120609:203611:BLANK !!:11
001:0010634177:20120609:203616:BLANK !!:11
001:0013214375:20120609:203618:BLANK !!:11
001:0013878009:20120609:203621:BLANK !!:11
001:0015698029:20120609:203633:BLANK !!:11
001:0013944638:20120609:203640:BLANK !!:11
001:0002295364:20120609:203641:BLANK !!:11
001:0013891973:20120609:203700:BLANK !!:11
001:0010549413:20120609:203705:BLANK !!:11
001:0009358046:20120609:203710:BLANK !!:11
001:0004631652:20120609:203712:BLANK !!:11
001:0013875148:20120609:203716:BLANK !!:11
001:0009364324:20120609:203718:BLANK !!:11
001:0013878382:20120609:203720:BLANK !!:11
001:0009361055:20120609:203723:BLANK !!:11
001:0002268007:20120609:203725:BLANK !!:11
001:0015685006:20120609:203727:BLANK !!:11
001:0013886928:20120609:203732:BLANK !!:11
001:0013879402:20120609:203733:BLANK !!:11
001:0010536569:20120609:203735:BLANK !!:11
001:0013900030:20120609:203736:BLANK !!:11
001:0009350673:20120609:203738:BLANK !!:11
001:0013894338:20120609:203750:BLANK !!:11
001:0010528475:20120609:203753:BLANK !!:11
001:0013893682:20120609:203758:BLANK !!:11
001:0013952741:20120609:203802:BLANK !!:11
001:0013879728:20120609:203805:BLANK !!:11
001:0002274131:20120609:203808:BLANK !!:11
001:0013895313:20120609:203809:BLANK !!:11
001:0013878708:20120609:203811:BLANK !!:11
001:0013888628:20120609:203813:BLANK !!:11
001:0009368404:20120609:203815:BLANK !!:11
001:0009357239:20120609:203820:BLANK !!:11
001:0013887437:20120609:203825:BLANK !!:11
001:0010551168:20120609:203828:BLANK !!:11
001:0013878129:20120609:203830:BLANK !!:11
001:0002284416:20120609:203842:BLANK !!:11
001:0013887862:20120609:203845:BLANK !!:11
001:0013895851:20120609:203848:BLANK !!:11
001:0009360756:20120609:203850:BLANK !!:11
001:0002290777:20120609:203852:BLANK !!:11
001:0006753823:20120609:203853:BLANK !!:11
001:0015688160:20120609:203857:BLANK !!:11
001:0015682819:20120609:203858:BLANK !!:11
001:0009350670:20120609:203900:BLANK !!:11
001:0010550707:20120609:203905:BLANK !!:11
001:0013887499:20120609:203908:BLANK !!:11
001:0010549402:20120609:203911:BLANK !!:11
001:0013883591:20120609:203915:BLANK !!:11
001:0010550889:20120609:203920:BLANK !!:11
001:0004620445:20120609:203924:BLANK !!:11
001:0006758789:20120609:203928:BLANK !!:11
001:0009361053:20120609:203936:BLANK !!:11
001:0009371131:20120609:203939:BLANK !!:11
001:0000683571:20120609:203946:BLANK !!:11
001:0010549740:20120609:203949:BLANK !!:11
001:0010553521:20120609:203953:BLANK !!:11
001:0015693730:20120609:203956:BLANK !!:11
001:0010531397:20120609:203959:BLANK !!:11
001:0010550678:20120609:204001:BLANK !!:11
001:0013888594:20120609:204003:BLANK !!:11
001:0013892138:20120609:204005:BLANK !!:11
001:0015694393:20120609:204012:BLANK !!:11
001:0009354725:20120609:204015:BLANK !!:11
001:0013878044:20120609:204017:BLANK !!:11
001:0006760214:20120609:204019:BLANK !!:11
001:0002292068:20120609:204022:BLANK !!:11
001:0004624478:20120609:204024:BLANK !!:11
001:0009347993:20120609:204027:BLANK !!:11
001:0013933226:20120609:204029:BLANK !!:11
001:0000365148:20120609:204031:BLANK !!:11
001:0015782013:20120609:204039:BLANK !!:11
001:0015690234:20120609:204054:BLANK !!:11
001:0015690200:20120609:204156:BLANK !!:11
001:0010550898:20120609:204320:BLANK !!:11
001:0010549748:20120609:204634:BLANK !!:11
001:0009357257:20120609:204758:BLANK !!:11
001:0013890035:20120609:210545:BLANK !!:11
001:0013900664:20120609:212247:BLANK !!:11
001:0000365761:20120609:213735:BLANK !!:11
001:0013888305:20120609:220215:BLANK !!:11
001:0010551115:20120609:220217:BLANK !!:11
001:0013874960:20120609:220219:BLANK !!:11
001:0006759918:20120609:220222:BLANK !!:11
001:0002294278:20120609:220223:BLANK !!:11
001:0003103684:20120609:220231:BLANK !!:11
001:0003117697:20120609:220234:BLANK !!:11
001:0013879037:20120609:220235:BLANK !!:11
001:0015691390:20120609:220237:BLANK !!:11
001:0010549454:20120609:220240:BLANK !!:11
001:0013880789:20120609:220300:BLANK !!:11
001:0013875297:20120609:220433:BLANK !!:11
001:0003103684:20120609:222744:BLANK !!:11
001:0013879037:20120609:222747:BLANK !!:11
001:0013896494:20120609:223212:BLANK !!:11
001:0004631014:20120609:223215:BLANK !!:11
001:0013952446:20120609:223217:BLANK !!:11
001:0006755519:20120609:223219:BLANK !!:11
001:0010544149:20120609:223222:BLANK !!:11
001:0002294278:20120609:223954:BLANK !!:11
001:0006759918:20120609:224755:BLANK !!:11
001:0010549454:20120609:224915:BLANK !!:11
001:0013880789:20120609:224946:BLANK !!:11
001:0013897282:20120609:224955:BLANK !!:11
001:0015691390:20120609:225028:BLANK !!:11
001:0003117697:20120609:225039:BLANK !!:11
001:0013875297:20120609:225635:BLANK !!:11
001:0013897282:20120610:050921:BLANK !!:11
001:0002294278:20120610:050925:BLANK !!:11
001:0013879037:20120610:050926:BLANK !!:11
001:0010549454:20120610:050945:BLANK !!:11
001:0015691390:20120610:050958:BLANK !!:11
001:0013880789:20120610:051027:BLANK !!:11
001:0009369516:20120610:051102:BLANK !!:11
001:0003103684:20120610:051234:BLANK !!:11
001:0003117697:20120610:051238:BLANK !!:11
001:0006759918:20120610:052137:BLANK !!:11
001:0010551140:20120610:065054:BLANK !!:11
001:0009364805:20120610:073022:BLANK !!:11
001:0006757082:20120610:073026:BLANK !!:11
001:0010551210:20120610:073032:BLANK !!:11
001:0010539061:20120610:073134:BLANK !!:11
001:0013930013:20120610:073154:BLANK !!:11
001:0006751401:20120610:073236:BLANK !!:11
001:0013891964:20120610:073247:BLANK !!:11
001:0009371131:20120610:073317:BLANK !!:11
001:0015688795:20120610:073321:BLANK !!:11
001:0013900540:20120610:073327:BLANK !!:11
001:0013878180:20120610:073329:BLANK !!:11
001:0010553833:20120610:073333:BLANK !!:11
001:0006758261:20120610:073341:BLANK !!:11
001:0010530367:20120610:073401:BLANK !!:11
001:0009361053:20120610:073428:BLANK !!:11
001:0013900030:20120610:073623:BLANK !!:11
001:0003110988:20120610:073624:BLANK !!:11
001:0006754204:20120610:073633:BLANK !!:11
001:0013897124:20120610:073714:BLANK !!:11
001:0009361701:20120610:073719:BLANK !!:11
001:0015693730:20120610:073759:BLANK !!:11
001:0009363103:20120610:073910:BLANK !!:11
001:0013887499:20120610:073939:BLANK !!:11
001:0010537779:20120610:074020:BLANK !!:11
001:0010550678:20120610:074027:BLANK !!:11
001:0002290081:20120610:074037:BLANK !!:11
001:0006754282:20120610:074044:BLANK !!:11
001:0013897942:20120610:074048:BLANK !!:11
001:0006760141:20120610:074057:BLANK !!:11
001:0010549884:20120610:074100:BLANK !!:11
001:0013214375:20120610:074103:BLANK !!:11
001:0013878009:20120610:074126:BLANK !!:11
001:0002282143:20120610:074129:BLANK !!:11
001:0009371413:20120610:074143:BLANK !!:11
001:0013893682:20120610:074147:BLANK !!:11
001:0009347994:20120610:074153:BLANK !!:11
001:0002282162:20120610:074205:BLANK !!:11
001:0002267758:20120610:074215:BLANK !!:11
001:0013944638:20120610:074218:BLANK !!:11
001:0013884285:20120610:074229:BLANK !!:11
001:0010532545:20120610:074243:BLANK !!:11
001:0015684972:20120610:074249:BLANK !!:11
001:0013889730:20120610:074252:BLANK !!:11
001:0002268037:20120610:074301:BLANK !!:11
001:0013884590:20120610:074305:BLANK !!:11
001:0015697397:20120610:074308:BLANK !!:11
001:0002270614:20120610:074320:BLANK !!:11
001:0013935114:20120610:074326:BLANK !!:11
001:0013881426:20120610:074330:BLANK !!:11
001:0013895313:20120610:074358:BLANK !!:11
001:0009361700:20120610:074401:BLANK !!:11
001:0006751998:20120610:074402:BLANK !!:11
001:0013878708:20120610:074404:BLANK !!:11
001:0010547091:20120610:074406:BLANK !!:11
001:0009364773:20120610:074408:BLANK !!:11
001:0009368404:20120610:074409:BLANK !!:11
001:0000365148:20120610:074411:BLANK !!:11
001:0015693682:20120610:074413:BLANK !!:11
001:0010628117:20120610:074415:BLANK !!:11
001:0013898707:20120610:074417:BLANK !!:11
001:0013888305:20120610:074420:BLANK !!:11
001:0010552986:20120610:074422:BLANK !!:11
001:0013933226:20120610:074424:BLANK !!:11
001:0013883458:20120610:074437:BLANK !!:11
001:0002291755:20120610:074442:BLANK !!:11
001:0002291294:20120610:074444:BLANK !!:11
001:0010547087:20120610:074448:BLANK !!:11
001:0013888865:20120610:074451:BLANK !!:11
001:0006760214:20120610:074502:BLANK !!:11
001:0006758961:20120610:074505:BLANK !!:11
001:0010539435:20120610:074507:BLANK !!:11
001:0010554314:20120610:074508:BLANK !!:11
001:0010549504:20120610:074511:BLANK !!:11
001:0002293780:20120610:074515:BLANK !!:11
001:0013877112:20120610:074518:BLANK !!:11
001:0013878382:20120610:074521:BLANK !!:11
001:0013887437:20120610:074523:BLANK !!:11
001:0002273235:20120610:074525:BLANK !!:11
001:0010551115:20120610:074527:BLANK !!:11
001:0002270962:20120610:074535:BLANK !!:11
001:0013874960:20120610:074537:BLANK !!:11
001:0013878129:20120610:074539:BLANK !!:11
001:0006754257:20120610:074542:BLANK !!:11
001:0009354724:20120610:074544:BLANK !!:11
001:0010547320:20120610:074547:BLANK !!:11
001:0010544149:20120610:074552:BLANK !!:11
001:0013887126:20120610:074554:BLANK !!:11
001:0010536569:20120610:074555:BLANK !!:11
001:0006757638:20120610:074558:BLANK !!:11
001:0015694393:20120610:074611:BLANK !!:11
001:0013890035:20120610:074614:BLANK !!:11
001:0015688809:20120610:074621:BLANK !!:11
001:0013886127:20120610:074627:BLANK !!:11
001:0009356502:20120610:074631:BLANK !!:11
001:0013894712:20120610:074638:BLANK !!:11
001:0010549596:20120610:074655:BLANK !!:11
001:0002267666:20120610:074658:BLANK !!:11
001:0000683571:20120610:074732:BLANK !!:11
001:0002292541:20120610:074734:BLANK !!:11
001:0002274545:20120610:074736:BLANK !!:11
001:0013879728:20120610:074738:BLANK !!:11
001:0010549787:20120610:074740:BLANK !!:11
001:0009371127:20120610:074744:BLANK !!:11
001:0010538695:20120610:074757:BLANK !!:11
001:0006753823:20120610:074759:BLANK !!:11
001:0006756914:20120610:074804:BLANK !!:11
001:0010542101:20120610:074807:BLANK !!:11
001:0015697358:20120610:074809:BLANK !!:11
001:0010634177:20120610:074814:BLANK !!:11
001:0013952741:20120610:074816:BLANK !!:11
001:0015696806:20120610:074819:BLANK !!:11
001:0006753686:20120610:074821:BLANK !!:11
001:0013875397:20120610:074823:BLANK !!:11
001:0002274131:20120610:074826:BLANK !!:11
001:0000365380:20120610:074828:BLANK !!:11
001:0015696870:20120610:074831:BLANK !!:11
001:0006753948:20120610:074834:BLANK !!:11
001:0009364321:20120610:074844:BLANK !!:11
001:0013952446:20120610:074846:BLANK !!:11
001:0015688510:20120610:074850:BLANK !!:11
001:0013891973:20120610:074858:BLANK !!:11
001:0015682735:20120610:074905:BLANK !!:11
001:0009357257:20120610:074913:BLANK !!:11
001:0006752093:20120610:074916:BLANK !!:11
001:0009363041:20120610:074919:BLANK !!:11
001:0013896494:20120610:074922:BLANK !!:11
001:0003101201:20120610:074924:BLANK !!:11
001:0015690234:20120610:074928:BLANK !!:11
001:0010539352:20120610:074930:BLANK !!:11
001:0006755461:20120610:074933:BLANK !!:11
001:0009360049:20120610:074936:BLANK !!:11
001:0013878044:20120610:074938:BLANK !!:11
001:0009357241:20120610:074940:BLANK !!:11
001:0015689937:20120610:074943:BLANK !!:11
001:0010549402:20120610:074945:BLANK !!:11
001:0013883591:20120610:074947:BLANK !!:11
001:0006759096:20120610:074949:BLANK !!:11
001:0013894885:20120610:074951:BLANK !!:11
001:0010550889:20120610:074953:BLANK !!:11
001:0013888594:20120610:074956:BLANK !!:11
001:0013892138:20120610:074959:BLANK !!:11
001:0002292481:20120610:075013:BLANK !!:11
001:0010549413:20120610:075016:BLANK !!:11
001:0010532210:20120610:075019:BLANK !!:11
001:0002284416:20120610:075021:BLANK !!:11
001:0002277756:20120610:075025:BLANK !!:11
001:0015693718:20120610:075028:BLANK !!:11
001:0010544368:20120610:075031:BLANK !!:11
001:0002290144:20120610:075035:BLANK !!:11
001:0015698466:20120610:075043:BLANK !!:11
001:0010542279:20120610:075045:BLANK !!:11
001:0010550306:20120610:075047:BLANK !!:11
001:0010533341:20120610:075051:BLANK !!:11
001:0010538666:20120610:075053:BLANK !!:11
001:0010549955:20120610:075100:BLANK !!:11
001:0013888913:20120610:075104:BLANK !!:11
001:0009320970:20120610:075105:BLANK !!:11
001:0015691426:20120610:075107:BLANK !!:11
001:0004631652:20120610:075110:BLANK !!:11
001:0009360755:20120610:075112:BLANK !!:11
001:0002293868:20120610:075114:BLANK !!:11
001:0010551155:20120610:075116:BLANK !!:11
001:0009354725:20120610:075118:BLANK !!:11
001:0002290826:20120610:075119:BLANK !!:11
001:0002273808:20120610:075121:BLANK !!:11
001:0002289438:20120610:075124:BLANK !!:11
001:0006758789:20120610:075128:BLANK !!:11
001:0013887862:20120610:075131:BLANK !!:11
001:0010549450:20120610:075133:BLANK !!:11
001:0010541183:20120610:075136:BLANK !!:11
001:0013882456:20120610:075139:BLANK !!:11
001:0009364804:20120610:075141:BLANK !!:11
001:0009364806:20120610:075143:BLANK !!:11
001:0010549740:20120610:075145:BLANK !!:11
001:0009360458:20120610:075146:BLANK !!:11
001:0015697731:20120610:075148:BLANK !!:11
001:0013894338:20120610:075153:BLANK !!:11
001:0010653054:20120610:075157:BLANK !!:11
001:0009363039:20120610:075159:BLANK !!:11
001:0013874564:20120610:075203:BLANK !!:11
001:0002271494:20120610:075205:BLANK !!:11
001:0010540274:20120610:075208:BLANK !!:11
001:0010534521:20120610:075211:BLANK !!:11
001:0010549433:20120610:075222:BLANK !!:11
001:0015689920:20120610:075227:BLANK !!:11
001:0013888628:20120610:075230:BLANK !!:11
001:0013889930:20120610:075232:BLANK !!:11
001:0013888628:20120610:075234:BLANK !!:11
001:0000407097:20120610:075236:BLANK !!:11
001:0006751519:20120610:075239:BLANK !!:11
001:0006755519:20120610:075241:BLANK !!:11
001:0003117930:20120610:075245:BLANK !!:11
001:0013880536:20120610:075251:BLANK !!:11
001:0015674317:20120610:075306:BLANK !!:11
001:0013892286:20120610:075309:BLANK !!:11
001:0009359710:20120610:075311:BLANK !!:11
001:0013886928:20120610:075317:BLANK !!:11
001:0009361055:20120610:075325:BLANK !!:11
001:0002292068:20120610:075329:BLANK !!:11
001:0010549509:20120610:075331:BLANK !!:11
001:0010549766:20120610:075334:BLANK !!:11
001:0015689962:20120610:075338:BLANK !!:11
001:0010550294:20120610:075342:BLANK !!:11
001:0015674443:20120610:075346:BLANK !!:11
001:0010547974:20120610:075353:BLANK !!:11
001:0010549748:20120610:075356:BLANK !!:11
001:0002282243:20120610:075403:BLANK !!:11
001:0009368209:20120610:075423:BLANK !!:11
001:0006755449:20120610:075427:BLANK !!:11
001:0013900625:20120610:075434:BLANK !!:11
001:0010549455:20120610:075438:BLANK !!:11
001:0009364324:20120610:075440:BLANK !!:11
001:0010531397:20120610:075441:BLANK !!:11
001:0009350673:20120610:075444:BLANK !!:11
001:0010547997:20120610:075446:BLANK !!:11
001:0015692449:20120610:075452:BLANK !!:11
001:0004620445:20120610:075455:BLANK !!:11
001:0010551168:20120610:075507:BLANK !!:11
001:0009352948:20120610:075518:BLANK !!:11
001:0010550707:20120610:075522:BLANK !!:11
001:0009350669:20120610:075525:BLANK !!:11
001:0009364774:20120610:075528:BLANK !!:11
001:0002268007:20120610:075530:BLANK !!:11
001:0009350670:20120610:075532:BLANK !!:11
001:0010548132:20120610:075534:BLANK !!:11
001:0010535545:20120610:075539:BLANK !!:11
001:0003150394:20120610:075541:BLANK !!:11
001:0015698029:20120610:075544:BLANK !!:11
001:0006759131:20120610:075546:BLANK !!:11
001:0015682819:20120610:075548:BLANK !!:11
001:0015688160:20120610:075550:BLANK !!:11
001:0009368226:20120610:075555:BLANK !!:11
001:0013874099:20120610:075556:BLANK !!:11
001:0010547437:20120610:075558:BLANK !!:11
001:0010551185:20120610:075600:BLANK !!:11
001:0013877389:20120610:075606:BLANK !!:11
001:0015694629:20120610:075609:BLANK !!:11
001:0010549567:20120610:075611:BLANK !!:11
001:0009369521:20120610:075612:BLANK !!:11
001:0015685006:20120610:075615:BLANK !!:11
001:0002290777:20120610:075616:BLANK !!:11
001:0009360756:20120610:075618:BLANK !!:11
001:0010550890:20120610:075620:BLANK !!:11
001:0013897138:20120610:075622:BLANK !!:11
001:0004631014:20120610:075623:BLANK !!:11
001:0010549371:20120610:075625:BLANK !!:11
001:0010551136:20120610:075627:BLANK !!:11
001:0009364772:20120610:075629:BLANK !!:11
001:0010528475:20120610:075630:BLANK !!:11
001:0013883538:20120610:075632:BLANK !!:11
001:0009358046:20120610:075634:BLANK !!:11
001:0002276947:20120610:075635:BLANK !!:11
001:0009360116:20120610:075637:BLANK !!:11
001:0009347993:20120610:075639:BLANK !!:11
001:0006753998:20120610:075641:BLANK !!:11
001:0009357239:20120610:075647:BLANK !!:11
001:0015685385:20120610:075656:BLANK !!:11
001:0010549386:20120610:075700:BLANK !!:11
001:0009369518:20120610:075704:BLANK !!:11
001:0010550709:20120610:075711:BLANK !!:11
001:0010550340:20120610:075722:BLANK !!:11
001:0003116472:20120610:075729:BLANK !!:11
001:0013893990:20120610:075735:BLANK !!:11
001:0000365093:20120610:075737:BLANK !!:11
001:0006750527:20120610:075741:BLANK !!:11
001:0010549697:20120610:075747:BLANK !!:11
001:0013895851:20120610:075803:BLANK !!:11
001:0010549407:20120610:075805:BLANK !!:11
001:0013879402:20120610:075807:BLANK !!:11
001:0013881131:20120610:075812:BLANK !!:11
001:0009365681:20120610:075824:BLANK !!:11
001:0013885080:20120610:075840:BLANK !!:11
001:0015694386:20120610:075842:BLANK !!:11
001:0010543526:20120610:075847:BLANK !!:11
001:0010549428:20120610:075849:BLANK !!:11
001:0006757851:20120610:075853:BLANK !!:11
001:0013883642:20120610:075915:BLANK !!:11
001:0010531624:20120610:075921:BLANK !!:11
001:0010537681:20120610:080008:BLANK !!:11
001:0009348591:20120610:080050:BLANK !!:11
001:0009369519:20120610:080116:BLANK !!:11
001:0010549767:20120610:080138:BLANK !!:11
001:0015674575:20120610:080204:BLANK !!:11
001:0009371128:20120610:080244:BLANK !!:11
001:0002294646:20120610:080339:BLANK !!:11
001:0013875297:20120610:080343:BLANK !!:11
001:0013875148:20120610:080348:BLANK !!:11
001:0013890852:20120610:080428:BLANK !!:11
001:0013888430:20120610:080448:BLANK !!:11
001:0013888858:20120610:080450:BLANK !!:11
001:0002295364:20120610:080724:BLANK !!:11
001:0004624478:20120610:080925:BLANK !!:11
001:0000365761:20120610:080949:BLANK !!:11
001:0013877148:20120610:081456:BLANK !!:11
001:0006758431:20120610:081810:BLANK !!:11
001:0002267789:20120610:082246:BLANK !!:11
001:0015690200:20120610:082430:BLANK !!:11
001:0010549396:20120610:083141:BLANK !!:11
001:0013900664:20120610:083229:BLANK !!:11
001:0013875043:20120610:085048:BLANK !!:11
001:0013896432:20120610:085052:BLANK !!:11
001:0010533195:20120610:085056:BLANK !!:11
001:0013894250:20120610:085343:BLANK !!:11
001:0013880904:20120610:085350:BLANK !!:11
001:0013896752:20120610:085353:BLANK !!:11
001:0013881218:20120610:085357:BLANK !!:11
001:0013900100:20120610:085402:BLANK !!:11
001:0013889788:20120610:085405:BLANK !!:11
001:0013896595:20120610:085411:BLANK !!:11
001:0013882358:20120610:085412:BLANK !!:11
001:0013888273:20120610:085415:BLANK !!:11
001:0006756113:20120610:085420:BLANK !!:11
001:0013885371:20120610:085424:BLANK !!:11
001:0013896958:20120610:085453:BLANK !!:11
001:0013886572:20120610:085456:BLANK !!:11
001:0013886076:20120610:085459:BLANK !!:11
001:0013901637:20120610:085501:BLANK !!:11
001:0013892922:20120610:085503:BLANK !!:11
001:0013889932:20120610:085506:BLANK !!:11
001:0013896823:20120610:085552:BLANK !!:11
001:0006760116:20120610:091325:BLANK !!:11
001:0010550910:20120610:091333:BLANK !!:11
001:0013885371:20120610:091420:BLANK !!:11
