001:0013897282:20120610:050921:BLANK !!:11
001:0002294278:20120610:050925:BLANK !!:11
001:0013879037:20120610:050926:BLANK !!:11
001:0010549454:20120610:050945:BLANK !!:11
001:0015691390:20120610:050958:BLANK !!:11
001:0013880789:20120610:051027:BLANK !!:11
001:0009369516:20120610:051102:BLANK !!:11
001:0003103684:20120610:051234:BLANK !!:11
001:0003117697:20120610:051238:BLANK !!:11
001:0006759918:20120610:052137:BLANK !!:11
001:0010551140:20120610:065054:BLANK !!:11
001:0009364805:20120610:073022:BLANK !!:11
001:0006757082:20120610:073026:BLANK !!:11
001:0010551210:20120610:073032:BLANK !!:11
001:0010539061:20120610:073134:BLANK !!:11
001:0013930013:20120610:073154:BLANK !!:11
001:0006751401:20120610:073236:BLANK !!:11
001:0013891964:20120610:073247:BLANK !!:11
001:0009371131:20120610:073317:BLANK !!:11
001:0015688795:20120610:073321:BLANK !!:11
001:0013900540:20120610:073327:BLANK !!:11
001:0013878180:20120610:073329:BLANK !!:11
001:0010553833:20120610:073333:BLANK !!:11
001:0006758261:20120610:073341:BLANK !!:11
001:0010530367:20120610:073401:BLANK !!:11
001:0009361053:20120610:073428:BLANK !!:11
001:0013900030:20120610:073623:BLANK !!:11
001:0003110988:20120610:073624:BLANK !!:11
001:0006754204:20120610:073633:BLANK !!:11
001:0013897124:20120610:073714:BLANK !!:11
001:0009361701:20120610:073719:BLANK !!:11
001:0015693730:20120610:073759:BLANK !!:11
001:0009363103:20120610:073910:BLANK !!:11
001:0013887499:20120610:073939:BLANK !!:11
001:0010537779:20120610:074020:BLANK !!:11
001:0010550678:20120610:074027:BLANK !!:11
001:0002290081:20120610:074037:BLANK !!:11
001:0006754282:20120610:074044:BLANK !!:11
001:0013897942:20120610:074048:BLANK !!:11
001:0006760141:20120610:074057:BLANK !!:11
001:0010549884:20120610:074100:BLANK !!:11
001:0013214375:20120610:074103:BLANK !!:11
001:0013878009:20120610:074126:BLANK !!:11
001:0002282143:20120610:074129:BLANK !!:11
001:0009371413:20120610:074143:BLANK !!:11
001:0013893682:20120610:074147:BLANK !!:11
001:0009347994:20120610:074153:BLANK !!:11
001:0002282162:20120610:074205:BLANK !!:11
001:0002267758:20120610:074215:BLANK !!:11
001:0013944638:20120610:074218:BLANK !!:11
001:0013884285:20120610:074229:BLANK !!:11
001:0010532545:20120610:074243:BLANK !!:11
001:0015684972:20120610:074249:BLANK !!:11
001:0013889730:20120610:074252:BLANK !!:11
001:0002268037:20120610:074301:BLANK !!:11
001:0013884590:20120610:074305:BLANK !!:11
001:0015697397:20120610:074308:BLANK !!:11
001:0002270614:20120610:074320:BLANK !!:11
001:0013935114:20120610:074326:BLANK !!:11
001:0013881426:20120610:074330:BLANK !!:11
001:0013895313:20120610:074358:BLANK !!:11
001:0009361700:20120610:074401:BLANK !!:11
001:0006751998:20120610:074402:BLANK !!:11
001:0013878708:20120610:074404:BLANK !!:11
001:0010547091:20120610:074406:BLANK !!:11
001:0009364773:20120610:074408:BLANK !!:11
001:0009368404:20120610:074409:BLANK !!:11
001:0000365148:20120610:074411:BLANK !!:11
001:0015693682:20120610:074413:BLANK !!:11
001:0010628117:20120610:074415:BLANK !!:11
001:0013898707:20120610:074417:BLANK !!:11
001:0013888305:20120610:074420:BLANK !!:11
001:0010552986:20120610:074422:BLANK !!:11
001:0013933226:20120610:074424:BLANK !!:11
001:0013883458:20120610:074437:BLANK !!:11
001:0002291755:20120610:074442:BLANK !!:11
001:0002291294:20120610:074444:BLANK !!:11
001:0010547087:20120610:074448:BLANK !!:11
001:0013888865:20120610:074451:BLANK !!:11
001:0006760214:20120610:074502:BLANK !!:11
001:0006758961:20120610:074505:BLANK !!:11
001:0010539435:20120610:074507:BLANK !!:11
001:0010554314:20120610:074508:BLANK !!:11
001:0010549504:20120610:074511:BLANK !!:11
001:0002293780:20120610:074515:BLANK !!:11
001:0013877112:20120610:074518:BLANK !!:11
001:0013878382:20120610:074521:BLANK !!:11
001:0013887437:20120610:074523:BLANK !!:11
001:0002273235:20120610:074525:BLANK !!:11
001:0010551115:20120610:074527:BLANK !!:11
001:0002270962:20120610:074535:BLANK !!:11
001:0013874960:20120610:074537:BLANK !!:11
001:0013878129:20120610:074539:BLANK !!:11
001:0006754257:20120610:074542:BLANK !!:11
001:0009354724:20120610:074544:BLANK !!:11
001:0010547320:20120610:074547:BLANK !!:11
001:0010544149:20120610:074552:BLANK !!:11
001:0013887126:20120610:074554:BLANK !!:11
001:0010536569:20120610:074555:BLANK !!:11
001:0006757638:20120610:074558:BLANK !!:11
001:0015694393:20120610:074611:BLANK !!:11
001:0013890035:20120610:074614:BLANK !!:11
001:0015688809:20120610:074621:BLANK !!:11
001:0013886127:20120610:074627:BLANK !!:11
001:0009356502:20120610:074631:BLANK !!:11
001:0013894712:20120610:074638:BLANK !!:11
001:0010549596:20120610:074655:BLANK !!:11
001:0002267666:20120610:074658:BLANK !!:11
001:0000683571:20120610:074732:BLANK !!:11
001:0002292541:20120610:074734:BLANK !!:11
001:0002274545:20120610:074736:BLANK !!:11
001:0013879728:20120610:074738:BLANK !!:11
001:0010549787:20120610:074740:BLANK !!:11
001:0009371127:20120610:074744:BLANK !!:11
001:0010538695:20120610:074757:BLANK !!:11
001:0006753823:20120610:074759:BLANK !!:11
001:0006756914:20120610:074804:BLANK !!:11
001:0010542101:20120610:074807:BLANK !!:11
001:0015697358:20120610:074809:BLANK !!:11
001:0010634177:20120610:074814:BLANK !!:11
001:0013952741:20120610:074816:BLANK !!:11
001:0015696806:20120610:074819:BLANK !!:11
001:0006753686:20120610:074821:BLANK !!:11
001:0013875397:20120610:074823:BLANK !!:11
001:0002274131:20120610:074826:BLANK !!:11
001:0000365380:20120610:074828:BLANK !!:11
001:0015696870:20120610:074831:BLANK !!:11
001:0006753948:20120610:074834:BLANK !!:11
001:0009364321:20120610:074844:BLANK !!:11
001:0013952446:20120610:074846:BLANK !!:11
001:0015688510:20120610:074850:BLANK !!:11
001:0013891973:20120610:074858:BLANK !!:11
001:0015682735:20120610:074905:BLANK !!:11
001:0009357257:20120610:074913:BLANK !!:11
001:0006752093:20120610:074916:BLANK !!:11
001:0009363041:20120610:074919:BLANK !!:11
001:0013896494:20120610:074922:BLANK !!:11
001:0003101201:20120610:074924:BLANK !!:11
001:0015690234:20120610:074928:BLANK !!:11
001:0010539352:20120610:074930:BLANK !!:11
001:0006755461:20120610:074933:BLANK !!:11
001:0009360049:20120610:074936:BLANK !!:11
001:0013878044:20120610:074938:BLANK !!:11
001:0009357241:20120610:074940:BLANK !!:11
001:0015689937:20120610:074943:BLANK !!:11
001:0010549402:20120610:074945:BLANK !!:11
001:0013883591:20120610:074947:BLANK !!:11
001:0006759096:20120610:074949:BLANK !!:11
001:0013894885:20120610:074951:BLANK !!:11
001:0010550889:20120610:074953:BLANK !!:11
001:0013888594:20120610:074956:BLANK !!:11
001:0013892138:20120610:074959:BLANK !!:11
001:0002292481:20120610:075013:BLANK !!:11
001:0010549413:20120610:075016:BLANK !!:11
001:0010532210:20120610:075019:BLANK !!:11
001:0002284416:20120610:075021:BLANK !!:11
001:0002277756:20120610:075025:BLANK !!:11
001:0015693718:20120610:075028:BLANK !!:11
001:0010544368:20120610:075031:BLANK !!:11
001:0002290144:20120610:075035:BLANK !!:11
001:0015698466:20120610:075043:BLANK !!:11
001:0010542279:20120610:075045:BLANK !!:11
001:0010550306:20120610:075047:BLANK !!:11
001:0010533341:20120610:075051:BLANK !!:11
001:0010538666:20120610:075053:BLANK !!:11
001:0010549955:20120610:075100:BLANK !!:11
001:0013888913:20120610:075104:BLANK !!:11
001:0009320970:20120610:075105:BLANK !!:11
001:0015691426:20120610:075107:BLANK !!:11
001:0004631652:20120610:075110:BLANK !!:11
001:0009360755:20120610:075112:BLANK !!:11
001:0002293868:20120610:075114:BLANK !!:11
001:0010551155:20120610:075116:BLANK !!:11
001:0009354725:20120610:075118:BLANK !!:11
001:0002290826:20120610:075119:BLANK !!:11
001:0002273808:20120610:075121:BLANK !!:11
001:0002289438:20120610:075124:BLANK !!:11
001:0006758789:20120610:075128:BLANK !!:11
001:0013887862:20120610:075131:BLANK !!:11
001:0010549450:20120610:075133:BLANK !!:11
001:0010541183:20120610:075136:BLANK !!:11
001:0013882456:20120610:075139:BLANK !!:11
001:0009364804:20120610:075141:BLANK !!:11
001:0009364806:20120610:075143:BLANK !!:11
001:0010549740:20120610:075145:BLANK !!:11
001:0009360458:20120610:075146:BLANK !!:11
001:0015697731:20120610:075148:BLANK !!:11
001:0013894338:20120610:075153:BLANK !!:11
001:0010653054:20120610:075157:BLANK !!:11
001:0009363039:20120610:075159:BLANK !!:11
001:0013874564:20120610:075203:BLANK !!:11
001:0002271494:20120610:075205:BLANK !!:11
001:0010540274:20120610:075208:BLANK !!:11
001:0010534521:20120610:075211:BLANK !!:11
001:0010549433:20120610:075222:BLANK !!:11
001:0015689920:20120610:075227:BLANK !!:11
001:0013888628:20120610:075230:BLANK !!:11
001:0013889930:20120610:075232:BLANK !!:11
001:0013888628:20120610:075234:BLANK !!:11
001:0000407097:20120610:075236:BLANK !!:11
001:0006751519:20120610:075239:BLANK !!:11
001:0006755519:20120610:075241:BLANK !!:11
001:0003117930:20120610:075245:BLANK !!:11
001:0013880536:20120610:075251:BLANK !!:11
001:0015674317:20120610:075306:BLANK !!:11
001:0013892286:20120610:075309:BLANK !!:11
001:0009359710:20120610:075311:BLANK !!:11
001:0013886928:20120610:075317:BLANK !!:11
001:0009361055:20120610:075325:BLANK !!:11
001:0002292068:20120610:075329:BLANK !!:11
001:0010549509:20120610:075331:BLANK !!:11
001:0010549766:20120610:075334:BLANK !!:11
001:0015689962:20120610:075338:BLANK !!:11
001:0010550294:20120610:075342:BLANK !!:11
001:0015674443:20120610:075346:BLANK !!:11
001:0010547974:20120610:075353:BLANK !!:11
001:0010549748:20120610:075356:BLANK !!:11
001:0002282243:20120610:075403:BLANK !!:11
001:0009368209:20120610:075423:BLANK !!:11
001:0006755449:20120610:075427:BLANK !!:11
001:0013900625:20120610:075434:BLANK !!:11
001:0010549455:20120610:075438:BLANK !!:11
001:0009364324:20120610:075440:BLANK !!:11
001:0010531397:20120610:075441:BLANK !!:11
001:0009350673:20120610:075444:BLANK !!:11
001:0010547997:20120610:075446:BLANK !!:11
001:0015692449:20120610:075452:BLANK !!:11
001:0004620445:20120610:075455:BLANK !!:11
001:0010551168:20120610:075507:BLANK !!:11
001:0009352948:20120610:075518:BLANK !!:11
001:0010550707:20120610:075522:BLANK !!:11
001:0009350669:20120610:075525:BLANK !!:11
001:0009364774:20120610:075528:BLANK !!:11
001:0002268007:20120610:075530:BLANK !!:11
001:0009350670:20120610:075532:BLANK !!:11
001:0010548132:20120610:075534:BLANK !!:11
001:0010535545:20120610:075539:BLANK !!:11
001:0003150394:20120610:075541:BLANK !!:11
001:0015698029:20120610:075544:BLANK !!:11
001:0006759131:20120610:075546:BLANK !!:11
001:0015682819:20120610:075548:BLANK !!:11
001:0015688160:20120610:075550:BLANK !!:11
001:0009368226:20120610:075555:BLANK !!:11
001:0013874099:20120610:075556:BLANK !!:11
001:0010547437:20120610:075558:BLANK !!:11
001:0010551185:20120610:075600:BLANK !!:11
001:0013877389:20120610:075606:BLANK !!:11
001:0015694629:20120610:075609:BLANK !!:11
001:0010549567:20120610:075611:BLANK !!:11
001:0009369521:20120610:075612:BLANK !!:11
001:0015685006:20120610:075615:BLANK !!:11
001:0002290777:20120610:075616:BLANK !!:11
001:0009360756:20120610:075618:BLANK !!:11
001:0010550890:20120610:075620:BLANK !!:11
001:0013897138:20120610:075622:BLANK !!:11
001:0004631014:20120610:075623:BLANK !!:11
001:0010549371:20120610:075625:BLANK !!:11
001:0010551136:20120610:075627:BLANK !!:11
001:0009364772:20120610:075629:BLANK !!:11
001:0010528475:20120610:075630:BLANK !!:11
001:0013883538:20120610:075632:BLANK !!:11
001:0009358046:20120610:075634:BLANK !!:11
001:0002276947:20120610:075635:BLANK !!:11
001:0009360116:20120610:075637:BLANK !!:11
001:0009347993:20120610:075639:BLANK !!:11
001:0006753998:20120610:075641:BLANK !!:11
001:0009357239:20120610:075647:BLANK !!:11
001:0015685385:20120610:075656:BLANK !!:11
001:0010549386:20120610:075700:BLANK !!:11
001:0009369518:20120610:075704:BLANK !!:11
001:0010550709:20120610:075711:BLANK !!:11
001:0010550340:20120610:075722:BLANK !!:11
001:0003116472:20120610:075729:BLANK !!:11
001:0013893990:20120610:075735:BLANK !!:11
001:0000365093:20120610:075737:BLANK !!:11
001:0006750527:20120610:075741:BLANK !!:11
001:0010549697:20120610:075747:BLANK !!:11
001:0013895851:20120610:075803:BLANK !!:11
001:0010549407:20120610:075805:BLANK !!:11
001:0013879402:20120610:075807:BLANK !!:11
001:0013881131:20120610:075812:BLANK !!:11
001:0009365681:20120610:075824:BLANK !!:11
001:0013885080:20120610:075840:BLANK !!:11
001:0015694386:20120610:075842:BLANK !!:11
001:0010543526:20120610:075847:BLANK !!:11
001:0010549428:20120610:075849:BLANK !!:11
001:0006757851:20120610:075853:BLANK !!:11
001:0013883642:20120610:075915:BLANK !!:11
001:0010531624:20120610:075921:BLANK !!:11
001:0010537681:20120610:080008:BLANK !!:11
001:0009348591:20120610:080050:BLANK !!:11
001:0009369519:20120610:080116:BLANK !!:11
001:0010549767:20120610:080138:BLANK !!:11
001:0015674575:20120610:080204:BLANK !!:11
001:0009371128:20120610:080244:BLANK !!:11
001:0002294646:20120610:080339:BLANK !!:11
001:0013875297:20120610:080343:BLANK !!:11
001:0013875148:20120610:080348:BLANK !!:11
001:0013890852:20120610:080428:BLANK !!:11
001:0013888430:20120610:080448:BLANK !!:11
001:0013888858:20120610:080450:BLANK !!:11
001:0002295364:20120610:080724:BLANK !!:11
001:0004624478:20120610:080925:BLANK !!:11
001:0000365761:20120610:080949:BLANK !!:11
001:0013877148:20120610:081456:BLANK !!:11
001:0006758431:20120610:081810:BLANK !!:11
001:0002267789:20120610:082246:BLANK !!:11
001:0015690200:20120610:082430:BLANK !!:11
001:0010549396:20120610:083141:BLANK !!:11
001:0013900664:20120610:083229:BLANK !!:11
001:0013875043:20120610:085048:BLANK !!:11
001:0013896432:20120610:085052:BLANK !!:11
001:0010533195:20120610:085056:BLANK !!:11
001:0013894250:20120610:085343:BLANK !!:11
001:0013880904:20120610:085350:BLANK !!:11
001:0013896752:20120610:085353:BLANK !!:11
001:0013881218:20120610:085357:BLANK !!:11
001:0013900100:20120610:085402:BLANK !!:11
001:0013889788:20120610:085405:BLANK !!:11
001:0013896595:20120610:085411:BLANK !!:11
001:0013882358:20120610:085412:BLANK !!:11
001:0013888273:20120610:085415:BLANK !!:11
001:0006756113:20120610:085420:BLANK !!:11
001:0013885371:20120610:085424:BLANK !!:11
001:0013896958:20120610:085453:BLANK !!:11
001:0013886572:20120610:085456:BLANK !!:11
001:0013886076:20120610:085459:BLANK !!:11
001:0013901637:20120610:085501:BLANK !!:11
001:0013892922:20120610:085503:BLANK !!:11
001:0013889932:20120610:085506:BLANK !!:11
001:0013896823:20120610:085552:BLANK !!:11
001:0006760116:20120610:091325:BLANK !!:11
001:0010550910:20120610:091333:BLANK !!:11
001:0013885371:20120610:091420:BLANK !!:11
001:0013891964:20120610:094015:BLANK !!:11
001:0013900540:20120610:102949:BLANK !!:11
001:0015696870:20120610:103332:BLANK !!:11
001:0013882358:20120610:105827:BLANK !!:11
001:0013888865:20120610:110153:BLANK !!:11
001:0006760116:20120610:110725:BLANK !!:11
001:0009348591:20120610:111406:BLANK !!:11
001:0013888865:20120610:112623:BLANK !!:11
001:0010550898:20120610:113820:BLANK !!:11
001:0013894885:20120610:120151:BLANK !!:11
001:0002273235:20120610:123020:BLANK !!:11
001:0006751401:20120610:123022:BLANK !!:11
001:0013878009:20120610:123023:BLANK !!:11
001:0009371127:20120610:123025:BLANK !!:11
001:0013883538:20120610:123026:BLANK !!:11
001:0003101201:20120610:123028:BLANK !!:11
001:0013888913:20120610:123029:BLANK !!:11
001:0013900625:20120610:123031:BLANK !!:11
001:0006754282:20120610:123032:BLANK !!:11
001:0010547974:20120610:123034:BLANK !!:11
001:0010530367:20120610:123035:BLANK !!:11
001:0006759131:20120610:123037:BLANK !!:11
001:0010549509:20120610:123039:BLANK !!:11
001:0013883642:20120610:123041:BLANK !!:11
001:0009369519:20120610:123043:BLANK !!:11
001:0013886127:20120610:123046:BLANK !!:11
001:0013214375:20120610:123048:BLANK !!:11
001:0010544149:20120610:123053:BLANK !!:11
001:0010537681:20120610:123054:BLANK !!:11
001:0004631014:20120610:123056:BLANK !!:11
001:0010549596:20120610:123057:BLANK !!:11
001:0010550890:20120610:123059:BLANK !!:11
001:0010551136:20120610:123100:BLANK !!:11
001:0013897138:20120610:123102:BLANK !!:11
001:0010549787:20120610:123103:BLANK !!:11
001:0006759096:20120610:123105:BLANK !!:11
001:0006756914:20120610:123106:BLANK !!:11
001:0010549567:20120610:123108:BLANK !!:11
001:0013893990:20120610:123110:BLANK !!:11
001:0002270614:20120610:123114:BLANK !!:11
001:0013879402:20120610:123118:BLANK !!:11
001:0010543526:20120610:123121:BLANK !!:11
001:0010541183:20120610:123123:BLANK !!:11
001:0006757851:20120610:123127:BLANK !!:11
001:0002270962:20120610:123129:BLANK !!:11
001:0013884285:20120610:123130:BLANK !!:11
001:0015696806:20120610:123132:BLANK !!:11
001:0006754204:20120610:123134:BLANK !!:11
001:0013890035:20120610:123135:BLANK !!:11
001:0013892286:20120610:123138:BLANK !!:11
001:0006751519:20120610:123146:BLANK !!:11
001:0015685385:20120610:123151:BLANK !!:11
001:0010532210:20120610:123152:BLANK !!:11
001:0015682735:20120610:123154:BLANK !!:11
001:0006751998:20120610:123157:BLANK !!:11
001:0013887437:20120610:123200:BLANK !!:11
001:0015697397:20120610:123202:BLANK !!:11
001:0010549428:20120610:123203:BLANK !!:11
001:0013882456:20120610:123205:BLANK !!:11
001:0010550709:20120610:123206:BLANK !!:11
001:0015697731:20120610:123208:BLANK !!:11
001:0009364108:20120610:123209:BLANK !!:11
001:0015698466:20120610:123211:BLANK !!:11
001:0002282243:20120610:123212:BLANK !!:11
001:0009363039:20120610:123214:BLANK !!:11
001:0009356502:20120610:123215:BLANK !!:11
001:0002294646:20120610:123217:BLANK !!:11
001:0000365380:20120610:123219:BLANK !!:11
001:0015690200:20120610:123220:BLANK !!:11
001:0009369521:20120610:123222:BLANK !!:11
001:0013878180:20120610:123224:BLANK !!:11
001:0010547997:20120610:123225:BLANK !!:11
001:0009364774:20120610:123227:BLANK !!:11
001:0013897942:20120610:123229:BLANK !!:11
001:0006752093:20120610:123230:BLANK !!:11
001:0009357239:20120610:123232:BLANK !!:11
001:0010551168:20120610:123233:BLANK !!:11
001:0013875397:20120610:123235:BLANK !!:11
001:0010550340:20120610:123236:BLANK !!:11
001:0009352948:20120610:123238:BLANK !!:11
001:0009360755:20120610:123239:BLANK !!:11
001:0010549697:20120610:123241:BLANK !!:11
001:0013877112:20120610:123242:BLANK !!:11
001:0010532545:20120610:123245:BLANK !!:11
001:0006758261:20120610:123247:BLANK !!:11
001:0015674317:20120610:123248:BLANK !!:11
001:0010537779:20120610:123250:BLANK !!:11
001:0010549402:20120610:123252:BLANK !!:11
001:0013897124:20120610:123253:BLANK !!:11
001:0015689920:20120610:123255:BLANK !!:11
001:0009369518:20120610:123256:BLANK !!:11
001:0006753998:20120610:123258:BLANK !!:11
001:0010531624:20120610:123300:BLANK !!:11
001:0010542101:20120610:123301:BLANK !!:11
001:0009360458:20120610:123303:BLANK !!:11
001:0009364324:20120610:123304:BLANK !!:11
001:0000407097:20120610:123306:BLANK !!:11
001:0010549386:20120610:123308:BLANK !!:11
001:0009364804:20120610:123309:BLANK !!:11
001:0000365093:20120610:123311:BLANK !!:11
001:0006760141:20120610:123312:BLANK !!:11
001:0006753948:20120610:123314:BLANK !!:11
001:0009359710:20120610:123315:BLANK !!:11
001:0002274131:20120610:123317:BLANK !!:11
001:0006755449:20120610:123318:BLANK !!:11
001:0010549455:20120610:123320:BLANK !!:11
001:0010544368:20120610:123321:BLANK !!:11
001:0013883591:20120610:123323:BLANK !!:11
001:0006758961:20120610:123324:BLANK !!:11
001:0009357241:20120610:123326:BLANK !!:11
001:0002277756:20120610:123327:BLANK !!:11
001:0013886928:20120610:123330:BLANK !!:11
001:0009350673:20120610:123331:BLANK !!:11
001:0015685006:20120610:123334:BLANK !!:11
001:0010542279:20120610:123337:BLANK !!:11
001:0009350670:20120610:123338:BLANK !!:11
001:0015694629:20120610:123340:BLANK !!:11
001:0009361055:20120610:123342:BLANK !!:11
001:0013895851:20120610:123343:BLANK !!:11
001:0002289438:20120610:123345:BLANK !!:11
001:0013952741:20120610:123346:BLANK !!:11
001:0002290144:20120610:123348:BLANK !!:11
001:0013878382:20120610:123349:BLANK !!:11
001:0009368226:20120610:123351:BLANK !!:11
001:0009320970:20120610:123352:BLANK !!:11
001:0010540274:20120610:123354:BLANK !!:11
001:0015697358:20120610:123355:BLANK !!:11
001:0009347993:20120610:123357:BLANK !!:11
001:0009358046:20120610:123359:BLANK !!:11
001:0002292481:20120610:123400:BLANK !!:11
001:0004620445:20120610:123402:BLANK !!:11
001:0015688160:20120610:123403:BLANK !!:11
001:0009360756:20120610:123405:BLANK !!:11
001:0002290777:20120610:123406:BLANK !!:11
001:0002293780:20120610:123408:BLANK !!:11
001:0002268037:20120610:123410:BLANK !!:11
001:0010549407:20120610:123411:BLANK !!:11
001:0002271494:20120610:123413:BLANK !!:11
001:0010634177:20120610:123414:BLANK !!:11
001:0010628117:20120610:123416:BLANK !!:11
001:0010549504:20120610:123418:BLANK !!:11
001:0004631652:20120610:123420:BLANK !!:11
001:0010549955:20120610:123421:BLANK !!:11
001:0002276947:20120610:123425:BLANK !!:11
001:0009354725:20120610:123427:BLANK !!:11
001:0015689937:20120610:123428:BLANK !!:11
001:0013888628:20120610:123431:BLANK !!:11
001:0013892138:20120610:123432:BLANK !!:11
001:0013875148:20120610:123434:BLANK !!:11
001:0009361053:20120610:123435:BLANK !!:11
001:0009371131:20120610:123437:BLANK !!:11
001:0013889930:20120610:123439:BLANK !!:11
001:0006760214:20120610:123441:BLANK !!:11
001:0002291294:20120610:123442:BLANK !!:11
001:0000365148:20120610:123444:BLANK !!:11
001:0015682819:20120610:123446:BLANK !!:11
001:0008281095:20120610:123448:BLANK !!:11
001:0013893682:20120610:123450:BLANK !!:11
001:0002292068:20120610:123453:BLANK !!:11
001:0010533341:20120610:123456:BLANK !!:11
001:0013894712:20120610:123508:BLANK !!:11
001:0013898707:20120610:123517:BLANK !!:11
001:0013933226:20120610:123523:BLANK !!:11
001:0010552986:20120610:123526:BLANK !!:11
001:0013888858:20120610:123538:BLANK !!:11
001:0015694386:20120610:123541:BLANK !!:11
001:0003150394:20120610:123543:BLANK !!:11
001:0010539352:20120610:123544:BLANK !!:11
001:0013880536:20120610:123546:BLANK !!:11
001:0010550707:20120610:123547:BLANK !!:11
001:0010549748:20120610:123618:BLANK !!:11
001:0013878180:20120610:123643:BLANK !!:11
001:0015688809:20120610:123656:BLANK !!:11
001:0015693718:20120610:123731:BLANK !!:11
001:0009360049:20120610:123903:BLANK !!:11
001:0015693718:20120610:124000:BLANK !!:11
001:0009371128:20120610:124006:BLANK !!:11
001:0002282143:20120610:124230:BLANK !!:11
001:0010528475:20120610:124302:BLANK !!:11
001:0013874564:20120610:124304:BLANK !!:11
001:0013891964:20120610:124405:BLANK !!:11
001:0006750527:20120610:124629:BLANK !!:11
001:0010544368:20120610:124701:BLANK !!:11
001:0009360049:20120610:124914:BLANK !!:11
001:0010535545:20120610:124921:BLANK !!:11
001:0002293780:20120610:124939:BLANK !!:11
001:0002268037:20120610:124942:BLANK !!:11
001:0013891964:20120610:125016:BLANK !!:11
001:0013888594:20120610:125019:BLANK !!:11
001:0013892138:20120610:125022:BLANK !!:11
001:0002282143:20120610:125038:BLANK !!:11
001:0015698029:20120610:125105:BLANK !!:11
001:0009368226:20120610:125128:BLANK !!:11
001:0009359710:20120610:125225:BLANK !!:11
001:0009368209:20120610:125513:BLANK !!:11
001:0010549766:20120610:125514:BLANK !!:11
001:0015688510:20120610:125520:BLANK !!:11
001:0002291755:20120610:125521:BLANK !!:11
001:0013952446:20120610:125735:BLANK !!:11
001:0013874564:20120610:125843:BLANK !!:11
001:0013877148:20120610:125956:BLANK !!:11
001:0013893682:20120610:130100:BLANK !!:11
001:0013887437:20120610:130132:BLANK !!:11
001:0013877112:20120610:130248:BLANK !!:11
001:0009371128:20120610:130252:BLANK !!:11
001:0009371131:20120610:130256:BLANK !!:11
001:0013875148:20120610:130258:BLANK !!:11
001:0009361053:20120610:130300:BLANK !!:11
001:0013952446:20120610:130303:BLANK !!:11
001:0013891964:20120610:130305:BLANK !!:11
001:0013900664:20120610:130402:BLANK !!:11
001:0013892286:20120610:130422:BLANK !!:11
001:0013888913:20120610:130450:BLANK !!:11
001:0006758261:20120610:130517:BLANK !!:11
001:0009352948:20120610:130602:BLANK !!:11
001:0002273235:20120610:130642:BLANK !!:11
001:0010530367:20120610:130643:BLANK !!:11
001:0006751998:20120610:130900:BLANK !!:11
001:0013890035:20120610:130902:BLANK !!:11
001:0006751401:20120610:130921:BLANK !!:11
001:0010533341:20120610:130955:BLANK !!:11
001:0006760141:20120610:131138:BLANK !!:11
001:0002274131:20120610:131209:BLANK !!:11
001:0010535545:20120610:131242:BLANK !!:11
001:0003150394:20120610:131244:BLANK !!:11
001:0002291755:20120610:131247:BLANK !!:11
001:0015688510:20120610:131249:BLANK !!:11
001:0009368209:20120610:131251:BLANK !!:11
001:0010549766:20120610:131253:BLANK !!:11
001:0002290081:20120610:131522:BLANK !!:11
001:0009356502:20120610:131530:BLANK !!:11
001:0015688160:20120610:131543:BLANK !!:11
001:0013214375:20120610:131545:BLANK !!:11
001:0006754204:20120610:131548:BLANK !!:11
001:0006759096:20120610:131551:BLANK !!:11
001:0009354724:20120610:131553:BLANK !!:11
001:0002270614:20120610:131558:BLANK !!:11
001:0010542101:20120610:131603:BLANK !!:11
001:0002271494:20120610:131609:BLANK !!:11
001:0013900625:20120610:131622:BLANK !!:11
001:0013888858:20120610:131625:BLANK !!:11
001:0013878382:20120610:131630:BLANK !!:11
001:0009354725:20120610:131653:BLANK !!:11
001:0009371127:20120610:131714:BLANK !!:11
001:0004631014:20120610:131719:BLANK !!:11
001:0013888628:20120610:131724:BLANK !!:11
001:0015697358:20120610:131734:BLANK !!:11
001:0013898707:20120610:131824:BLANK !!:11
001:0010628117:20120610:131826:BLANK !!:11
001:0006753998:20120610:131829:BLANK !!:11
001:0009350673:20120610:131832:BLANK !!:11
001:0010549504:20120610:131837:BLANK !!:11
001:0010550707:20120610:131858:BLANK !!:11
001:0002290144:20120610:131908:BLANK !!:11
001:0004631652:20120610:131912:BLANK !!:11
001:0009365681:20120610:131914:BLANK !!:11
001:0015682819:20120610:131925:BLANK !!:11
001:0006752093:20120610:131927:BLANK !!:11
001:0010550340:20120610:131930:BLANK !!:11
001:0009358046:20120610:131932:BLANK !!:11
001:0003101201:20120610:131944:BLANK !!:11
001:0009369518:20120610:131951:BLANK !!:11
001:0009357241:20120610:131954:BLANK !!:11
001:0002270962:20120610:131958:BLANK !!:11
001:0010549697:20120610:132013:BLANK !!:11
001:0006754282:20120610:132020:BLANK !!:11
001:0010549455:20120610:132039:BLANK !!:11
001:0006753948:20120610:132056:BLANK !!:11
001:0013897942:20120610:132101:BLANK !!:11
001:0009360458:20120610:132105:BLANK !!:11
001:0009364806:20120610:132107:BLANK !!:11
001:0013882456:20120610:132109:BLANK !!:11
001:0006758961:20120610:132111:BLANK !!:11
001:0010549402:20120610:132113:BLANK !!:11
001:0013883591:20120610:132115:BLANK !!:11
001:0010543526:20120610:132118:BLANK !!:11
001:0015782013:20120610:132151:BLANK !!:11
001:0010531624:20120610:132153:BLANK !!:11
001:0013883538:20120610:132155:BLANK !!:11
001:0006757851:20120610:132157:BLANK !!:11
001:0013886127:20120610:132159:BLANK !!:11
001:0002291294:20120610:132202:BLANK !!:11
001:0013878009:20120610:132205:BLANK !!:11
001:0010549955:20120610:132207:BLANK !!:11
001:0002277756:20120610:132210:BLANK !!:11
001:0009361055:20120610:132212:BLANK !!:11
001:0009360755:20120610:132214:BLANK !!:11
001:0002292481:20120610:132216:BLANK !!:11
001:0010541183:20120610:132219:BLANK !!:11
001:0010550890:20120610:132223:BLANK !!:11
001:0013883642:20120610:132226:BLANK !!:11
001:0009320970:20120610:132251:BLANK !!:11
001:0013877148:20120610:132306:BLANK !!:11
001:0013881131:20120610:132307:BLANK !!:11
001:0015689920:20120610:132311:BLANK !!:11
001:0010551136:20120610:132313:BLANK !!:11
001:0010549567:20120610:132316:BLANK !!:11
001:0015698466:20120610:132318:BLANK !!:11
001:0010542279:20120610:132320:BLANK !!:11
001:0015682735:20120610:132322:BLANK !!:11
001:0009347993:20120610:132323:BLANK !!:11
001:0015689937:20120610:132327:BLANK !!:11
001:0010532210:20120610:132332:BLANK !!:11
001:0002294646:20120610:132334:BLANK !!:11
001:0009369521:20120610:132337:BLANK !!:11
001:0015674317:20120610:132339:BLANK !!:11
001:0013894712:20120610:132343:BLANK !!:11
001:0010634177:20120610:132345:BLANK !!:11
001:0006755449:20120610:132350:BLANK !!:11
001:0000365148:20120610:132353:BLANK !!:11
001:0004620445:20120610:132356:BLANK !!:11
001:0010549386:20120610:132359:BLANK !!:11
001:0006751519:20120610:132401:BLANK !!:11
001:0010549748:20120610:132403:BLANK !!:11
001:0013887126:20120610:132404:BLANK !!:11
001:0009357239:20120610:132406:BLANK !!:11
001:0013884285:20120610:132407:BLANK !!:11
001:0010532545:20120610:132409:BLANK !!:11
001:0015696806:20120610:132411:BLANK !!:11
001:0013878044:20120610:132413:BLANK !!:11
001:0010544149:20120610:132414:BLANK !!:11
001:0006760214:20120610:132416:BLANK !!:11
001:0010552986:20120610:132417:BLANK !!:11
001:0013933226:20120610:132421:BLANK !!:11
001:0013875397:20120610:132423:BLANK !!:11
001:0002289438:20120610:132425:BLANK !!:11
001:0009350670:20120610:132428:BLANK !!:11
001:0010549596:20120610:132431:BLANK !!:11
001:0010539352:20120610:132434:BLANK !!:11
001:0013897124:20120610:132435:BLANK !!:11
001:0009363039:20120610:132438:BLANK !!:11
001:0009364804:20120610:132441:BLANK !!:11
001:0009364324:20120610:132443:BLANK !!:11
001:0015685006:20120610:132450:BLANK !!:11
001:0015694629:20120610:132452:BLANK !!:11
001:0006759131:20120610:132455:BLANK !!:11
001:0010549787:20120610:132457:BLANK !!:11
001:0006756914:20120610:132459:BLANK !!:11
001:0013893990:20120610:132504:BLANK !!:11
001:0010549428:20120610:132507:BLANK !!:11
001:0009350669:20120610:132539:BLANK !!:11
001:0008281095:20120610:132607:BLANK !!:11
001:0000407097:20120610:132613:BLANK !!:11
001:0010551168:20120610:132615:BLANK !!:11
001:0009364774:20120610:132618:BLANK !!:11
001:0000365093:20120610:132620:BLANK !!:11
001:0013897138:20120610:132639:BLANK !!:11
001:0013895851:20120610:132643:BLANK !!:11
001:0013886928:20120610:132645:BLANK !!:11
001:0013880536:20120610:132648:BLANK !!:11
001:0013879402:20120610:132650:BLANK !!:11
001:0002292068:20120610:132702:BLANK !!:11
001:0015697731:20120610:132704:BLANK !!:11
001:0003117930:20120610:132712:BLANK !!:11
001:0013952741:20120610:132719:BLANK !!:11
001:0015685385:20120610:132724:BLANK !!:11
001:0010540274:20120610:132726:BLANK !!:11
001:0002276947:20120610:132729:BLANK !!:11
001:0010549407:20120610:132740:BLANK !!:11
001:0000365380:20120610:132750:BLANK !!:11
001:0010550709:20120610:132800:BLANK !!:11
001:0010537779:20120610:132802:BLANK !!:11
001:0010528475:20120610:132812:BLANK !!:11
001:0002282243:20120610:132825:BLANK !!:11
001:0009360756:20120610:132830:BLANK !!:11
001:0002290777:20120610:132833:BLANK !!:11
001:0010547974:20120610:132951:BLANK !!:11
001:0009369519:20120610:133058:BLANK !!:11
001:0010537681:20120610:133102:BLANK !!:11
001:0009364108:20120610:133122:BLANK !!:11
001:0002292541:20120610:133126:BLANK !!:11
001:0002274545:20120610:133128:BLANK !!:11
001:0015690200:20120610:133130:BLANK !!:11
001:0013883458:20120610:133252:BLANK !!:11
001:0013884590:20120610:133255:BLANK !!:11
001:0006755519:20120610:133257:BLANK !!:11
001:0010547320:20120610:133311:BLANK !!:11
001:0010551185:20120610:133312:BLANK !!:11
001:0013877389:20120610:133315:BLANK !!:11
001:0015693682:20120610:133401:BLANK !!:11
001:0015688809:20120610:133557:BLANK !!:11
001:0010549509:20120610:133624:BLANK !!:11
001:0010549433:20120610:133634:BLANK !!:11
001:0015694386:20120610:133922:BLANK !!:11
001:0010550889:20120610:134007:BLANK !!:11
001:0015688795:20120610:134104:BLANK !!:11
001:0006750527:20120610:134201:BLANK !!:11
001:0015698029:20120610:134651:BLANK !!:11
001:0015690234:20120610:135439:BLANK !!:11
001:0013882358:20120610:135930:BLANK !!:11
001:0013894250:20120610:140014:BLANK !!:11
001:0013896958:20120610:140017:BLANK !!:11
001:0013900664:20120610:140033:BLANK !!:11
001:0013884590:20120610:141340:BLANK !!:11
001:0002292541:20120610:141852:BLANK !!:11
001:0002274545:20120610:141854:BLANK !!:11
001:0015688795:20120610:142052:BLANK !!:11
001:0015693682:20120610:142150:BLANK !!:11
001:0010547320:20120610:142320:BLANK !!:11
001:0006755519:20120610:142502:BLANK !!:11
001:0010551185:20120610:142505:BLANK !!:11
001:0013877389:20120610:142512:BLANK !!:11
001:0013883458:20120610:142726:BLANK !!:11
001:0002293868:20120610:142819:BLANK !!:11
001:0010549433:20120610:142822:BLANK !!:11
001:0010550889:20120610:143947:BLANK !!:11
001:0013896752:20120610:144552:BLANK !!:11
001:0015690234:20120610:144649:BLANK !!:11
001:0010551140:20120610:150833:BLANK !!:11
001:0010533195:20120610:154719:BLANK !!:11
001:0013900625:20120610:170055:BLANK !!:11
001:0013884285:20120610:170058:BLANK !!:11
001:0002273235:20120610:170326:BLANK !!:11
001:0006751998:20120610:170329:BLANK !!:11
001:0013892286:20120610:170331:BLANK !!:11
001:0010537681:20120610:170341:BLANK !!:11
001:0003117930:20120610:170344:BLANK !!:11
001:0002277756:20120610:170346:BLANK !!:11
001:0010542101:20120610:170349:BLANK !!:11
001:0013886928:20120610:170350:BLANK !!:11
001:0009364774:20120610:170352:BLANK !!:11
001:0006754204:20120610:170353:BLANK !!:11
001:0006760141:20120610:170355:BLANK !!:11
001:0010542279:20120610:170357:BLANK !!:11
001:0010549787:20120610:170358:BLANK !!:11
001:0013875397:20120610:170410:BLANK !!:11
001:0010549697:20120610:170411:BLANK !!:11
001:0009359710:20120610:170415:BLANK !!:11
001:0002293780:20120610:170416:BLANK !!:11
001:0010550294:20120610:170419:BLANK !!:11
001:0010550340:20120610:170422:BLANK !!:11
001:0006752093:20120610:170423:BLANK !!:11
001:0002290144:20120610:170431:BLANK !!:11
001:0015684972:20120610:170443:BLANK !!:11
001:0010547997:20120610:170446:BLANK !!:11
001:0013935114:20120610:170511:BLANK !!:11
001:0013890852:20120610:170536:BLANK !!:11
001:0010549386:20120610:170543:BLANK !!:11
001:0002270962:20120610:170553:BLANK !!:11
001:0009369518:20120610:170555:BLANK !!:11
001:0006753998:20120610:170557:BLANK !!:11
001:0013877112:20120610:170604:BLANK !!:11
001:0013883642:20120610:170606:BLANK !!:11
001:0006755449:20120610:170610:BLANK !!:11
001:0010533341:20120610:170638:BLANK !!:11
001:0013889730:20120610:170641:BLANK !!:11
001:0006760214:20120610:170646:BLANK !!:11
001:0010539352:20120610:170701:BLANK !!:11
001:0002290826:20120610:170801:BLANK !!:11
001:0003150394:20120610:170806:BLANK !!:11
001:0006753823:20120610:171032:BLANK !!:11
001:0009371128:20120610:171120:BLANK !!:11
001:0015694386:20120610:171848:BLANK !!:11
001:0009357239:20120610:171913:BLANK !!:11
001:0010549450:20120610:173614:BLANK !!:11
001:0013874564:20120610:174336:BLANK !!:11
001:0010550910:20120610:180326:BLANK !!:11
001:0013888273:20120610:181013:BLANK !!:11
001:0013882358:20120610:181014:BLANK !!:11
001:0013896595:20120610:181054:BLANK !!:11
001:0013886076:20120610:181115:BLANK !!:11
001:0013892922:20120610:181116:BLANK !!:11
001:0013889932:20120610:181118:BLANK !!:11
001:0013896432:20120610:181137:BLANK !!:11
001:0015674443:20120610:181144:BLANK !!:11
001:0013875043:20120610:181217:BLANK !!:11
001:0013900100:20120610:181235:BLANK !!:11
001:0013896823:20120610:181245:BLANK !!:11
001:0013880904:20120610:181437:BLANK !!:11
001:0013889788:20120610:181440:BLANK !!:11
001:0013886572:20120610:181629:BLANK !!:11
001:0013901637:20120610:181633:BLANK !!:11
001:0013881218:20120610:182018:BLANK !!:11
001:0010535545:20120610:183516:BLANK !!:11
001:0010554314:20120610:183958:BLANK !!:11
001:0013879728:20120610:184001:BLANK !!:11
001:0009348591:20120610:184501:BLANK !!:11
001:0015690200:20120610:185811:BLANK !!:11
001:0010549884:20120610:192722:BLANK !!:11
001:0013879037:20120610:192737:BLANK !!:11
001:0003103684:20120610:193126:BLANK !!:11
001:0010549454:20120610:193224:BLANK !!:11
001:0003117697:20120610:193252:BLANK !!:11
001:0002294278:20120610:193317:BLANK !!:11
001:0010549396:20120610:194106:BLANK !!:11
001:0006758431:20120610:194424:BLANK !!:11
001:0006759918:20120610:194917:BLANK !!:11
001:0013880789:20120610:195008:BLANK !!:11
001:0013897282:20120610:195014:BLANK !!:11
001:0013888865:20120610:195205:BLANK !!:11
001:0015691390:20120610:195358:BLANK !!:11
001:0013875297:20120610:195404:BLANK !!:11
001:0009369516:20120610:195646:BLANK !!:11
001:0010549740:20120610:201119:BLANK !!:11
001:0010551210:20120610:201157:BLANK !!:11
001:0009364772:20120610:203004:BLANK !!:11
001:0010549509:20120610:203009:BLANK !!:11
001:0006755519:20120610:203019:BLANK !!:11
001:0006753686:20120610:203021:BLANK !!:11
001:0010528475:20120610:203023:BLANK !!:11
001:0013878009:20120610:203028:BLANK !!:11
001:0015693682:20120610:203029:BLANK !!:11
001:0006751401:20120610:203031:BLANK !!:11
001:0003101201:20120610:203034:BLANK !!:11
001:0010547974:20120610:203037:BLANK !!:11
001:0015688795:20120610:203038:BLANK !!:11
001:0010530367:20120610:203041:BLANK !!:11
001:0013930013:20120610:203044:BLANK !!:11
001:0002295364:20120610:203049:BLANK !!:11
001:0004631014:20120610:203051:BLANK !!:11
001:0006754257:20120610:203102:BLANK !!:11
001:0013884590:20120610:203108:BLANK !!:11
001:0013883538:20120610:203109:BLANK !!:11
001:0009348591:20120610:203115:BLANK !!:11
001:0015697731:20120610:203118:BLANK !!:11
001:0010544149:20120610:203121:BLANK !!:11
001:0013878180:20120610:203122:BLANK !!:11
001:0015674317:20120610:203128:BLANK !!:11
001:0009369521:20120610:203131:BLANK !!:11
001:0013885080:20120610:203133:BLANK !!:11
001:0015698466:20120610:203136:BLANK !!:11
001:0002282243:20120610:203138:BLANK !!:11
001:0009364108:20120610:203140:BLANK !!:11
001:0006757082:20120610:203142:BLANK !!:11
001:0010532545:20120610:203144:BLANK !!:11
001:0013893990:20120610:203146:BLANK !!:11
001:0009361700:20120610:203148:BLANK !!:11
001:0015689962:20120610:203149:BLANK !!:11
001:0002282143:20120610:203151:BLANK !!:11
001:0010551168:20120610:203153:BLANK !!:11
001:0013886127:20120610:203157:BLANK !!:11
001:0009371127:20120610:203200:BLANK !!:11
001:0013888913:20120610:203202:BLANK !!:11
001:0013883458:20120610:203204:BLANK !!:11
001:0006756914:20120610:203206:BLANK !!:11
001:0010549596:20120610:203208:BLANK !!:11
001:0013877148:20120610:203209:BLANK !!:11
001:0010549407:20120610:203211:BLANK !!:11
001:0009364805:20120610:203213:BLANK !!:11
001:0002282162:20120610:203214:BLANK !!:11
001:0006757638:20120610:203216:BLANK !!:11
001:0013897942:20120610:203220:BLANK !!:11
001:0013891964:20120610:203222:BLANK !!:11
001:0010553833:20120610:203224:BLANK !!:11
001:0003116472:20120610:203226:BLANK !!:11
001:0015685385:20120610:203228:BLANK !!:11
001:0010540763:20120610:203231:BLANK !!:11
001:0010532210:20120610:203233:BLANK !!:11
001:0002273808:20120610:203235:BLANK !!:11
001:0009363039:20120610:203237:BLANK !!:11
001:0010544368:20120610:203239:BLANK !!:11
001:0000407097:20120610:203240:BLANK !!:11
001:0009354724:20120610:203242:BLANK !!:11
001:0010547320:20120610:203244:BLANK !!:11
001:0013882456:20120610:203246:BLANK !!:11
001:0010539061:20120610:203248:BLANK !!:11
001:0010549504:20120610:203249:BLANK !!:11
001:0006758261:20120610:203251:BLANK !!:11
001:0006759096:20120610:203253:BLANK !!:11
001:0013896494:20120610:203255:BLANK !!:11
001:0013887126:20120610:203256:BLANK !!:11
001:0015696806:20120610:203258:BLANK !!:11
001:0010551136:20120610:203259:BLANK !!:11
001:0006758961:20120610:203301:BLANK !!:11
001:0010549455:20120610:203303:BLANK !!:11
001:0013897138:20120610:203304:BLANK !!:11
001:0009364806:20120610:203306:BLANK !!:11
001:0006757851:20120610:203307:BLANK !!:11
001:0010539435:20120610:203309:BLANK !!:11
001:0009360458:20120610:203310:BLANK !!:11
001:0010547087:20120610:203313:BLANK !!:11
001:0015689920:20120610:203317:BLANK !!:11
001:0009364804:20120610:203319:BLANK !!:11
001:0000365093:20120610:203322:BLANK !!:11
001:0013894712:20120610:203324:BLANK !!:11
001:0010543526:20120610:203327:BLANK !!:11
001:0010547091:20120610:203329:BLANK !!:11
001:0009360755:20120610:203331:BLANK !!:11
001:0002292541:20120610:203334:BLANK !!:11
001:0010549428:20120610:203336:BLANK !!:11
001:0009369519:20120610:203338:BLANK !!:11
001:0010628117:20120610:203341:BLANK !!:11
001:0002274545:20120610:203343:BLANK !!:11
001:0010536569:20120610:203345:BLANK !!:11
001:0000365380:20120610:203346:BLANK !!:11
001:0002267666:20120610:203348:BLANK !!:11
001:0006755461:20120610:203351:BLANK !!:11
001:0002294646:20120610:203355:BLANK !!:11
001:0010549767:20120610:203357:BLANK !!:11
001:0013880536:20120610:203402:BLANK !!:11
001:0013881131:20120610:203405:BLANK !!:11
001:0003110988:20120610:203409:BLANK !!:11
001:0010549766:20120610:203411:BLANK !!:11
001:0009360116:20120610:203413:BLANK !!:11
001:0015694629:20120610:203415:BLANK !!:11
001:0015693718:20120610:203417:BLANK !!:11
001:0010551185:20120610:203419:BLANK !!:11
001:0010549433:20120610:203421:BLANK !!:11
001:0010541183:20120610:203424:BLANK !!:11
001:0009356502:20120610:203426:BLANK !!:11
001:0002293868:20120610:203429:BLANK !!:11
001:0010549371:20120610:203431:BLANK !!:11
001:0010550306:20120610:203434:BLANK !!:11
001:0010549402:20120610:203437:BLANK !!:11
001:0013883591:20120610:203439:BLANK !!:11
001:0009350669:20120610:203442:BLANK !!:11
001:0010550890:20120610:203444:BLANK !!:11
001:0002290081:20120610:203446:BLANK !!:11
001:0009365681:20120610:203447:BLANK !!:11
001:0010550709:20120610:203449:BLANK !!:11
001:0015689937:20120610:203452:BLANK !!:11
001:0002268037:20120610:203454:BLANK !!:11
001:0015674575:20120610:203456:BLANK !!:11
001:0002291755:20120610:203457:BLANK !!:11
001:0015688510:20120610:203501:BLANK !!:11
001:0013881426:20120610:203503:BLANK !!:11
001:0010653054:20120610:203506:BLANK !!:11
001:0010549567:20120610:203509:BLANK !!:11
001:0013897124:20120610:203513:BLANK !!:11
001:0010540274:20120610:203514:BLANK !!:11
001:0002291294:20120610:203516:BLANK !!:11
001:0006753948:20120610:203519:BLANK !!:11
001:0002292481:20120610:203522:BLANK !!:11
001:0009368209:20120610:203524:BLANK !!:11
001:0010538666:20120610:203526:BLANK !!:11
001:0009352948:20120610:203528:BLANK !!:11
001:0010537779:20120610:203530:BLANK !!:11
001:0009363041:20120610:203532:BLANK !!:11
001:0009357241:20120610:203534:BLANK !!:11
001:0010552986:20120610:203536:BLANK !!:11
001:0002289438:20120610:203538:BLANK !!:11
001:0013878708:20120610:203545:BLANK !!:11
001:0013895313:20120610:203552:BLANK !!:11
001:0002274131:20120610:203554:BLANK !!:11
001:0010547437:20120610:203556:BLANK !!:11
001:0013874099:20120610:203559:BLANK !!:11
001:0015697358:20120610:203601:BLANK !!:11
001:0015688809:20120610:203604:BLANK !!:11
001:0013898707:20120610:203605:BLANK !!:11
001:0010549955:20120610:203607:BLANK !!:11
001:0002271494:20120610:203611:BLANK !!:11
001:0010534521:20120610:203613:BLANK !!:11
001:0015692449:20120610:203615:BLANK !!:11
001:0002276947:20120610:203617:BLANK !!:11
001:0010538695:20120610:203620:BLANK !!:11
001:0015682735:20120610:203622:BLANK !!:11
001:0013888858:20120610:203623:BLANK !!:11
001:0009361701:20120610:203625:BLANK !!:11
001:0015691426:20120610:203627:BLANK !!:11
001:0010634177:20120610:203633:BLANK !!:11
001:0006750527:20120610:203635:BLANK !!:11
001:0015698029:20120610:203637:BLANK !!:11
001:0013894338:20120610:203639:BLANK !!:11
001:0009364321:20120610:203643:BLANK !!:11
001:0002270614:20120610:203646:BLANK !!:11
001:0010550889:20120610:203653:BLANK !!:11
001:0013891973:20120610:203709:BLANK !!:11
001:0010549413:20120610:203713:BLANK !!:11
001:0013893682:20120610:203733:BLANK !!:11
001:0002284416:20120610:203838:BLANK !!:11
001:0010531397:20120610:203853:BLANK !!:11
001:0015694393:20120610:204217:BLANK !!:11
001:0010549748:20120610:204339:BLANK !!:11
001:0010550898:20120610:204642:BLANK !!:11
001:0013900664:20120610:205246:BLANK !!:11
001:0013890035:20120610:210332:BLANK !!:11
001:0015693730:20120610:210739:BLANK !!:11
001:0013887437:20120610:213005:BLANK !!:11
001:0010531624:20120610:213303:BLANK !!:11
001:0013879402:20120610:213705:BLANK !!:11
001:0006754282:20120610:213712:BLANK !!:11
001:0006759131:20120610:213716:BLANK !!:11
001:0013878129:20120610:213802:BLANK !!:11
001:0013895851:20120610:213805:BLANK !!:11
001:0013875148:20120610:213813:BLANK !!:11
001:0013889930:20120610:213832:BLANK !!:11
001:0009364324:20120610:213836:BLANK !!:11
001:0009361055:20120610:213839:BLANK !!:11
001:0013878382:20120610:213841:BLANK !!:11
001:0009360756:20120610:213843:BLANK !!:11
001:0009350673:20120610:213848:BLANK !!:11
001:0015685006:20120610:213850:BLANK !!:11
001:0009371413:20120610:213853:BLANK !!:11
001:0002290777:20120610:213854:BLANK !!:11
001:0009350670:20120610:213856:BLANK !!:11
001:0002268007:20120610:213858:BLANK !!:11
001:0009368404:20120610:213859:BLANK !!:11
001:0004631652:20120610:213903:BLANK !!:11
001:0015688160:20120610:213921:BLANK !!:11
001:0013892138:20120610:213922:BLANK !!:11
001:0013878044:20120610:213924:BLANK !!:11
001:0009358046:20120610:213927:BLANK !!:11
001:0015682819:20120610:213928:BLANK !!:11
001:0002292068:20120610:213930:BLANK !!:11
001:0004620445:20120610:213934:BLANK !!:11
001:0004624478:20120610:213935:BLANK !!:11
001:0006758789:20120610:213937:BLANK !!:11
001:0009320970:20120610:213940:BLANK !!:11
001:0010550678:20120610:213942:BLANK !!:11
001:0013887862:20120610:213947:BLANK !!:11
001:0013214375:20120610:213954:BLANK !!:11
001:0009371131:20120610:213957:BLANK !!:11
001:0009361053:20120610:213959:BLANK !!:11
001:0010551155:20120610:214001:BLANK !!:11
001:0013888594:20120610:214003:BLANK !!:11
001:0010548132:20120610:214004:BLANK !!:11
001:0009354725:20120610:214008:BLANK !!:11
001:0000365148:20120610:214010:BLANK !!:11
001:0009347993:20120610:214013:BLANK !!:11
001:0013933226:20120610:214015:BLANK !!:11
001:0009347994:20120610:214018:BLANK !!:11
001:0013887499:20120610:214020:BLANK !!:11
001:0015782013:20120610:214024:BLANK !!:11
001:0013888628:20120610:214026:BLANK !!:11
001:0013952741:20120610:214031:BLANK !!:11
001:0010550707:20120610:214034:BLANK !!:11
001:0013944638:20120610:214106:BLANK !!:11
001:0013875297:20120610:220157:BLANK !!:11
001:0006759918:20120610:220159:BLANK !!:11
001:0015691390:20120610:220207:BLANK !!:11
001:0003117697:20120610:220211:BLANK !!:11
001:0002294278:20120610:220212:BLANK !!:11
001:0010549454:20120610:220214:BLANK !!:11
001:0013880789:20120610:220231:BLANK !!:11
001:0013897282:20120610:220308:BLANK !!:11
001:0009369516:20120610:220311:BLANK !!:11
001:0003103684:20120610:220313:BLANK !!:11
001:0013879037:20120610:220329:BLANK !!:11
001:0010551115:20120610:220409:BLANK !!:11
001:0013874960:20120610:220412:BLANK !!:11
001:0015690234:20120610:220919:BLANK !!:11
001:0000683571:20120610:221740:BLANK !!:11
001:0003103684:20120610:221811:BLANK !!:11
001:0013879037:20120610:221819:BLANK !!:11
001:0015690200:20120610:222008:BLANK !!:11
001:0000365761:20120610:222017:BLANK !!:11
001:0009357257:20120610:222024:BLANK !!:11
001:0010549396:20120610:222418:BLANK !!:11
001:0003117697:20120610:222426:BLANK !!:11
001:0013952446:20120610:223129:BLANK !!:11
001:0006751519:20120610:223137:BLANK !!:11
001:0002267758:20120610:223146:BLANK !!:11
001:0013888305:20120610:223148:BLANK !!:11
001:0010549396:20120610:223604:BLANK !!:11
001:0010549454:20120610:223849:BLANK !!:11
001:0002294278:20120610:224102:BLANK !!:11
001:0013880789:20120610:224220:BLANK !!:11
001:0009369516:20120610:224324:BLANK !!:11
001:0013897282:20120610:224330:BLANK !!:11
001:0006759918:20120610:224547:BLANK !!:11
001:0013875297:20120610:225556:BLANK !!:11
001:0015691390:20120610:225822:BLANK !!:11
001:0013897282:20120611:050206:BLANK !!:11
001:0010549454:20120611:050316:BLANK !!:11
001:0002294278:20120611:050335:BLANK !!:11
001:0015691390:20120611:050354:BLANK !!:11
001:0003117697:20120611:050409:BLANK !!:11
001:0013880789:20120611:050412:BLANK !!:11
001:0013879037:20120611:050518:BLANK !!:11
001:0003103684:20120611:050527:BLANK !!:11
001:0006759918:20120611:051025:BLANK !!:11
001:0009369516:20120611:051137:BLANK !!:11
001:0010551140:20120611:064856:BLANK !!:11
001:0015693730:20120611:071732:BLANK !!:11
001:0013892138:20120611:072840:BLANK !!:11
001:0013888594:20120611:072843:BLANK !!:11
001:0013897124:20120611:072847:BLANK !!:11
001:0013887499:20120611:072851:BLANK !!:11
001:0009361053:20120611:072855:BLANK !!:11
001:0009371131:20120611:072859:BLANK !!:11
001:0013930013:20120611:072928:BLANK !!:11
001:0010549884:20120611:072932:BLANK !!:11
001:0006751401:20120611:072950:BLANK !!:11
001:0006757082:20120611:073028:BLANK !!:11
001:0013885002:20120611:073040:BLANK !!:11
001:0009364805:20120611:073042:BLANK !!:11
001:0009347994:20120611:073045:BLANK !!:11
001:0009361701:20120611:073051:BLANK !!:11
001:0015688795:20120611:073054:BLANK !!:11
001:0013900540:20120611:073101:BLANK !!:11
001:0010530367:20120611:073207:BLANK !!:11
001:0006750419:20120611:073232:BLANK !!:11
001:0010539061:20120611:073306:BLANK !!:11
001:0009371413:20120611:073310:BLANK !!:11
001:0002274545:20120611:073315:BLANK !!:11
001:0013878180:20120611:073320:BLANK !!:11
001:0013888305:20120611:073441:BLANK !!:11
001:0013896080:20120611:073444:BLANK !!:11
001:0009368404:20120611:073451:BLANK !!:11
001:0003110988:20120611:073639:BLANK !!:11
001:0013900030:20120611:073641:BLANK !!:11
001:0013897942:20120611:073643:BLANK !!:11
001:0013891973:20120611:073703:BLANK !!:11
001:0015689937:20120611:073736:BLANK !!:11
001:0009348592:20120611:073819:BLANK !!:11
001:0009371127:20120611:073822:BLANK !!:11
001:0013884770:20120611:073825:BLANK !!:11
001:0009364775:20120611:073827:BLANK !!:11
001:0013896494:20120611:073829:BLANK !!:11
001:0010544167:20120611:073832:BLANK !!:11
001:0006755497:20120611:073834:BLANK !!:11
001:0013888913:20120611:073836:BLANK !!:11
001:0013884285:20120611:073837:BLANK !!:11
001:0002270146:20120611:073840:BLANK !!:11
001:0013884590:20120611:073842:BLANK !!:11
001:0002282162:20120611:073845:BLANK !!:11
001:0013878009:20120611:073847:BLANK !!:11
001:0013891964:20120611:073851:BLANK !!:11
001:0013897049:20120611:073852:BLANK !!:11
001:0010532545:20120611:073908:BLANK !!:11
001:0006751519:20120611:073913:BLANK !!:11
001:0013900680:20120611:073914:BLANK !!:11
001:0004631020:20120611:073920:BLANK !!:11
001:0013929932:20120611:073924:BLANK !!:11
001:0002291755:20120611:073931:BLANK !!:11
001:0002291294:20120611:073933:BLANK !!:11
001:0002273808:20120611:073936:BLANK !!:11
001:0010539435:20120611:073939:BLANK !!:11
001:0006758961:20120611:073941:BLANK !!:11
001:0013888628:20120611:073944:BLANK !!:11
001:0013889930:20120611:073946:BLANK !!:11
001:0010540274:20120611:073947:BLANK !!:11
001:0013887437:20120611:073950:BLANK !!:11
001:0013214375:20120611:073953:BLANK !!:11
001:0002267758:20120611:073956:BLANK !!:11
001:0013874564:20120611:073959:BLANK !!:11
001:0013894940:20120611:074003:BLANK !!:11
001:0013896430:20120611:074004:BLANK !!:11
001:0013875148:20120611:074008:BLANK !!:11
001:0006760141:20120611:074012:BLANK !!:11
001:0013890035:20120611:074019:BLANK !!:11
001:0002290081:20120611:074022:BLANK !!:11
001:0013889730:20120611:074029:BLANK !!:11
001:0006755461:20120611:074039:BLANK !!:11
001:0009360049:20120611:074043:BLANK !!:11
001:0010537779:20120611:074047:BLANK !!:11
001:0010549644:20120611:074100:BLANK !!:11
001:0002267666:20120611:074101:BLANK !!:11
001:0006754282:20120611:074105:BLANK !!:11
001:0002273235:20120611:074122:BLANK !!:11
001:0006754204:20120611:074124:BLANK !!:11
001:0010551210:20120611:074127:BLANK !!:11
001:0006757638:20120611:074130:BLANK !!:11
001:0013894712:20120611:074137:BLANK !!:11
001:0002271494:20120611:074140:BLANK !!:11
001:0013883458:20120611:074143:BLANK !!:11
001:0010530514:20120611:074145:BLANK !!:11
001:0009364321:20120611:074148:BLANK !!:11
001:0000683571:20120611:074151:BLANK !!:11
001:0006758261:20120611:074155:BLANK !!:11
001:0009354724:20120611:074203:BLANK !!:11
001:0010547320:20120611:074206:BLANK !!:11
001:0009363041:20120611:074213:BLANK !!:11
001:0010547091:20120611:074215:BLANK !!:11
001:0009364773:20120611:074217:BLANK !!:11
001:0010534521:20120611:074240:BLANK !!:11
001:0009363103:20120611:074253:BLANK !!:11
001:0013888865:20120611:074257:BLANK !!:11
001:0010536569:20120611:074259:BLANK !!:11
001:0010553833:20120611:074305:BLANK !!:11
001:0015697358:20120611:074310:BLANK !!:11
001:0006759096:20120611:074316:BLANK !!:11
001:0010549504:20120611:074319:BLANK !!:11
001:0002282143:20120611:074322:BLANK !!:11
001:0006755449:20120611:074327:BLANK !!:11
001:0002292541:20120611:074338:BLANK !!:11
001:0013935114:20120611:074341:BLANK !!:11
001:0006753948:20120611:074346:BLANK !!:11
001:0013881426:20120611:074348:BLANK !!:11
001:0010530304:20120611:074420:BLANK !!:11
001:0000365148:20120611:074425:BLANK !!:11
001:0013933226:20120611:074433:BLANK !!:11
001:0010552986:20120611:074435:BLANK !!:11
001:0013894338:20120611:074438:BLANK !!:11
001:0010532210:20120611:074443:BLANK !!:11
001:0013886127:20120611:074447:BLANK !!:11
001:0010549596:20120611:074453:BLANK !!:11
001:0002268037:20120611:074455:BLANK !!:11
001:0013878454:20120611:074457:BLANK !!:11
001:0010549955:20120611:074459:BLANK !!:11
001:0013887126:20120611:074503:BLANK !!:11
001:0013875397:20120611:074505:BLANK !!:11
001:0015696806:20120611:074508:BLANK !!:11
001:0009364774:20120611:074510:BLANK !!:11
001:0006757851:20120611:074511:BLANK !!:11
001:0009360755:20120611:074513:BLANK !!:11
001:0002270614:20120611:074516:BLANK !!:11
001:0013892286:20120611:074519:BLANK !!:11
001:0015693682:20120611:074522:BLANK !!:11
001:0013878708:20120611:074528:BLANK !!:11
001:0009361700:20120611:074531:BLANK !!:11
001:0013895313:20120611:074533:BLANK !!:11
001:0010531397:20120611:074548:BLANK !!:11
001:0010549748:20120611:074550:BLANK !!:11
001:0013878382:20120611:074553:BLANK !!:11
001:0013887862:20120611:074556:BLANK !!:11
001:0015684972:20120611:074602:BLANK !!:11
001:0015682735:20120611:074611:BLANK !!:11
001:0013874960:20120611:074612:BLANK !!:11
001:0010547087:20120611:074614:BLANK !!:11
001:0015692449:20120611:074621:BLANK !!:11
001:0006753686:20120611:074624:BLANK !!:11
001:0013888858:20120611:074627:BLANK !!:11
001:0009359710:20120611:074629:BLANK !!:11
001:0002294646:20120611:074634:BLANK !!:11
001:0006752093:20120611:074636:BLANK !!:11
001:0006758789:20120611:074638:BLANK !!:11
001:0009364806:20120611:074642:BLANK !!:11
001:0009360458:20120611:074644:BLANK !!:11
001:0013882456:20120611:074646:BLANK !!:11
001:0009356502:20120611:074653:BLANK !!:11
001:0010554314:20120611:074654:BLANK !!:11
001:0009368209:20120611:074656:BLANK !!:11
001:0015688809:20120611:074703:BLANK !!:11
001:0006750527:20120611:074716:BLANK !!:11
001:0002292068:20120611:074721:BLANK !!:11
001:0002292481:20120611:074731:BLANK !!:11
001:0009364772:20120611:074734:BLANK !!:11
001:0000407097:20120611:074737:BLANK !!:11
001:0010628117:20120611:074740:BLANK !!:11
001:0013880536:20120611:074743:BLANK !!:11
001:0006754257:20120611:074747:BLANK !!:11
001:0010531624:20120611:074756:BLANK !!:11
001:0009358046:20120611:074759:BLANK !!:11
001:0002274131:20120611:074802:BLANK !!:11
001:0010547974:20120611:074804:BLANK !!:11
001:0009320970:20120611:074806:BLANK !!:11
001:0010550678:20120611:074808:BLANK !!:11
001:0002295364:20120611:074813:BLANK !!:11
001:0006756914:20120611:074823:BLANK !!:11
001:0003117930:20120611:074825:BLANK !!:11
001:0009364804:20120611:074827:BLANK !!:11
001:0010549787:20120611:074829:BLANK !!:11
001:0010544368:20120611:074830:BLANK !!:11
001:0010549455:20120611:074832:BLANK !!:11
001:0009361055:20120611:074834:BLANK !!:11
001:0010651256:20120611:074836:BLANK !!:11
001:0015689962:20120611:074838:BLANK !!:11
001:0010634177:20120611:074841:BLANK !!:11
001:0009354725:20120611:074843:BLANK !!:11
001:0013878044:20120611:074846:BLANK !!:11
001:0010653054:20120611:074850:BLANK !!:11
001:0003116472:20120611:074853:BLANK !!:11
001:0015694393:20120611:074857:BLANK !!:11
001:0013877112:20120611:074859:BLANK !!:11
001:0003101201:20120611:074903:BLANK !!:11
001:0013893990:20120611:074906:BLANK !!:11
001:0010543526:20120611:074925:BLANK !!:11
001:0010550294:20120611:074928:BLANK !!:11
001:0010549766:20120611:074932:BLANK !!:11
001:0015693718:20120611:074934:BLANK !!:11
001:0006755519:20120611:074938:BLANK !!:11
001:0009357241:20120611:074940:BLANK !!:11
001:0010549428:20120611:074942:BLANK !!:11
001:0010541183:20120611:074945:BLANK !!:11
001:0006755185:20120611:074947:BLANK !!:11
001:0010542101:20120611:074950:BLANK !!:11
001:0010549567:20120611:074952:BLANK !!:11
001:0010551136:20120611:074954:BLANK !!:11
001:0006759131:20120611:074957:BLANK !!:11
001:0013893682:20120611:075003:BLANK !!:11
001:0010550889:20120611:075009:BLANK !!:11
001:0002270962:20120611:075012:BLANK !!:11
001:0015685006:20120611:075018:BLANK !!:11
001:0015682819:20120611:075024:BLANK !!:11
001:0015688160:20120611:075027:BLANK !!:11
001:0009363039:20120611:075030:BLANK !!:11
001:0013874099:20120611:075036:BLANK !!:11
001:0010547437:20120611:075038:BLANK !!:11
001:0013890852:20120611:075045:BLANK !!:11
001:0002277756:20120611:075048:BLANK !!:11
001:0015690234:20120611:075100:BLANK !!:11
001:0009352948:20120611:075103:BLANK !!:11
001:0010550306:20120611:075105:BLANK !!:11
001:0010549433:20120611:075116:BLANK !!:11
001:0015698466:20120611:075118:BLANK !!:11
001:0015689920:20120611:075121:BLANK !!:11
001:0010538666:20120611:075126:BLANK !!:11
001:0010538695:20120611:075127:BLANK !!:11
001:0013900625:20120611:075129:BLANK !!:11
001:0006753823:20120611:075131:BLANK !!:11
001:0010549386:20120611:075133:BLANK !!:11
001:0009365681:20120611:075136:BLANK !!:11
001:0015697731:20120611:075141:BLANK !!:11
001:0009350670:20120611:075148:BLANK !!:11
001:0010551115:20120611:075150:BLANK !!:11
001:0002268007:20120611:075152:BLANK !!:11
001:0010549450:20120611:075153:BLANK !!:11
001:0002293868:20120611:075156:BLANK !!:11
001:0009364324:20120611:075157:BLANK !!:11
001:0013898707:20120611:075200:BLANK !!:11
001:0015782013:20120611:075202:BLANK !!:11
001:0013944638:20120611:075205:BLANK !!:11
001:0015697397:20120611:075208:BLANK !!:11
001:0010547997:20120611:075211:BLANK !!:11
001:0009369521:20120611:075214:BLANK !!:11
001:0015674317:20120611:075218:BLANK !!:11
001:0013883591:20120611:075223:BLANK !!:11
001:0000365761:20120611:075226:BLANK !!:11
001:0009357257:20120611:075228:BLANK !!:11
001:0010549402:20120611:075230:BLANK !!:11
001:0004624478:20120611:075232:BLANK !!:11
001:0009364108:20120611:075234:BLANK !!:11
001:0010549413:20120611:075237:BLANK !!:11
001:0010549697:20120611:075240:BLANK !!:11
001:0015688510:20120611:075259:BLANK !!:11
001:0009347993:20120611:075302:BLANK !!:11
001:0010551168:20120611:075306:BLANK !!:11
001:0006753998:20120611:075311:BLANK !!:11
001:0010550340:20120611:075321:BLANK !!:11
001:0010539352:20120611:075322:BLANK !!:11
001:0010551185:20120611:075329:BLANK !!:11
001:0013877389:20120611:075339:BLANK !!:11
001:0013878129:20120611:075345:BLANK !!:11
001:0013886928:20120611:075352:BLANK !!:11
001:0013895851:20120611:075354:BLANK !!:11
001:0013885080:20120611:075356:BLANK !!:11
001:0009369518:20120611:075405:BLANK !!:11
001:0010540763:20120611:075407:BLANK !!:11
001:0009350669:20120611:075409:BLANK !!:11
001:0010549740:20120611:075411:BLANK !!:11
001:0002284416:20120611:075414:BLANK !!:11
001:0009357239:20120611:075417:BLANK !!:11
001:0010528475:20120611:075419:BLANK !!:11
001:0009368226:20120611:075421:BLANK !!:11
001:0010548132:20120611:075424:BLANK !!:11
001:0004631652:20120611:075435:BLANK !!:11
001:0013952446:20120611:075439:BLANK !!:11
001:0009360756:20120611:075442:BLANK !!:11
001:0002290777:20120611:075444:BLANK !!:11
001:0015674443:20120611:075446:BLANK !!:11
001:0000365093:20120611:075506:BLANK !!:11
001:0015691426:20120611:075516:BLANK !!:11
001:0013883642:20120611:075522:BLANK !!:11
001:0010551155:20120611:075539:BLANK !!:11
001:0010550709:20120611:075542:BLANK !!:11
001:0015685385:20120611:075546:BLANK !!:11
001:0009350673:20120611:075547:BLANK !!:11
001:0002289438:20120611:075549:BLANK !!:11
001:0013879402:20120611:075551:BLANK !!:11
001:0015698029:20120611:075554:BLANK !!:11
001:0010549509:20120611:075555:BLANK !!:11
001:0013952741:20120611:075557:BLANK !!:11
001:0004620445:20120611:075559:BLANK !!:11
001:0015685005:20120611:075614:BLANK !!:11
001:0002276947:20120611:075617:BLANK !!:11
001:0002282243:20120611:075636:BLANK !!:11
001:0004631014:20120611:075639:BLANK !!:11
001:0010550890:20120611:075646:BLANK !!:11
001:0010549371:20120611:075649:BLANK !!:11
001:0010549407:20120611:075652:BLANK !!:11
001:0013897138:20120611:075706:BLANK !!:11
001:0010550707:20120611:075707:BLANK !!:11
001:0015694386:20120611:075812:BLANK !!:11
001:0010535545:20120611:075816:BLANK !!:11
001:0003150394:20120611:075817:BLANK !!:11
001:0013899674:20120611:075836:BLANK !!:11
001:0002290144:20120611:075856:BLANK !!:11
001:0015690200:20120611:075904:BLANK !!:11
001:0010549767:20120611:075918:BLANK !!:11
001:0010537681:20120611:080006:BLANK !!:11
001:0009348591:20120611:080043:BLANK !!:11
001:0015674575:20120611:080400:BLANK !!:11
001:0009369519:20120611:080525:BLANK !!:11
001:0006758431:20120611:080702:BLANK !!:11
001:0013875297:20120611:080727:BLANK !!:11
001:0013881131:20120611:080946:BLANK !!:11
001:0010553521:20120611:081652:BLANK !!:11
001:0010549396:20120611:081913:BLANK !!:11
001:0013900664:20120611:082707:BLANK !!:11
001:0013875043:20120611:084752:BLANK !!:11
001:0010533195:20120611:084758:BLANK !!:11
001:0013880904:20120611:084859:BLANK !!:11
001:0013894250:20120611:084906:BLANK !!:11
001:0013896752:20120611:084909:BLANK !!:11
001:0013881218:20120611:084921:BLANK !!:11
001:0013896595:20120611:084924:BLANK !!:11
001:0013889788:20120611:084927:BLANK !!:11
001:0013882358:20120611:084929:BLANK !!:11
001:0013888273:20120611:084932:BLANK !!:11
001:0013885371:20120611:084934:BLANK !!:11
001:0006756113:20120611:084937:BLANK !!:11
001:0013900100:20120611:085001:BLANK !!:11
001:0013896432:20120611:085117:BLANK !!:11
001:0013901637:20120611:085442:BLANK !!:11
001:0013882945:20120611:085443:BLANK !!:11
001:0013886572:20120611:085459:BLANK !!:11
001:0013889932:20120611:085502:BLANK !!:11
001:0013892922:20120611:085504:BLANK !!:11
001:0013886076:20120611:085508:BLANK !!:11
001:0013896823:20120611:085513:BLANK !!:11
001:0010549596:20120611:085604:BLANK !!:11
001:0006760116:20120611:085846:BLANK !!:11
001:0010550910:20120611:085850:BLANK !!:11
001:0015694393:20120611:095918:BLANK !!:11
001:0013894338:20120611:095920:BLANK !!:11
001:0010532545:20120611:101108:BLANK !!:11
001:0013885371:20120611:102619:BLANK !!:11
001:0000683571:20120611:103419:BLANK !!:11