001:0006754204:20120617:050434:BLANK !!:11
001:0006760141:20120617:050438:BLANK !!:11
001:0006752093:20120617:050509:BLANK !!:11
001:0010549697:20120617:050518:BLANK !!:11
001:0010550340:20120617:050522:BLANK !!:11
001:0009364774:20120617:050611:BLANK !!:11
001:0013875397:20120617:050613:BLANK !!:11
001:0002273235:20120617:050615:BLANK !!:11
001:0010549386:20120617:050638:BLANK !!:11
001:0015684972:20120617:050701:BLANK !!:11
001:0010550898:20120617:065456:BLANK !!:11
001:0015693718:20120617:073111:BLANK !!:11
001:0013930013:20120617:073144:BLANK !!:11
001:0006751401:20120617:073147:BLANK !!:11
001:0015696806:20120617:073153:BLANK !!:11
001:0013897124:20120617:073303:BLANK !!:11
001:0009357257:20120617:073344:BLANK !!:11
001:0010549504:20120617:073345:BLANK !!:11
001:0015693730:20120617:073442:BLANK !!:11
001:0009371131:20120617:073447:BLANK !!:11
001:0009361053:20120617:073453:BLANK !!:11
001:0003103684:20120617:073500:BLANK !!:11
001:0013879037:20120617:073503:BLANK !!:11
001:0013894885:20120617:073504:BLANK !!:11
001:0013952446:20120617:073507:BLANK !!:11
001:0013898707:20120617:073512:BLANK !!:11
001:0013891973:20120617:073630:BLANK !!:11
001:0010551210:20120617:073640:BLANK !!:11
001:0010549413:20120617:073656:BLANK !!:11
001:0013900540:20120617:073701:BLANK !!:11
001:0006759096:20120617:073727:BLANK !!:11
001:0013897942:20120617:073731:BLANK !!:11
001:0013878180:20120617:073746:BLANK !!:11
001:0010538695:20120617:073754:BLANK !!:11
001:0006753823:20120617:073756:BLANK !!:11
001:0006757082:20120617:073759:BLANK !!:11
001:0009364805:20120617:073802:BLANK !!:11
001:0010530367:20120617:073805:BLANK !!:11
001:0013884590:20120617:073808:BLANK !!:11
001:0013892286:20120617:073810:BLANK !!:11
001:0002268037:20120617:073815:BLANK !!:11
001:0013891964:20120617:073818:BLANK !!:11
001:0002267789:20120617:073832:BLANK !!:11
001:0006755497:20120617:073838:BLANK !!:11
001:0013214375:20120617:073846:BLANK !!:11
001:0002267666:20120617:073859:BLANK !!:11
001:0010539061:20120617:073908:BLANK !!:11
001:0009364321:20120617:073925:BLANK !!:11
001:0010530304:20120617:074009:BLANK !!:11
001:0009347994:20120617:074011:BLANK !!:11
001:0010543526:20120617:074015:BLANK !!:11
001:0013878009:20120617:074022:BLANK !!:11
001:0002282162:20120617:074025:BLANK !!:11
001:0010549884:20120617:074031:BLANK !!:11
001:0010537779:20120617:074051:BLANK !!:11
001:0009357241:20120617:074054:BLANK !!:11
001:0002270962:20120617:074058:BLANK !!:11
001:0013888628:20120617:074100:BLANK !!:11
001:0009368404:20120617:074107:BLANK !!:11
001:0013896494:20120617:074124:BLANK !!:11
001:0002270614:20120617:074128:BLANK !!:11
001:0013884285:20120617:074131:BLANK !!:11
001:0010533341:20120617:074133:BLANK !!:11
001:0013887126:20120617:074137:BLANK !!:11
001:0006751998:20120617:074142:BLANK !!:11
001:0013887437:20120617:074146:BLANK !!:11
001:0002290081:20120617:074148:BLANK !!:11
001:0006757638:20120617:074151:BLANK !!:11
001:0009363041:20120617:074154:BLANK !!:11
001:0009348592:20120617:074218:BLANK !!:11
001:0013888913:20120617:074222:BLANK !!:11
001:0002274545:20120617:074227:BLANK !!:11
001:0015697397:20120617:074230:BLANK !!:11
001:0002273808:20120617:074233:BLANK !!:11
001:0013890035:20120617:074237:BLANK !!:11
001:0013893682:20120617:074240:BLANK !!:11
001:0006758261:20120617:074243:BLANK !!:11
001:0006754204:20120617:074253:BLANK !!:11
001:0010549454:20120617:074255:BLANK !!:11
001:0015689962:20120617:074257:BLANK !!:11
001:0002282143:20120617:074314:BLANK !!:11
001:0013900030:20120617:074317:BLANK !!:11
001:0003110988:20120617:074319:BLANK !!:11
001:0003117697:20120617:074346:BLANK !!:11
001:0004619983:20120617:074401:BLANK !!:11
001:0010549596:20120617:074403:BLANK !!:11
001:0015697358:20120617:074405:BLANK !!:11
001:0010538666:20120617:074407:BLANK !!:11
001:0010534521:20120617:074424:BLANK !!:11
001:0013886127:20120617:074428:BLANK !!:11
001:0013888865:20120617:074433:BLANK !!:11
001:0013878382:20120617:074448:BLANK !!:11
001:0013874564:20120617:074456:BLANK !!:11
001:0010549955:20120617:074459:BLANK !!:11
001:0013896080:20120617:074507:BLANK !!:11
001:0010550306:20120617:074523:BLANK !!:11
001:0013896430:20120617:074527:BLANK !!:11
001:0010532545:20120617:074530:BLANK !!:11
001:0010540274:20120617:074535:BLANK !!:11
001:0009364773:20120617:074538:BLANK !!:11
001:0009320970:20120617:074542:BLANK !!:11
001:0013894338:20120617:074546:BLANK !!:11
001:0009354724:20120617:074549:BLANK !!:11
001:0010547320:20120617:074552:BLANK !!:11
001:0013887499:20120617:074556:BLANK !!:11
001:0010531624:20120617:074559:BLANK !!:11
001:0006755519:20120617:074606:BLANK !!:11
001:0009371127:20120617:074609:BLANK !!:11
001:0009371413:20120617:074614:BLANK !!:11
001:0013885002:20120617:074619:BLANK !!:11
001:0013880536:20120617:074623:BLANK !!:11
001:0002292481:20120617:074629:BLANK !!:11
001:0013894712:20120617:074633:BLANK !!:11
001:0010532210:20120617:074642:BLANK !!:11
001:0002294278:20120617:074645:BLANK !!:11
001:0015688510:20120617:074702:BLANK !!:11
001:0006754282:20120617:074706:BLANK !!:11
001:0010544149:20120617:074724:BLANK !!:11
001:0000365148:20120617:074731:BLANK !!:11
001:0010552986:20120617:074734:BLANK !!:11
001:0010546752:20120617:074745:BLANK !!:11
001:0009356502:20120617:074750:BLANK !!:11
001:0010549787:20120617:074812:BLANK !!:11
001:0002291294:20120617:074815:BLANK !!:11
001:0002291755:20120617:074817:BLANK !!:11
001:0006756914:20120617:074823:BLANK !!:11
001:0013900680:20120617:074828:BLANK !!:11
001:0003117930:20120617:074831:BLANK !!:11
001:0013874960:20120617:074833:BLANK !!:11
001:0010551115:20120617:074836:BLANK !!:11
001:0000365380:20120617:074838:BLANK !!:11
001:0013952741:20120617:074840:BLANK !!:11
001:0013878129:20120617:074841:BLANK !!:11
001:0006760214:20120617:074844:BLANK !!:11
001:0010550707:20120617:074845:BLANK !!:11
001:0013900625:20120617:074848:BLANK !!:11
001:0013894940:20120617:074849:BLANK !!:11
001:0006753686:20120617:074852:BLANK !!:11
001:0013877112:20120617:074854:BLANK !!:11
001:0002270146:20120617:074857:BLANK !!:11
001:0009368209:20120617:074859:BLANK !!:11
001:0013878044:20120617:074903:BLANK !!:11
001:0010551155:20120617:074906:BLANK !!:11
001:0003116472:20120617:074908:BLANK !!:11
001:0004631652:20120617:074914:BLANK !!:11
001:0009360755:20120617:074915:BLANK !!:11
001:0010550889:20120617:074920:BLANK !!:11
001:0010539352:20120617:074930:BLANK !!:11
001:0009360458:20120617:074933:BLANK !!:11
001:0006758961:20120617:074934:BLANK !!:11
001:0009364806:20120617:074937:BLANK !!:11
001:0013882456:20120617:074938:BLANK !!:11
001:0002271494:20120617:074940:BLANK !!:11
001:0010530514:20120617:074944:BLANK !!:11
001:0010549567:20120617:074946:BLANK !!:11
001:0009364774:20120617:074948:BLANK !!:11
001:0010544167:20120617:074951:BLANK !!:11
001:0002267758:20120617:074953:BLANK !!:11
001:0009364772:20120617:074957:BLANK !!:11
001:0013944638:20120617:075002:BLANK !!:11
001:0010549644:20120617:075005:BLANK !!:11
001:0009350669:20120617:075011:BLANK !!:11
001:0002274131:20120617:075016:BLANK !!:11
001:0000683571:20120617:075019:BLANK !!:11
001:0003102332:20120617:075023:BLANK !!:11
001:0003115319:20120617:075026:BLANK !!:11
001:0000407097:20120617:075029:BLANK !!:11
001:0013879728:20120617:075031:BLANK !!:11
001:0010547087:20120617:075033:BLANK !!:11
001:0013892138:20120617:075036:BLANK !!:11
001:0015688809:20120617:075039:BLANK !!:11
001:0013888594:20120617:075041:BLANK !!:11
001:0013895313:20120617:075043:BLANK !!:11
001:0010536569:20120617:075044:BLANK !!:11
001:0010541183:20120617:075047:BLANK !!:11
001:0006755461:20120617:075050:BLANK !!:11
001:0006753998:20120617:075053:BLANK !!:11
001:0006754257:20120617:075056:BLANK !!:11
001:0009350673:20120617:075058:BLANK !!:11
001:0013878708:20120617:075059:BLANK !!:11
001:0013874099:20120617:075102:BLANK !!:11
001:0010547437:20120617:075103:BLANK !!:11
001:0002293780:20120617:075106:BLANK !!:11
001:0009361055:20120617:075116:BLANK !!:11
001:0009352948:20120617:075127:BLANK !!:11
001:0015685005:20120617:075130:BLANK !!:11
001:0013888305:20120617:075137:BLANK !!:11
001:0009354725:20120617:075143:BLANK !!:11
001:0002293868:20120617:075149:BLANK !!:11
001:0004631020:20120617:075152:BLANK !!:11
001:0009364804:20120617:075158:BLANK !!:11
001:0009357239:20120617:075201:BLANK !!:11
001:0013893763:20120617:075204:BLANK !!:11
001:0015694393:20120617:075217:BLANK !!:11
001:0013935114:20120617:075221:BLANK !!:11
001:0013940479:20120617:075223:BLANK !!:11
001:0013887862:20120617:075225:BLANK !!:11
001:0013883458:20120617:075228:BLANK !!:11
001:0006758789:20120617:075230:BLANK !!:11
001:0010551168:20120617:075233:BLANK !!:11
001:0006753948:20120617:075235:BLANK !!:11
001:0003101201:20120617:075238:BLANK !!:11
001:0002292541:20120617:075240:BLANK !!:11
001:0015685006:20120617:075244:BLANK !!:11
001:0009364324:20120617:075246:BLANK !!:11
001:0010549455:20120617:075247:BLANK !!:11
001:0015693682:20120617:075249:BLANK !!:11
001:0015694629:20120617:075252:BLANK !!:11
001:0010531397:20120617:075257:BLANK !!:11
001:0002294646:20120617:075300:BLANK !!:11
001:0015697731:20120617:075303:BLANK !!:11
001:0010547997:20120617:075305:BLANK !!:11
001:0010544368:20120617:075309:BLANK !!:11
001:0010549433:20120617:075313:BLANK !!:11
001:0015689920:20120617:075316:BLANK !!:11
001:0010549740:20120617:075320:BLANK !!:11
001:0000365093:20120617:075323:BLANK !!:11
001:0009363103:20120617:075326:BLANK !!:11
001:0015696870:20120617:075330:BLANK !!:11
001:0015674317:20120617:075343:BLANK !!:11
001:0013875297:20120617:075345:BLANK !!:11
001:0013895851:20120617:075348:BLANK !!:11
001:0010549402:20120617:075352:BLANK !!:11
001:0004631014:20120617:075356:BLANK !!:11
001:0009363039:20120617:075358:BLANK !!:11
001:0009364108:20120617:075400:BLANK !!:11
001:0013893990:20120617:075403:BLANK !!:11
001:0015682819:20120617:075419:BLANK !!:11
001:0013885080:20120617:075438:BLANK !!:11
001:0010550294:20120617:075442:BLANK !!:11
001:0010653054:20120617:075447:BLANK !!:11
001:0010549371:20120617:075450:BLANK !!:11
001:0010550890:20120617:075454:BLANK !!:11
001:0010549748:20120617:075456:BLANK !!:11
001:0006759131:20120617:075507:BLANK !!:11
001:0015698029:20120617:075511:BLANK !!:11
001:0010551185:20120617:075530:BLANK !!:11
001:0013877389:20120617:075532:BLANK !!:11
001:0010551136:20120617:075534:BLANK !!:11
001:0010549407:20120617:075543:BLANK !!:11
001:0010542279:20120617:075547:BLANK !!:11
001:0015698466:20120617:075549:BLANK !!:11
001:0013883642:20120617:075551:BLANK !!:11
001:0013879402:20120617:075553:BLANK !!:11
001:0010549428:20120617:075555:BLANK !!:11
001:0002290777:20120617:075557:BLANK !!:11
001:0009360756:20120617:075600:BLANK !!:11
001:0003150394:20120617:075601:BLANK !!:11
001:0006757851:20120617:075606:BLANK !!:11
001:0002289438:20120617:075608:BLANK !!:11
001:0009347993:20120617:075612:BLANK !!:11
001:0015696269:20120617:075615:BLANK !!:11
001:0002277756:20120617:075616:BLANK !!:11
001:0013896015:20120617:075619:BLANK !!:11
001:0013929932:20120617:075621:BLANK !!:11
001:0013888858:20120617:075623:BLANK !!:11
001:0013875148:20120617:075628:BLANK !!:11
001:0002292068:20120617:075633:BLANK !!:11
001:0010528475:20120617:075635:BLANK !!:11
001:0015682735:20120617:075637:BLANK !!:11
001:0009348591:20120617:075640:BLANK !!:11
001:0002282243:20120617:075644:BLANK !!:11
001:0013881131:20120617:075648:BLANK !!:11
001:0013897049:20120617:075658:BLANK !!:11
001:0010549396:20120617:075701:BLANK !!:11
001:0002290826:20120617:075711:BLANK !!:11
001:0009361700:20120617:075714:BLANK !!:11
001:0010550709:20120617:075722:BLANK !!:11
001:0009366722:20120617:075725:BLANK !!:11
001:0015690200:20120617:075727:BLANK !!:11
001:0009368226:20120617:075751:BLANK !!:11
001:0010548132:20120617:075757:BLANK !!:11
001:0002268007:20120617:075806:BLANK !!:11
001:0002295364:20120617:075809:BLANK !!:11
001:0009350670:20120617:075817:BLANK !!:11
001:0002276947:20120617:075821:BLANK !!:11
001:0015685385:20120617:075824:BLANK !!:11
001:0009369518:20120617:075827:BLANK !!:11
001:0006755185:20120617:075853:BLANK !!:11
001:0000365761:20120617:075903:BLANK !!:11
001:0015694386:20120617:075905:BLANK !!:11
001:0015691390:20120617:075909:BLANK !!:11
001:0006755449:20120617:075911:BLANK !!:11
001:0013881426:20120617:075924:BLANK !!:11
001:0010549767:20120617:075927:BLANK !!:11
001:0010549509:20120617:075935:BLANK !!:11
001:0015692449:20120617:075937:BLANK !!:11
001:0006759918:20120617:075942:BLANK !!:11
001:0013897138:20120617:075953:BLANK !!:11
001:0004620445:20120617:080014:BLANK !!:11
001:0009360116:20120617:080020:BLANK !!:11
001:0009358046:20120617:080023:BLANK !!:11
001:0009369521:20120617:080044:BLANK !!:11
001:0015691426:20120617:080055:BLANK !!:11
001:0010537681:20120617:080111:BLANK !!:11
001:0015674575:20120617:080134:BLANK !!:11
001:0010549697:20120617:080215:BLANK !!:11
001:0013880789:20120617:080217:BLANK !!:11
001:0006751519:20120617:080219:BLANK !!:11
001:0010547974:20120617:080232:BLANK !!:11
001:0010542101:20120617:080453:BLANK !!:11
001:0010651256:20120617:080500:BLANK !!:11
001:0013897222:20120617:080602:BLANK !!:11
001:0013899674:20120617:080720:BLANK !!:11
001:0006750419:20120617:081249:BLANK !!:11
001:0009371128:20120617:081751:BLANK !!:11
001:0010628117:20120617:082125:BLANK !!:11
001:0015688795:20120617:082130:BLANK !!:11
001:0010553521:20120617:082242:BLANK !!:11
001:0006750527:20120617:082755:BLANK !!:11
001:0010634177:20120617:082800:BLANK !!:11
001:0013900664:20120617:083226:BLANK !!:11
001:0010533195:20120617:083920:BLANK !!:11
001:0010644113:20120617:084809:BLANK !!:11
001:0013896958:20120617:085252:BLANK !!:11
001:0013901637:20120617:085256:BLANK !!:11
001:0013882945:20120617:085259:BLANK !!:11
001:0013886572:20120617:085306:BLANK !!:11
001:0013892922:20120617:085308:BLANK !!:11
001:0013889932:20120617:085310:BLANK !!:11
001:0013896823:20120617:085317:BLANK !!:11
001:0013896432:20120617:085651:BLANK !!:11
001:0013894250:20120617:085857:BLANK !!:11
001:0013896752:20120617:085901:BLANK !!:11
001:0013880904:20120617:085908:BLANK !!:11
001:0006756113:20120617:085912:BLANK !!:11
001:0013881218:20120617:085914:BLANK !!:11
001:0013896595:20120617:085919:BLANK !!:11
001:0013882358:20120617:085926:BLANK !!:11
001:0013885371:20120617:085928:BLANK !!:11
001:0013900100:20120617:085930:BLANK !!:11
001:0013888273:20120617:085934:BLANK !!:11
001:0006750419:20120617:091123:BLANK !!:11
001:0006760116:20120617:091942:BLANK !!:11
001:0003150394:20120617:092332:BLANK !!:11
001:0013885371:20120617:100025:BLANK !!:11
001:0013893763:20120617:101703:BLANK !!:11
001:0013882945:20120617:101850:BLANK !!:11
001:0013894250:20120617:101932:BLANK !!:11
001:0013888865:20120617:103851:BLANK !!:11
001:0013888865:20120617:110221:BLANK !!:11
001:0006760116:20120617:112739:BLANK !!:11
001:0013894250:20120617:115313:BLANK !!:11
001:0010551140:20120617:115907:BLANK !!:11
001:0013881218:20120617:120353:BLANK !!:11
001:0006756113:20120617:120838:BLANK !!:11
001:0013875043:20120617:120953:BLANK !!:11
001:0013883458:20120617:123035:BLANK !!:11
001:0006755519:20120617:123038:BLANK !!:11
001:0013888913:20120617:123039:BLANK !!:11
001:0013878009:20120617:123041:BLANK !!:11
001:0006751401:20120617:123042:BLANK !!:11
001:0013897942:20120617:123044:BLANK !!:11
001:0006757851:20120617:123045:BLANK !!:11
001:0013884285:20120617:123047:BLANK !!:11
001:0013891964:20120617:123048:BLANK !!:11
001:0009371127:20120617:123050:BLANK !!:11
001:0004631014:20120617:123053:BLANK !!:11
001:0006755185:20120617:123055:BLANK !!:11
001:0006754282:20120617:123057:BLANK !!:11
001:0003101201:20120617:123059:BLANK !!:11
001:0013888628:20120617:123101:BLANK !!:11
001:0006759131:20120617:123105:BLANK !!:11
001:0009354724:20120617:123106:BLANK !!:11
001:0015682735:20120617:123109:BLANK !!:11
001:0010550890:20120617:123110:BLANK !!:11
001:0013214375:20120617:123113:BLANK !!:11
001:0010530367:20120617:123114:BLANK !!:11
001:0015693682:20120617:123116:BLANK !!:11
001:0010537681:20120617:123117:BLANK !!:11
001:0010549787:20120617:123119:BLANK !!:11
001:0013886127:20120617:123123:BLANK !!:11
001:0013929932:20120617:123125:BLANK !!:11
001:0013896430:20120617:123127:BLANK !!:11
001:0013892286:20120617:123128:BLANK !!:11
001:0010549596:20120617:123130:BLANK !!:11
001:0013884590:20120617:123131:BLANK !!:11
001:0006756914:20120617:123133:BLANK !!:11
001:0002270146:20120617:123135:BLANK !!:11
001:0013894885:20120617:123136:BLANK !!:11
001:0006759096:20120617:123138:BLANK !!:11
001:0013897138:20120617:123139:BLANK !!:11
001:0010551136:20120617:123141:BLANK !!:11
001:0013900625:20120617:123142:BLANK !!:11
001:0013896080:20120617:123144:BLANK !!:11
001:0010541183:20120617:123146:BLANK !!:11
001:0010532545:20120617:123149:BLANK !!:11
001:0013887126:20120617:123150:BLANK !!:11
001:0010544149:20120617:123152:BLANK !!:11
001:0015696806:20120617:123153:BLANK !!:11
001:0010530304:20120617:123155:BLANK !!:11
001:0010530514:20120617:123157:BLANK !!:11
001:0010543526:20120617:123159:BLANK !!:11
001:0002267789:20120617:123201:BLANK !!:11
001:0013887437:20120617:123204:BLANK !!:11
001:0010551168:20120617:123206:BLANK !!:11
001:0010531624:20120617:123208:BLANK !!:11
001:0013899674:20120617:123210:BLANK !!:11
001:0013893990:20120617:123212:BLANK !!:11
001:0006755497:20120617:123213:BLANK !!:11
001:0015697731:20120617:123215:BLANK !!:11
001:0010549428:20120617:123218:BLANK !!:11
001:0013894712:20120617:123220:BLANK !!:11
001:0015698466:20120617:123222:BLANK !!:11
001:0010549644:20120617:123224:BLANK !!:11
001:0013894940:20120617:123226:BLANK !!:11
001:0015674317:20120617:123227:BLANK !!:11
001:0002282243:20120617:123229:BLANK !!:11
001:0009364108:20120617:123231:BLANK !!:11
001:0009369521:20120617:123233:BLANK !!:11
001:0010546752:20120617:123236:BLANK !!:11
001:0010549454:20120617:123239:BLANK !!:11
001:0009352948:20120617:123240:BLANK !!:11
001:0010544368:20120617:123242:BLANK !!:11
001:0006758261:20120617:123243:BLANK !!:11
001:0009356502:20120617:123245:BLANK !!:11
001:0013897124:20120617:123246:BLANK !!:11
001:0010547997:20120617:123248:BLANK !!:11
001:0009364774:20120617:123250:BLANK !!:11
001:0009363039:20120617:123251:BLANK !!:11
001:0002294646:20120617:123253:BLANK !!:11
001:0002270962:20120617:123255:BLANK !!:11
001:0009364804:20120617:123256:BLANK !!:11
001:0002294278:20120617:123258:BLANK !!:11
001:0003117697:20120617:123259:BLANK !!:11
001:0013882456:20120617:123301:BLANK !!:11
001:0015689920:20120617:123305:BLANK !!:11
001:0010532210:20120617:123309:BLANK !!:11
001:0000365380:20120617:123310:BLANK !!:11
001:0010549402:20120617:123312:BLANK !!:11
001:0002292481:20120617:123313:BLANK !!:11
001:0000407097:20120617:123315:BLANK !!:11
001:0004619983:20120617:123316:BLANK !!:11
001:0006751519:20120617:123318:BLANK !!:11
001:0006755449:20120617:123319:BLANK !!:11
001:0010549697:20120617:123320:BLANK !!:11
001:0013880789:20120617:123322:BLANK !!:11
001:0006758961:20120617:123324:BLANK !!:11
001:0010547974:20120617:123326:BLANK !!:11
001:0010549455:20120617:123327:BLANK !!:11
001:0000365093:20120617:123329:BLANK !!:11
001:0002282143:20120617:123330:BLANK !!:11
001:0009369518:20120617:123332:BLANK !!:11
001:0009360755:20120617:123334:BLANK !!:11
001:0009360458:20120617:123338:BLANK !!:11
001:0009364806:20120617:123339:BLANK !!:11
001:0002268037:20120617:123341:BLANK !!:11
001:0002290081:20120617:123342:BLANK !!:11
001:0009364324:20120617:123344:BLANK !!:11
001:0015697358:20120617:123345:BLANK !!:11
001:0010549955:20120617:123347:BLANK !!:11
001:0002268007:20120617:123349:BLANK !!:11
001:0010550709:20120617:123351:BLANK !!:11
001:0010537779:20120617:123355:BLANK !!:11
001:0009360756:20120617:123357:BLANK !!:11
001:0002289438:20120617:123359:BLANK !!:11
001:0013895851:20120617:123401:BLANK !!:11
001:0009357241:20120617:123403:BLANK !!:11
001:0010540274:20120617:123405:BLANK !!:11
001:0013897049:20120617:123406:BLANK !!:11
001:0003117930:20120617:123408:BLANK !!:11
001:0015696870:20120617:123410:BLANK !!:11
001:0002277756:20120617:123411:BLANK !!:11
001:0010542279:20120617:123413:BLANK !!:11
001:0013878382:20120617:123414:BLANK !!:11
001:0009350673:20120617:123418:BLANK !!:11
001:0009350670:20120617:123419:BLANK !!:11
001:0015685006:20120617:123421:BLANK !!:11
001:0002290777:20120617:123423:BLANK !!:11
001:0010549407:20120617:123425:BLANK !!:11
001:0009358046:20120617:123427:BLANK !!:11
001:0002293780:20120617:123429:BLANK !!:11
001:0009361055:20120617:123430:BLANK !!:11
001:0013878044:20120617:123432:BLANK !!:11
001:0013888594:20120617:123434:BLANK !!:11
001:0009361053:20120617:123436:BLANK !!:11
001:0002271494:20120617:123438:BLANK !!:11
001:0004620445:20120617:123440:BLANK !!:11
001:0009320970:20120617:123442:BLANK !!:11
001:0013878129:20120617:123444:BLANK !!:11
001:0002276947:20120617:123446:BLANK !!:11
001:0015697397:20120617:123448:BLANK !!:11
001:0010538695:20120617:123450:BLANK !!:11
001:0009368226:20120617:123452:BLANK !!:11
001:0009350669:20120617:123453:BLANK !!:11
001:0009363041:20120617:123455:BLANK !!:11
001:0006760214:20120617:123457:BLANK !!:11
001:0004631652:20120617:123459:BLANK !!:11
001:0009365681:20120617:123501:BLANK !!:11
001:0013898707:20120617:123503:BLANK !!:11
001:0010549509:20120617:123505:BLANK !!:11
001:0010533341:20120617:123512:BLANK !!:11
001:0010534521:20120617:123514:BLANK !!:11
001:0013877112:20120617:123517:BLANK !!:11
001:0002292068:20120617:123520:BLANK !!:11
001:0010531397:20120617:123522:BLANK !!:11
001:0010539352:20120617:123524:BLANK !!:11
001:0013880536:20120617:123542:BLANK !!:11
001:0013952741:20120617:123544:BLANK !!:11
001:0010550707:20120617:123546:BLANK !!:11
001:0013888858:20120617:123547:BLANK !!:11
001:0000365148:20120617:123549:BLANK !!:11
001:0013933226:20120617:123551:BLANK !!:11
001:0010552986:20120617:123553:BLANK !!:11
001:0006759918:20120617:123558:BLANK !!:11
001:0010644113:20120617:123622:BLANK !!:11
001:0010551115:20120617:123626:BLANK !!:11
001:0009369516:20120617:123628:BLANK !!:11
001:0015694386:20120617:123631:BLANK !!:11
001:0009371128:20120617:123648:BLANK !!:11
001:0009366722:20120617:123655:BLANK !!:11
001:0013885080:20120617:123716:BLANK !!:11
001:0013893682:20120617:123826:BLANK !!:11
001:0015688809:20120617:123829:BLANK !!:11
001:0015692449:20120617:123845:BLANK !!:11
001:0013874564:20120617:123936:BLANK !!:11
001:0010549396:20120617:124020:BLANK !!:11
001:0015698029:20120617:124022:BLANK !!:11
001:0003102332:20120617:124109:BLANK !!:11
001:0010549567:20120617:124112:BLANK !!:11
001:0013885080:20120617:124330:BLANK !!:11
001:0002282143:20120617:124418:BLANK !!:11
001:0013896430:20120617:124437:BLANK !!:11
001:0002274131:20120617:124816:BLANK !!:11
001:0013895313:20120617:124819:BLANK !!:11
001:0013879728:20120617:124821:BLANK !!:11
001:0013892138:20120617:124823:BLANK !!:11
001:0013878708:20120617:124826:BLANK !!:11
001:0009347993:20120617:125034:BLANK !!:11
001:0013887437:20120617:125105:BLANK !!:11
001:0010535545:20120617:125145:BLANK !!:11
001:0013952446:20120617:125303:BLANK !!:11
001:0009364321:20120617:125308:BLANK !!:11
001:0013891964:20120617:125357:BLANK !!:11
001:0015692449:20120617:125533:BLANK !!:11
001:0002291755:20120617:125635:BLANK !!:11
001:0015688510:20120617:125637:BLANK !!:11
001:0013874099:20120617:125639:BLANK !!:11
001:0006758261:20120617:125647:BLANK !!:11
001:0010533195:20120617:125719:BLANK !!:11
001:0010538695:20120617:125754:BLANK !!:11
001:0013874564:20120617:130039:BLANK !!:11
001:0010533195:20120617:130302:BLANK !!:11
001:0010530514:20120617:130443:BLANK !!:11
001:0006751401:20120617:130607:BLANK !!:11
001:0010530367:20120617:130640:BLANK !!:11
001:0013893682:20120617:130731:BLANK !!:11
001:0002267789:20120617:130745:BLANK !!:11
001:0009363103:20120617:130754:BLANK !!:11
001:0010533341:20120617:131009:BLANK !!:11
001:0013898707:20120617:131033:BLANK !!:11
001:0006751998:20120617:131105:BLANK !!:11
001:0010544368:20120617:131132:BLANK !!:11
001:0010535545:20120617:131143:BLANK !!:11
001:0006754204:20120617:131206:BLANK !!:11
001:0009364321:20120617:131221:BLANK !!:11
001:0003103684:20120617:131256:BLANK !!:11
001:0009347993:20120617:131300:BLANK !!:11
001:0002293780:20120617:131311:BLANK !!:11
001:0013888594:20120617:131313:BLANK !!:11
001:0009361053:20120617:131316:BLANK !!:11
001:0009364324:20120617:131318:BLANK !!:11
001:0010644113:20120617:131322:BLANK !!:11
001:0002294278:20120617:131325:BLANK !!:11
001:0004619983:20120617:131406:BLANK !!:11
001:0010531624:20120617:131437:BLANK !!:11
001:0013892286:20120617:131446:BLANK !!:11
001:0013952446:20120617:131448:BLANK !!:11
001:0010551115:20120617:131525:BLANK !!:11
001:0013888858:20120617:131529:BLANK !!:11
001:0013880536:20120617:131543:BLANK !!:11
001:0002290081:20120617:131544:BLANK !!:11
001:0003117697:20120617:131711:BLANK !!:11
001:0006755497:20120617:131714:BLANK !!:11
001:0009356502:20120617:131717:BLANK !!:11
001:0013878009:20120617:131722:BLANK !!:11
001:0009357241:20120617:131727:BLANK !!:11
001:0013884590:20120617:131731:BLANK !!:11
001:0015697397:20120617:131735:BLANK !!:11
001:0009361055:20120617:131745:BLANK !!:11
001:0015682735:20120617:131758:BLANK !!:11
001:0013952741:20120617:131800:BLANK !!:11
001:0010550707:20120617:131804:BLANK !!:11
001:0010530304:20120617:131806:BLANK !!:11
001:0013883458:20120617:131816:BLANK !!:11
001:0002270146:20120617:131844:BLANK !!:11
001:0013888913:20120617:131847:BLANK !!:11
001:0010549955:20120617:131850:BLANK !!:11
001:0013214375:20120617:131853:BLANK !!:11
001:0015697358:20120617:131856:BLANK !!:11
001:0002291755:20120617:131918:BLANK !!:11
001:0015688510:20120617:131920:BLANK !!:11
001:0010549504:20120617:131923:BLANK !!:11
001:0013875148:20120617:131926:BLANK !!:11
001:0010547997:20120617:131933:BLANK !!:11
001:0015693682:20120617:131936:BLANK !!:11
001:0006759918:20120617:131940:BLANK !!:11
001:0010549454:20120617:131942:BLANK !!:11
001:0013887126:20120617:131947:BLANK !!:11
001:0013884285:20120617:131951:BLANK !!:11
001:0013900625:20120617:131954:BLANK !!:11
001:0015696806:20120617:131957:BLANK !!:11
001:0013897124:20120617:132000:BLANK !!:11
001:0006754282:20120617:132003:BLANK !!:11
001:0006757851:20120617:132004:BLANK !!:11
001:0009350670:20120617:132007:BLANK !!:11
001:0002268007:20120617:132009:BLANK !!:11
001:0003101201:20120617:132012:BLANK !!:11
001:0010550890:20120617:132016:BLANK !!:11
001:0006755185:20120617:132023:BLANK !!:11
001:0010549644:20120617:132038:BLANK !!:11
001:0009369521:20120617:132041:BLANK !!:11
001:0003117930:20120617:132045:BLANK !!:11
001:0013886127:20120617:132057:BLANK !!:11
001:0004620445:20120617:132109:BLANK !!:11
001:0004631014:20120617:132144:BLANK !!:11
001:0010541183:20120617:132146:BLANK !!:11
001:0006760214:20120617:132148:BLANK !!:11
001:0006753998:20120617:132151:BLANK !!:11
001:0013878382:20120617:132153:BLANK !!:11
001:0006758961:20120617:132154:BLANK !!:11
001:0010549402:20120617:132157:BLANK !!:11
001:0013893990:20120617:132159:BLANK !!:11
001:0004631652:20120617:132202:BLANK !!:11
001:0009365681:20120617:132203:BLANK !!:11
001:0009360755:20120617:132205:BLANK !!:11
001:0002294646:20120617:132211:BLANK !!:11
001:0013897942:20120617:132218:BLANK !!:11
001:0009363041:20120617:132222:BLANK !!:11
001:0009368226:20120617:132224:BLANK !!:11
001:0013875297:20120617:132227:BLANK !!:11
001:0002270962:20120617:132229:BLANK !!:11
001:0013894712:20120617:132232:BLANK !!:11
001:0009364804:20120617:132236:BLANK !!:11
001:0013877112:20120617:132238:BLANK !!:11
001:0000365093:20120617:132243:BLANK !!:11
001:0010549428:20120617:132245:BLANK !!:11
001:0013888628:20120617:132249:BLANK !!:11
001:0010549787:20120617:132252:BLANK !!:11
001:0010546752:20120617:132256:BLANK !!:11
001:0015674317:20120617:132259:BLANK !!:11
001:0002268037:20120617:132302:BLANK !!:11
001:0009354724:20120617:132304:BLANK !!:11
001:0003102332:20120617:132308:BLANK !!:11
001:0010549567:20120617:132309:BLANK !!:11
001:0002289438:20120617:132312:BLANK !!:11
001:0010532545:20120617:132315:BLANK !!:11
001:0009363039:20120617:132319:BLANK !!:11
001:0002292481:20120617:132322:BLANK !!:11
001:0010549455:20120617:132324:BLANK !!:11
001:0010543526:20120617:132331:BLANK !!:11
001:0010551136:20120617:132334:BLANK !!:11
001:0010549596:20120617:132336:BLANK !!:11
001:0006759096:20120617:132347:BLANK !!:11
001:0006753948:20120617:132350:BLANK !!:11
001:0006759131:20120617:132354:BLANK !!:11
001:0013899674:20120617:132358:BLANK !!:11
001:0000365148:20120617:132401:BLANK !!:11
001:0010537779:20120617:132403:BLANK !!:11
001:0013894885:20120617:132406:BLANK !!:11
001:0010551168:20120617:132408:BLANK !!:11
001:0010540274:20120617:132411:BLANK !!:11
001:0010552986:20120617:132414:BLANK !!:11
001:0013933226:20120617:132416:BLANK !!:11
001:0009320970:20120617:132430:BLANK !!:11
001:0010531397:20120617:132433:BLANK !!:11
001:0006756914:20120617:132445:BLANK !!:11
001:0013897049:20120617:132450:BLANK !!:11
001:0013878044:20120617:132454:BLANK !!:11
001:0002277756:20120617:132457:BLANK !!:11
001:0013896080:20120617:132500:BLANK !!:11
001:0013878129:20120617:132504:BLANK !!:11
001:0009371127:20120617:132509:BLANK !!:11
001:0015697731:20120617:132519:BLANK !!:11
001:0002271494:20120617:132521:BLANK !!:11
001:0010544149:20120617:132532:BLANK !!:11
001:0009350669:20120617:132535:BLANK !!:11
001:0009364774:20120617:132538:BLANK !!:11
001:0013880789:20120617:132539:BLANK !!:11
001:0006755449:20120617:132541:BLANK !!:11
001:0010549697:20120617:132543:BLANK !!:11
001:0009350673:20120617:132545:BLANK !!:11
001:0010547974:20120617:132549:BLANK !!:11
001:0013897138:20120617:132551:BLANK !!:11
001:0010532210:20120617:132556:BLANK !!:11
001:0009364108:20120617:132559:BLANK !!:11
001:0010539352:20120617:132605:BLANK !!:11
001:0009369516:20120617:132607:BLANK !!:11
001:0013892138:20120617:132609:BLANK !!:11
001:0013879728:20120617:132612:BLANK !!:11
001:0013878708:20120617:132615:BLANK !!:11
001:0013895313:20120617:132617:BLANK !!:11
001:0013879037:20120617:132619:BLANK !!:11
001:0015694629:20120617:132630:BLANK !!:11
001:0015685006:20120617:132636:BLANK !!:11
001:0015689920:20120617:132640:BLANK !!:11
001:0015698466:20120617:132642:BLANK !!:11
001:0010542279:20120617:132644:BLANK !!:11
001:0009360756:20120617:132646:BLANK !!:11
001:0002290777:20120617:132648:BLANK !!:11
001:0010549407:20120617:132703:BLANK !!:11
001:0013929932:20120617:132721:BLANK !!:11
001:0002274131:20120617:132724:BLANK !!:11
001:0006751519:20120617:132732:BLANK !!:11
001:0013895851:20120617:132736:BLANK !!:11
001:0015691390:20120617:132741:BLANK !!:11
001:0002276947:20120617:132748:BLANK !!:11
001:0002292068:20120617:132824:BLANK !!:11
001:0006755519:20120617:132834:BLANK !!:11
001:0009360458:20120617:132857:BLANK !!:11
001:0013882456:20120617:132859:BLANK !!:11
001:0000365380:20120617:132900:BLANK !!:11
001:0009364806:20120617:132902:BLANK !!:11
001:0015696870:20120617:132904:BLANK !!:11
001:0010528475:20120617:132908:BLANK !!:11
001:0010549509:20120617:132911:BLANK !!:11
001:0009369518:20120617:132923:BLANK !!:11
001:0000407097:20120617:132938:BLANK !!:11
001:0010537629:20120617:132944:BLANK !!:11
001:0015685385:20120617:133002:BLANK !!:11
001:0002282243:20120617:133006:BLANK !!:11
001:0013894940:20120617:133013:BLANK !!:11
001:0010537681:20120617:133116:BLANK !!:11
001:0009358046:20120617:133119:BLANK !!:11
001:0009360116:20120617:133121:BLANK !!:11
001:0002274545:20120617:133224:BLANK !!:11
001:0002292541:20120617:133226:BLANK !!:11
001:0013877389:20120617:133347:BLANK !!:11
001:0010549433:20120617:133350:BLANK !!:11
001:0010549396:20120617:133353:BLANK !!:11
001:0010551185:20120617:133355:BLANK !!:11
001:0010547320:20120617:133358:BLANK !!:11
001:0015690200:20120617:133420:BLANK !!:11
001:0015688809:20120617:133517:BLANK !!:11
001:0015698029:20120617:133717:BLANK !!:11
001:0010550889:20120617:133833:BLANK !!:11
001:0015694386:20120617:133835:BLANK !!:11
001:0010550709:20120617:133954:BLANK !!:11
001:0009366722:20120617:134253:BLANK !!:11
001:0010644113:20120617:135145:BLANK !!:11
001:0010533195:20120617:140829:BLANK !!:11
001:0013900540:20120617:141449:BLANK !!:11
001:0009371128:20120617:142012:BLANK !!:11
001:0002292541:20120617:142209:BLANK !!:11
001:0002274545:20120617:142212:BLANK !!:11
001:0003150394:20120617:142216:BLANK !!:11
001:0010547320:20120617:142455:BLANK !!:11
001:0010549433:20120617:142924:BLANK !!:11
001:0013877389:20120617:143033:BLANK !!:11
001:0010537629:20120617:143140:BLANK !!:11
001:0013894250:20120617:143239:BLANK !!:11
001:0010550889:20120617:143704:BLANK !!:11
001:0003150394:20120617:143738:BLANK !!:11
001:0013900540:20120617:150422:BLANK !!:11
001:0010550898:20120617:150831:BLANK !!:11
001:0010547974:20120617:154325:BLANK !!:11
001:0003150394:20120617:162716:BLANK !!:11
001:0010547974:20120617:163057:BLANK !!:11
001:0013884590:20120617:170047:BLANK !!:11
001:0013888913:20120617:170058:BLANK !!:11
001:0013894885:20120617:170101:BLANK !!:11
001:0013878009:20120617:170103:BLANK !!:11
001:0013896494:20120617:170105:BLANK !!:11
001:0013896430:20120617:170107:BLANK !!:11
001:0010532545:20120617:170108:BLANK !!:11
001:0010547974:20120617:170110:BLANK !!:11
001:0006754257:20120617:170111:BLANK !!:11
001:0013900540:20120617:170113:BLANK !!:11
001:0006751519:20120617:170117:BLANK !!:11
001:0013883458:20120617:170119:BLANK !!:11
001:0006757851:20120617:170121:BLANK !!:11
001:0004631014:20120617:170123:BLANK !!:11
001:0013900625:20120617:170124:BLANK !!:11
001:0013952446:20120617:170127:BLANK !!:11
001:0009364321:20120617:170130:BLANK !!:11
001:0013900680:20120617:170133:BLANK !!:11
001:0013893990:20120617:170135:BLANK !!:11
001:0006755497:20120617:170137:BLANK !!:11
001:0006756914:20120617:170142:BLANK !!:11
001:0006759096:20120617:170144:BLANK !!:11
001:0010544149:20120617:170149:BLANK !!:11
001:0010539061:20120617:170150:BLANK !!:11
001:0013887126:20120617:170152:BLANK !!:11
001:0002270146:20120617:170154:BLANK !!:11
001:0015697397:20120617:170155:BLANK !!:11
001:0006751998:20120617:170158:BLANK !!:11
001:0009371127:20120617:170200:BLANK !!:11
001:0013894712:20120617:170203:BLANK !!:11
001:0006755449:20120617:170206:BLANK !!:11
001:0009361700:20120617:170218:BLANK !!:11
001:0013879728:20120617:170220:BLANK !!:11
001:0010551136:20120617:170223:BLANK !!:11
001:0006753686:20120617:170227:BLANK !!:11
001:0010549428:20120617:170229:BLANK !!:11
001:0010537681:20120617:170233:BLANK !!:11
001:0013897138:20120617:170235:BLANK !!:11
001:0010546752:20120617:170242:BLANK !!:11
001:0010532210:20120617:170247:BLANK !!:11
001:0000407097:20120617:170302:BLANK !!:11
001:0013887437:20120617:170306:BLANK !!:11
001:0009363039:20120617:170314:BLANK !!:11
001:0015685385:20120617:170317:BLANK !!:11
001:0002294646:20120617:170321:BLANK !!:11
001:0015693718:20120617:170324:BLANK !!:11
001:0015689920:20120617:170328:BLANK !!:11
001:0006754204:20120617:170331:BLANK !!:11
001:0002270962:20120617:170333:BLANK !!:11
001:0006758261:20120617:170334:BLANK !!:11
001:0009352948:20120617:170336:BLANK !!:11
001:0010530514:20120617:170338:BLANK !!:11
001:0013879037:20120617:170340:BLANK !!:11
001:0009364774:20120617:170342:BLANK !!:11
001:0013929932:20120617:170344:BLANK !!:11
001:0003117697:20120617:170346:BLANK !!:11
001:0003103684:20120617:170347:BLANK !!:11
001:0010549697:20120617:170349:BLANK !!:11
001:0006753998:20120617:170352:BLANK !!:11
001:0009360458:20120617:170354:BLANK !!:11
001:0013882456:20120617:170355:BLANK !!:11
001:0010549455:20120617:170357:BLANK !!:11
001:0000365380:20120617:170359:BLANK !!:11
001:0010549402:20120617:170401:BLANK !!:11
001:0015691390:20120617:170406:BLANK !!:11
001:0002294278:20120617:170408:BLANK !!:11
001:0000365093:20120617:170410:BLANK !!:11
001:0009369518:20120617:170411:BLANK !!:11
001:0013892286:20120617:170412:BLANK !!:11
001:0010544368:20120617:170414:BLANK !!:11
001:0009360755:20120617:170416:BLANK !!:11
001:0010549407:20120617:170418:BLANK !!:11
001:0009364806:20120617:170419:BLANK !!:11
001:0006757082:20120617:170421:BLANK !!:11
001:0006759918:20120617:170422:BLANK !!:11
001:0013895313:20120617:170427:BLANK !!:11
001:0002290081:20120617:170428:BLANK !!:11
001:0002274131:20120617:170431:BLANK !!:11
001:0013880789:20120617:170433:BLANK !!:11
001:0013878708:20120617:170434:BLANK !!:11
001:0009348592:20120617:170436:BLANK !!:11
001:0002268037:20120617:170437:BLANK !!:11
001:0002273808:20120617:170440:BLANK !!:11
001:0002267666:20120617:170442:BLANK !!:11
001:0013881426:20120617:170446:BLANK !!:11
001:0006755461:20120617:170449:BLANK !!:11
001:0010537779:20120617:170451:BLANK !!:11
001:0004619983:20120617:170452:BLANK !!:11
001:0009350669:20120617:170454:BLANK !!:11
001:0015694629:20120617:170455:BLANK !!:11
001:0009356502:20120617:170457:BLANK !!:11
001:0003110988:20120617:170459:BLANK !!:11
001:0010534521:20120617:170501:BLANK !!:11
001:0010533341:20120617:170504:BLANK !!:11
001:0009354724:20120617:170505:BLANK !!:11
001:0010549787:20120617:170508:BLANK !!:11
001:0010547320:20120617:170511:BLANK !!:11
001:0009364108:20120617:170513:BLANK !!:11
001:0015697358:20120617:170514:BLANK !!:11
001:0013877389:20120617:170517:BLANK !!:11
001:0015698466:20120617:170518:BLANK !!:11
001:0010551185:20120617:170520:BLANK !!:11
001:0010543526:20120617:170522:BLANK !!:11
001:0010549767:20120617:170524:BLANK !!:11
001:0010541183:20120617:170529:BLANK !!:11
001:0013899674:20120617:170531:BLANK !!:11
001:0010550890:20120617:170534:BLANK !!:11
001:0002291755:20120617:170536:BLANK !!:11
001:0002291294:20120617:170539:BLANK !!:11
001:0010540274:20120617:170541:BLANK !!:11
001:0013940479:20120617:170543:BLANK !!:11
001:0009365681:20120617:170545:BLANK !!:11
001:0009364805:20120617:170547:BLANK !!:11
001:0013935114:20120617:170549:BLANK !!:11
001:0015674575:20120617:170551:BLANK !!:11
001:0015692449:20120617:170553:BLANK !!:11
001:0010549955:20120617:170555:BLANK !!:11
001:0006758961:20120617:170559:BLANK !!:11
001:0013875297:20120617:170600:BLANK !!:11
001:0009360116:20120617:170602:BLANK !!:11
001:0003101201:20120617:170604:BLANK !!:11
001:0010549433:20120617:170607:BLANK !!:11
001:0013880536:20120617:170610:BLANK !!:11
001:0010653054:20120617:170613:BLANK !!:11
001:0002293868:20120617:170616:BLANK !!:11
001:0010538666:20120617:170618:BLANK !!:11
001:0002271494:20120617:170620:BLANK !!:11
001:0015696870:20120617:170622:BLANK !!:11
001:0010550294:20120617:170623:BLANK !!:11
001:0013890035:20120617:170628:BLANK !!:11
001:0009368209:20120617:170630:BLANK !!:11
001:0015688510:20120617:170632:BLANK !!:11
001:0015674317:20120617:170635:BLANK !!:11
001:0010547087:20120617:170637:BLANK !!:11
001:0009364773:20120617:170639:BLANK !!:11
001:0003117930:20120617:170640:BLANK !!:11
001:0002277756:20120617:170642:BLANK !!:11
001:0002292541:20120617:170644:BLANK !!:11
001:0015696269:20120617:170647:BLANK !!:11
001:0002274545:20120617:170649:BLANK !!:11
001:0010544167:20120617:170651:BLANK !!:11
001:0015697731:20120617:170652:BLANK !!:11
001:0002293780:20120617:170654:BLANK !!:11
001:0002276947:20120617:170657:BLANK !!:11
001:0010547437:20120617:170659:BLANK !!:11
001:0010542279:20120617:170701:BLANK !!:11
001:0010549567:20120617:170703:BLANK !!:11
001:0002282243:20120617:170705:BLANK !!:11
001:0013894940:20120617:170707:BLANK !!:11
001:0010538695:20120617:170708:BLANK !!:11
001:0009368226:20120617:170710:BLANK !!:11
001:0009363041:20120617:170712:BLANK !!:11
001:0013897124:20120617:170714:BLANK !!:11
001:0002289438:20120617:170718:BLANK !!:11
001:0009357241:20120617:170720:BLANK !!:11
001:0010552986:20120617:170722:BLANK !!:11
001:0006753948:20120617:170723:BLANK !!:11
001:0003116472:20120617:170726:BLANK !!:11
001:0010550709:20120617:170728:BLANK !!:11
001:0003102332:20120617:170730:BLANK !!:11
001:0009363103:20120617:170731:BLANK !!:11
001:0002290826:20120617:170733:BLANK !!:11
001:0003115319:20120617:170735:BLANK !!:11
001:0013897942:20120617:170738:BLANK !!:11
001:0013888858:20120617:170741:BLANK !!:11
001:0002267789:20120617:170743:BLANK !!:11
001:0010551168:20120617:170745:BLANK !!:11
001:0015691426:20120617:170748:BLANK !!:11
001:0010644113:20120617:170750:BLANK !!:11
001:0002292481:20120617:170752:BLANK !!:11
001:0000683571:20120617:170756:BLANK !!:11
001:0013878180:20120617:170759:BLANK !!:11
001:0010550306:20120617:170801:BLANK !!:11
001:0009369521:20120617:170806:BLANK !!:11
001:0010549748:20120617:170808:BLANK !!:11
001:0010549454:20120617:170810:BLANK !!:11
001:0013891973:20120617:170812:BLANK !!:11
001:0010531624:20120617:170815:BLANK !!:11
001:0006757638:20120617:170817:BLANK !!:11
001:0010651256:20120617:170822:BLANK !!:11
001:0010549740:20120617:170824:BLANK !!:11
001:0010549371:20120617:170827:BLANK !!:11
001:0009371128:20120617:170833:BLANK !!:11
001:0009348591:20120617:170847:BLANK !!:11
001:0010539352:20120617:170849:BLANK !!:11
001:0010551210:20120617:170902:BLANK !!:11
001:0010549644:20120617:170922:BLANK !!:11
001:0010531397:20120617:170928:BLANK !!:11
001:0013888865:20120617:170932:BLANK !!:11
001:0013886127:20120617:170935:BLANK !!:11
001:0009366722:20120617:170938:BLANK !!:11
001:0015689962:20120617:171004:BLANK !!:11
001:0013874564:20120617:171013:BLANK !!:11
001:0010535545:20120617:171019:BLANK !!:11
001:0015698029:20120617:171021:BLANK !!:11
001:0013881131:20120617:171053:BLANK !!:11
001:0013944638:20120617:171100:BLANK !!:11
001:0013896080:20120617:171102:BLANK !!:11
001:0013874960:20120617:171104:BLANK !!:11
001:0015688809:20120617:171107:BLANK !!:11
001:0013897222:20120617:171111:BLANK !!:11
001:0003150394:20120617:171123:BLANK !!:11
001:0009369516:20120617:171128:BLANK !!:11
001:0015694386:20120617:171129:BLANK !!:11
001:0013893682:20120617:171225:BLANK !!:11
001:0010549396:20120617:171352:BLANK !!:11
001:0010549509:20120617:171537:BLANK !!:11
001:0002282143:20120617:171609:BLANK !!:11
001:0010550889:20120617:171758:BLANK !!:11
001:0010549413:20120617:171818:BLANK !!:11
001:0010551115:20120617:172100:BLANK !!:11
001:0015682735:20120617:172110:BLANK !!:11
001:0010644113:20120617:172159:BLANK !!:11
001:0013898707:20120617:172720:BLANK !!:11
001:0009357239:20120617:174307:BLANK !!:11
001:0006754282:20120617:174309:BLANK !!:11
001:0013896015:20120617:174311:BLANK !!:11
001:0006759131:20120617:174313:BLANK !!:11
001:0010530304:20120617:174316:BLANK !!:11
001:0013214375:20120617:174320:BLANK !!:11
001:0013879402:20120617:174335:BLANK !!:11
001:0013875148:20120617:174359:BLANK !!:11
001:0009364324:20120617:174403:BLANK !!:11
001:0009350673:20120617:174407:BLANK !!:11
001:0013878382:20120617:174410:BLANK !!:11
001:0015685006:20120617:174425:BLANK !!:11
001:0013895851:20120617:174430:BLANK !!:11
001:0013878129:20120617:174435:BLANK !!:11
001:0004631652:20120617:174448:BLANK !!:11
001:0009358046:20120617:174451:BLANK !!:11
001:0006758789:20120617:174456:BLANK !!:11
001:0009360756:20120617:174500:BLANK !!:11
001:0002290777:20120617:174502:BLANK !!:11
001:0009350670:20120617:174508:BLANK !!:11
001:0013897049:20120617:174519:BLANK !!:11
001:0006760116:20120617:174522:BLANK !!:11
001:0013888628:20120617:174542:BLANK !!:11
001:0006760214:20120617:174545:BLANK !!:11
001:0013887862:20120617:174556:BLANK !!:11
001:0002268007:20120617:174558:BLANK !!:11
001:0009347993:20120617:174604:BLANK !!:11
001:0006753823:20120617:174607:BLANK !!:11
001:0013952741:20120617:174628:BLANK !!:11
001:0010550707:20120617:174631:BLANK !!:11
001:0015682819:20120617:174634:BLANK !!:11
001:0013878044:20120617:174638:BLANK !!:11
001:0009320970:20120617:174642:BLANK !!:11
001:0009361055:20120617:174651:BLANK !!:11
001:0009371413:20120617:174653:BLANK !!:11
001:0013900030:20120617:174655:BLANK !!:11
001:0009347994:20120617:174657:BLANK !!:11
001:0013877172:20120617:174659:BLANK !!:11
001:0010548132:20120617:174707:BLANK !!:11
001:0009361053:20120617:174709:BLANK !!:11
001:0009354725:20120617:174711:BLANK !!:11
001:0010551155:20120617:174714:BLANK !!:11
001:0004620445:20120617:174716:BLANK !!:11
001:0002292068:20120617:174720:BLANK !!:11
001:0013885002:20120617:174723:BLANK !!:11
001:0013887499:20120617:174725:BLANK !!:11
001:0000365148:20120617:174728:BLANK !!:11
001:0013892138:20120617:174730:BLANK !!:11
001:0013933226:20120617:174733:BLANK !!:11
001:0013888594:20120617:174736:BLANK !!:11
001:0010549884:20120617:175125:BLANK !!:11
001:0004631020:20120617:175545:BLANK !!:11
001:0009357257:20120617:180020:BLANK !!:11
001:0006760116:20120617:180157:BLANK !!:11
001:0010551140:20120617:180315:BLANK !!:11
001:0013880904:20120617:180612:BLANK !!:11
001:0013896595:20120617:180618:BLANK !!:11
001:0013882358:20120617:180624:BLANK !!:11
001:0013896958:20120617:180626:BLANK !!:11
001:0013892922:20120617:180711:BLANK !!:11
001:0013889932:20120617:180715:BLANK !!:11
001:0013888273:20120617:180718:BLANK !!:11
001:0013881218:20120617:180725:BLANK !!:11
001:0013896752:20120617:180826:BLANK !!:11
001:0013900100:20120617:180845:BLANK !!:11
001:0013886572:20120617:180856:BLANK !!:11
001:0013896823:20120617:180900:BLANK !!:11
001:0013901637:20120617:180920:BLANK !!:11
001:0013889788:20120617:180928:BLANK !!:11
001:0013896432:20120617:180951:BLANK !!:11
001:0013875043:20120617:181622:BLANK !!:11
001:0015690200:20120617:183137:BLANK !!:11
001:0010549504:20120617:183844:BLANK !!:11
001:0015694393:20120617:184024:BLANK !!:11
001:0015693730:20120617:185419:BLANK !!:11
001:0009364772:20120617:190843:BLANK !!:11
001:0002295364:20120617:190846:BLANK !!:11
001:0006750527:20120617:192653:BLANK !!:11
001:0006760141:20120617:193034:BLANK !!:11
001:0010628117:20120617:193140:BLANK !!:11
001:0013877112:20120617:193146:BLANK !!:11
001:0015693682:20120617:193149:BLANK !!:11
001:0013884285:20120617:193151:BLANK !!:11
001:0006755519:20120617:193154:BLANK !!:11
001:0010530367:20120617:193156:BLANK !!:11
001:0015688795:20120617:194026:BLANK !!:11
001:0010550340:20120617:194254:BLANK !!:11
001:0006752093:20120617:194706:BLANK !!:11
001:0002273235:20120617:194827:BLANK !!:11
001:0010542101:20120617:195600:BLANK !!:11
001:0010634177:20120617:195604:BLANK !!:11
001:0010549386:20120617:195727:BLANK !!:11
001:0015685005:20120617:201204:BLANK !!:11
001:0000365761:20120617:202351:BLANK !!:11
001:0013930013:20120617:203214:BLANK !!:11
001:0006751401:20120617:203215:BLANK !!:11
001:0010528475:20120617:203223:BLANK !!:11
001:0013891964:20120617:203226:BLANK !!:11
001:0013883642:20120617:203229:BLANK !!:11
001:0013894338:20120617:203233:BLANK !!:11
001:0002270614:20120617:203236:BLANK !!:11
001:0002282162:20120617:203242:BLANK !!:11
001:0006755185:20120617:203247:BLANK !!:11
001:0002267758:20120617:203949:BLANK !!:11
001:0013900664:20120617:203951:BLANK !!:11
001:0010536569:20120617:203955:BLANK !!:11
001:0010553521:20120617:205438:BLANK !!:11
001:0006760141:20120617:220244:BLANK !!:11
001:0002273235:20120617:220248:BLANK !!:11
001:0010542101:20120617:220250:BLANK !!:11
001:0010550340:20120617:220252:BLANK !!:11
001:0015688795:20120617:220255:BLANK !!:11
001:0006752093:20120617:220256:BLANK !!:11
001:0010628117:20120617:220326:BLANK !!:11
001:0015688795:20120617:221833:BLANK !!:11
001:0010628117:20120617:222344:BLANK !!:11
001:0006760141:20120617:223001:BLANK !!:11
001:0013888305:20120617:223112:BLANK !!:11
001:0010550340:20120617:224748:BLANK !!:11
001:0006752093:20120617:224750:BLANK !!:11
001:0002273235:20120617:224932:BLANK !!:11
001:0010542101:20120617:225212:BLANK !!:11
001:0006760141:20120618:050219:BLANK !!:11
001:0010549386:20120618:050222:BLANK !!:11
001:0010542101:20120618:050229:BLANK !!:11
001:0002273235:20120618:050425:BLANK !!:11
001:0010550340:20120618:050508:BLANK !!:11
001:0006752093:20120618:050512:BLANK !!:11
001:0010550898:20120618:065045:BLANK !!:11
001:0010550306:20120618:073254:BLANK !!:11
001:0006757082:20120618:073304:BLANK !!:11
001:0010551210:20120618:073316:BLANK !!:11
001:0009364805:20120618:073319:BLANK !!:11
001:0006755461:20120618:073322:BLANK !!:11
001:0006751401:20120618:073400:BLANK !!:11
001:0002274545:20120618:073406:BLANK !!:11
001:0013885002:20120618:073434:BLANK !!:11
001:0002268037:20120618:073436:BLANK !!:11
001:0002290081:20120618:073439:BLANK !!:11
001:0013952446:20120618:073452:BLANK !!:11
001:0013900540:20120618:073457:BLANK !!:11
001:0003103684:20120618:073459:BLANK !!:11
001:0015696806:20120618:073504:BLANK !!:11
001:0013897942:20120618:073624:BLANK !!:11
001:0013893682:20120618:073644:BLANK !!:11
001:0010530367:20120618:073655:BLANK !!:11
001:0010549884:20120618:073711:BLANK !!:11
001:0010533341:20120618:073715:BLANK !!:11
001:0013891973:20120618:073733:BLANK !!:11
001:0002270614:20120618:073736:BLANK !!:11
001:0006755497:20120618:073803:BLANK !!:11
001:0006751519:20120618:073808:BLANK !!:11
001:0009348592:20120618:073823:BLANK !!:11
001:0013875397:20120618:073849:BLANK !!:11
001:0009371131:20120618:073903:BLANK !!:11
001:0009361053:20120618:073907:BLANK !!:11
001:0009347994:20120618:073919:BLANK !!:11
001:0013887499:20120618:073924:BLANK !!:11
001:0006758431:20120618:073929:BLANK !!:11
001:0010539061:20120618:073948:BLANK !!:11
001:0013878180:20120618:073951:BLANK !!:11
001:0010549504:20120618:073953:BLANK !!:11
001:0015693718:20120618:074001:BLANK !!:11
001:0006757638:20120618:074044:BLANK !!:11
001:0009363103:20120618:074051:BLANK !!:11
001:0015684972:20120618:074100:BLANK !!:11
001:0003110988:20120618:074117:BLANK !!:11
001:0013900030:20120618:074120:BLANK !!:11
001:0010540274:20120618:074211:BLANK !!:11
001:0002282143:20120618:074216:BLANK !!:11
001:0013930013:20120618:074219:BLANK !!:11
001:0006757851:20120618:074221:BLANK !!:11
001:0013894885:20120618:074223:BLANK !!:11
001:0010538666:20120618:074228:BLANK !!:11
001:0010549596:20120618:074230:BLANK !!:11
001:0009354724:20120618:074232:BLANK !!:11
001:0010547320:20120618:074235:BLANK !!:11
001:0013891964:20120618:074238:BLANK !!:11
001:0013887437:20120618:074257:BLANK !!:11
001:0009361700:20120618:074300:BLANK !!:11
001:0006751998:20120618:074304:BLANK !!:11
001:0006758261:20120618:074305:BLANK !!:11
001:0009371127:20120618:074322:BLANK !!:11
001:0002267666:20120618:074344:BLANK !!:11
001:0010549787:20120618:074357:BLANK !!:11
001:0006756914:20120618:074401:BLANK !!:11
001:0010532210:20120618:074405:BLANK !!:11
001:0006759918:20120618:074407:BLANK !!:11
001:0006754204:20120618:074409:BLANK !!:11
001:0003117697:20120618:074411:BLANK !!:11
001:0013900625:20120618:074418:BLANK !!:11
001:0009350670:20120618:074421:BLANK !!:11
001:0002268007:20120618:074423:BLANK !!:11
001:0013878009:20120618:074425:BLANK !!:11
001:0013896494:20120618:074427:BLANK !!:11
001:0010549740:20120618:074430:BLANK !!:11
001:0010549454:20120618:074433:BLANK !!:11
001:0010532545:20120618:074437:BLANK !!:11
001:0013888865:20120618:074440:BLANK !!:11
001:0002292481:20120618:074457:BLANK !!:11
001:0004631020:20120618:074504:BLANK !!:11
001:0013897124:20120618:074506:BLANK !!:11
001:0013892286:20120618:074510:BLANK !!:11
001:0013878129:20120618:074512:BLANK !!:11
001:0006754282:20120618:074514:BLANK !!:11
001:0013894712:20120618:074517:BLANK !!:11
001:0010543526:20120618:074520:BLANK !!:11
001:0010549955:20120618:074524:BLANK !!:11
001:0006759096:20120618:074532:BLANK !!:11
001:0010547091:20120618:074536:BLANK !!:11
001:0009364773:20120618:074539:BLANK !!:11
001:0003102332:20120618:074541:BLANK !!:11
001:0003115319:20120618:074544:BLANK !!:11
001:0015682735:20120618:074548:BLANK !!:11
001:0002282162:20120618:074554:BLANK !!:11
001:0006754257:20120618:074558:BLANK !!:11
001:0002291755:20120618:074602:BLANK !!:11
001:0015697358:20120618:074603:BLANK !!:11
001:0002291294:20120618:074606:BLANK !!:11
001:0010544149:20120618:074610:BLANK !!:11
001:0010547087:20120618:074615:BLANK !!:11
001:0013893763:20120618:074619:BLANK !!:11
001:0010544167:20120618:074622:BLANK !!:11
001:0006755519:20120618:074625:BLANK !!:11
001:0003117930:20120618:074627:BLANK !!:11
001:0013944638:20120618:074628:BLANK !!:11
001:0013888594:20120618:074631:BLANK !!:11
001:0013892138:20120618:074633:BLANK !!:11
001:0013888305:20120618:074637:BLANK !!:11
001:0009320970:20120618:074640:BLANK !!:11
001:0002267758:20120618:074642:BLANK !!:11
001:0013214375:20120618:074644:BLANK !!:11
001:0013878708:20120618:074646:BLANK !!:11
001:0002274131:20120618:074650:BLANK !!:11
001:0013895313:20120618:074651:BLANK !!:11
001:0015688510:20120618:074653:BLANK !!:11
001:0002289438:20120618:074655:BLANK !!:11
001:0013896080:20120618:074659:BLANK !!:11
001:0013874960:20120618:074701:BLANK !!:11
001:0010551115:20120618:074703:BLANK !!:11
001:0015697397:20120618:074705:BLANK !!:11
001:0000365148:20120618:074707:BLANK !!:11
001:0006760214:20120618:074709:BLANK !!:11
001:0013896430:20120618:074711:BLANK !!:11
001:0010537779:20120618:074714:BLANK !!:11
001:0013884590:20120618:074717:BLANK !!:11
001:0013884285:20120618:074720:BLANK !!:11
001:0013887126:20120618:074722:BLANK !!:11
001:0013935114:20120618:074724:BLANK !!:11
001:0013940479:20120618:074727:BLANK !!:11
001:0013887862:20120618:074729:BLANK !!:11
001:0006758789:20120618:074732:BLANK !!:11
001:0015685005:20120618:074735:BLANK !!:11
001:0015689962:20120618:074737:BLANK !!:11
001:0013890035:20120618:074739:BLANK !!:11
001:0009363041:20120618:074742:BLANK !!:11
001:0010552986:20120618:074745:BLANK !!:11
001:0013933226:20120618:074747:BLANK !!:11
001:0010549413:20120618:074751:BLANK !!:11
001:0009356502:20120618:074755:BLANK !!:11
001:0003101201:20120618:074807:BLANK !!:11
001:0010549567:20120618:074812:BLANK !!:11
001:0010551136:20120618:074815:BLANK !!:11
001:0010549455:20120618:074817:BLANK !!:11
001:0002273808:20120618:074832:BLANK !!:11
001:0013879728:20120618:074834:BLANK !!:11
001:0009368209:20120618:074836:BLANK !!:11
001:0013952741:20120618:074838:BLANK !!:11
001:0009357241:20120618:074840:BLANK !!:11
001:0010530304:20120618:074843:BLANK !!:11
001:0010530514:20120618:074848:BLANK !!:11
001:0002271494:20120618:074851:BLANK !!:11
001:0009357257:20120618:074856:BLANK !!:11
001:0002295364:20120618:074857:BLANK !!:11
001:0013879037:20120618:074901:BLANK !!:11
001:0009369516:20120618:074908:BLANK !!:11
001:0009360458:20120618:074911:BLANK !!:11
001:0013882456:20120618:074913:BLANK !!:11
001:0009364806:20120618:074915:BLANK !!:11
001:0015689937:20120618:074917:BLANK !!:11
001:0015694393:20120618:074925:BLANK !!:11
001:0002267789:20120618:074929:BLANK !!:11
001:0002294278:20120618:074931:BLANK !!:11
001:0009369521:20120618:074933:BLANK !!:11
001:0013877112:20120618:074938:BLANK !!:11
001:0002290826:20120618:074940:BLANK !!:11
001:0013878382:20120618:074943:BLANK !!:11
001:0006753998:20120618:074946:BLANK !!:11
001:0006758961:20120618:074948:BLANK !!:11
001:0013897049:20120618:074950:BLANK !!:11
001:0010550707:20120618:074953:BLANK !!:11
001:0004619983:20120618:074956:BLANK !!:11
001:0013874564:20120618:075000:BLANK !!:11
001:0006753686:20120618:075001:BLANK !!:11
001:0010551168:20120618:075003:BLANK !!:11
001:0010539352:20120618:075007:BLANK !!:11
001:0002270146:20120618:075017:BLANK !!:11
001:0015688809:20120618:075023:BLANK !!:11
001:0010550889:20120618:075034:BLANK !!:11
001:0009371413:20120618:075042:BLANK !!:11
001:0002294646:20120618:075047:BLANK !!:11
001:0013885080:20120618:075051:BLANK !!:11
001:0002292541:20120618:075052:BLANK !!:11
001:0010546752:20120618:075054:BLANK !!:11
001:0009360756:20120618:075123:BLANK !!:11
001:0002290777:20120618:075125:BLANK !!:11
001:0013894338:20120618:075129:BLANK !!:11
001:0010549748:20120618:075132:BLANK !!:11
001:0000365380:20120618:075137:BLANK !!:11
001:0010531397:20120618:075139:BLANK !!:11
001:0009352948:20120618:075143:BLANK !!:11
001:0009358046:20120618:075147:BLANK !!:11
001:0009360116:20120618:075148:BLANK !!:11
001:0015691426:20120618:075151:BLANK !!:11
001:0002270962:20120618:075153:BLANK !!:11
001:0009364324:20120618:075200:BLANK !!:11
001:0013894940:20120618:075203:BLANK !!:11
001:0010549433:20120618:075211:BLANK !!:11
001:0002293868:20120618:075214:BLANK !!:11
001:0015693730:20120618:075217:BLANK !!:11
001:0006750419:20120618:075220:BLANK !!:11
001:0015689920:20120618:075223:BLANK !!:11
001:0010544368:20120618:075227:BLANK !!:11
001:0009363039:20120618:075230:BLANK !!:11
001:0015697731:20120618:075233:BLANK !!:11
001:0013895851:20120618:075239:BLANK !!:11
001:0009364804:20120618:075242:BLANK !!:11
001:0013880536:20120618:075245:BLANK !!:11
001:0009357239:20120618:075248:BLANK !!:11
001:0010541183:20120618:075253:BLANK !!:11
001:0006755185:20120618:075256:BLANK !!:11
001:0009364774:20120618:075259:BLANK !!:11
001:0009360755:20120618:075302:BLANK !!:11
001:0010531624:20120618:075306:BLANK !!:11
001:0009365681:20120618:075308:BLANK !!:11
001:0004631652:20120618:075310:BLANK !!:11
001:0010549396:20120618:075314:BLANK !!:11
001:0013893990:20120618:075316:BLANK !!:11
001:0013875148:20120618:075320:BLANK !!:11
001:0010550294:20120618:075322:BLANK !!:11
001:0010549766:20120618:075326:BLANK !!:11
001:0002282243:20120618:075330:BLANK !!:11
001:0010535545:20120618:075333:BLANK !!:11
001:0010534521:20120618:075335:BLANK !!:11
001:0006753948:20120618:075339:BLANK !!:11
001:0013877389:20120618:075341:BLANK !!:11
001:0015693682:20120618:075344:BLANK !!:11
001:0013888628:20120618:075347:BLANK !!:11
001:0013889930:20120618:075349:BLANK !!:11
001:0015692449:20120618:075352:BLANK !!:11
001:0010653054:20120618:075356:BLANK !!:11
001:0009364321:20120618:075402:BLANK !!:11
001:0013877172:20120618:075431:BLANK !!:11
001:0015698466:20120618:075437:BLANK !!:11
001:0010542279:20120618:075439:BLANK !!:11
001:0009347993:20120618:075442:BLANK !!:11
001:0006753823:20120618:075444:BLANK !!:11
001:0010538695:20120618:075447:BLANK !!:11
001:0010549402:20120618:075448:BLANK !!:11
001:0010536569:20120618:075451:BLANK !!:11
001:0013881426:20120618:075454:BLANK !!:11
001:0010549428:20120618:075456:BLANK !!:11
001:0010549407:20120618:075459:BLANK !!:11
001:0006755449:20120618:075503:BLANK !!:11
001:0015696870:20120618:075507:BLANK !!:11
001:0010547437:20120618:075509:BLANK !!:11
001:0013874099:20120618:075511:BLANK !!:11
001:0002277756:20120618:075513:BLANK !!:11
001:0002292068:20120618:075519:BLANK !!:11
001:0010549371:20120618:075529:BLANK !!:11
001:0009364108:20120618:075536:BLANK !!:11
001:0015674317:20120618:075539:BLANK !!:11
001:0009361055:20120618:075541:BLANK !!:11
001:0002293780:20120618:075545:BLANK !!:11
001:0013877148:20120618:075554:BLANK !!:11
001:0004620445:20120618:075556:BLANK !!:11
001:0004631014:20120618:075602:BLANK !!:11
001:0013878044:20120618:075615:BLANK !!:11
001:0010551155:20120618:075618:BLANK !!:11
001:0013875297:20120618:075623:BLANK !!:11
001:0015685006:20120618:075631:BLANK !!:11
001:0015694629:20120618:075635:BLANK !!:11
001:0015696269:20120618:075643:BLANK !!:11
001:0015698029:20120618:075645:BLANK !!:11
001:0009364772:20120618:075647:BLANK !!:11
001:0013880789:20120618:075650:BLANK !!:11
001:0000365093:20120618:075652:BLANK !!:11
001:0009350673:20120618:075655:BLANK !!:11
001:0013896015:20120618:075657:BLANK !!:11
001:0010549767:20120618:075659:BLANK !!:11
001:0009369518:20120618:075712:BLANK !!:11
001:0002276947:20120618:075716:BLANK !!:11
001:0010550890:20120618:075717:BLANK !!:11
001:0013897138:20120618:075720:BLANK !!:11
001:0006759131:20120618:075724:BLANK !!:11
001:0009350669:20120618:075727:BLANK !!:11
001:0010547997:20120618:075729:BLANK !!:11
001:0010549697:20120618:075731:BLANK !!:11
001:0002284416:20120618:075736:BLANK !!:11
001:0000407097:20120618:075755:BLANK !!:11
001:0009354725:20120618:075802:BLANK !!:11
001:0013898707:20120618:075824:BLANK !!:11
001:0010550709:20120618:075836:BLANK !!:11
001:0013888858:20120618:075839:BLANK !!:11
001:0013879402:20120618:075841:BLANK !!:11
001:0015682819:20120618:075846:BLANK !!:11
001:0010528475:20120618:075859:BLANK !!:11
001:0015782013:20120618:075904:BLANK !!:11
001:0015685385:20120618:075923:BLANK !!:11
001:0009363036:20120618:075928:BLANK !!:11
001:0013886928:20120618:075946:BLANK !!:11
001:0013881131:20120618:080008:BLANK !!:11
001:0009368226:20120618:080011:BLANK !!:11
001:0010548132:20120618:080014:BLANK !!:11
001:0015674575:20120618:080022:BLANK !!:11
001:0000365761:20120618:080035:BLANK !!:11
001:0003150394:20120618:080037:BLANK !!:11
001:0013883642:20120618:080039:BLANK !!:11
001:0013900680:20120618:080150:BLANK !!:11
001:0009348591:20120618:080203:BLANK !!:11
001:0015694386:20120618:080216:BLANK !!:11
001:0015691390:20120618:080226:BLANK !!:11
001:0015690200:20120618:080245:BLANK !!:11
001:0010547974:20120618:080425:BLANK !!:11
001:0010537681:20120618:080627:BLANK !!:11
001:0013897222:20120618:080724:BLANK !!:11
001:0015688795:20120618:081111:BLANK !!:11
001:0013900664:20120618:082255:BLANK !!:11
001:0009366722:20120618:082534:BLANK !!:11
001:0010628117:20120618:082726:BLANK !!:11
001:0006750527:20120618:082729:BLANK !!:11
001:0013877148:20120618:083023:BLANK !!:11
001:0010634177:20120618:083040:BLANK !!:11
001:0013896958:20120618:084719:BLANK !!:11
001:0013889932:20120618:084730:BLANK !!:11
001:0013886572:20120618:084741:BLANK !!:11
001:0013892922:20120618:084742:BLANK !!:11
001:0013882945:20120618:084748:BLANK !!:11
001:0013896823:20120618:084816:BLANK !!:11
001:0010644113:20120618:085257:BLANK !!:11
001:0013894250:20120618:085451:BLANK !!:11
001:0013880904:20120618:085454:BLANK !!:11
001:0013896752:20120618:085458:BLANK !!:11
001:0006756113:20120618:085501:BLANK !!:11
001:0013881218:20120618:085505:BLANK !!:11
001:0013882358:20120618:085509:BLANK !!:11
001:0013896595:20120618:085511:BLANK !!:11
001:0013888273:20120618:085514:BLANK !!:11
001:0013885371:20120618:085519:BLANK !!:11
001:0013889788:20120618:085523:BLANK !!:11
001:0013900100:20120618:085543:BLANK !!:11
001:0013896432:20120618:085729:BLANK !!:11
001:0013875043:20120618:085807:BLANK !!:11
001:0010553521:20120618:085917:BLANK !!:11
001:0010651256:20120618:090926:BLANK !!:11
001:0010550910:20120618:090933:BLANK !!:11
001:0013885371:20120618:093025:BLANK !!:11